# MagicaVoxel @ Ephtracy

# group
g TurretBase

# material
mtllib TurretBase.mtl
usemtl palette

# normals
vn -1 0 0
vn 1 0 0
vn 0 0 1
vn 0 0 -1
vn 0 -1 0
vn 0 1 0

# texcoords
vt 0.958984 0.5
vt 0.966797 0.5
vt 0.978516 0.5
vt 0.986328 0.5

# verts
v -20 0 20
v -20 0 -20
v -20 1 20
v -20 1 -20
v -17 0 18
v -17 0 17
v -17 0 -17
v -17 0 -18
v -17 1 18
v -17 1 17
v -17 1 -17
v -17 1 -18
v -15 1 15
v -15 1 -15
v -15 2 15
v -15 2 -15
v -13 2 14
v -13 2 6
v -13 2 5
v -13 2 4
v -13 2 -4
v -13 2 -5
v -13 2 -6
v -13 2 -14
v -13 3 14
v -13 3 7
v -13 3 -7
v -13 3 -14
v -13 8 13
v -13 8 7
v -13 8 -7
v -13 8 -13
v -13 9 13
v -13 9 7
v -13 9 -7
v -13 9 -13
v -13 12 7
v -13 12 6
v -13 12 5
v -13 12 4
v -13 12 -4
v -13 12 -5
v -13 12 -6
v -13 12 -7
v -12 2 6
v -12 2 5
v -12 2 4
v -12 2 -4
v -12 2 -5
v -12 2 -6
v -12 3 13
v -12 3 12
v -12 3 7
v -12 3 -7
v -12 3 -12
v -12 3 -13
v -12 8 13
v -12 8 12
v -12 8 7
v -12 8 -7
v -12 8 -12
v -12 8 -13
v -12 9 12
v -12 9 7
v -12 9 -7
v -12 9 -12
v -12 11 12
v -12 11 7
v -12 11 6
v -12 11 5
v -12 11 4
v -12 11 -4
v -12 11 -5
v -12 11 -6
v -12 11 -7
v -12 11 -12
v -11 12 7
v -11 12 6
v -11 12 5
v -11 12 4
v -11 12 -4
v -11 12 -5
v -11 12 -6
v -11 12 -7
v -11 13 7
v -11 13 5
v -11 13 -5
v -11 13 -7
v -11 15 5
v -11 15 4
v -11 15 -4
v -11 15 -5
v -10 11 10
v -10 11 7
v -10 11 6
v -10 11 5
v -10 11 4
v -10 11 -4
v -10 11 -5
v -10 11 -6
v -10 11 -7
v -10 11 -10
v -10 12 6
v -10 12 5
v -10 12 -5
v -10 12 -6
v -10 13 7
v -10 13 5
v -10 13 -5
v -10 13 -7
v -10 14 10
v -10 14 5
v -10 14 4
v -10 14 -4
v -10 14 -5
v -10 14 -10
v -10 16 10
v -10 16 6
v -10 16 -6
v -10 16 -10
v -10 17 10
v -10 17 6
v -10 17 -6
v -10 17 -10
v -9 14 7
v -9 14 6
v -9 14 -6
v -9 14 -7
v -9 15 9
v -9 15 7
v -9 15 -7
v -9 15 -9
v -9 16 9
v -9 16 6
v -9 16 -6
v -9 16 -9
v -8 13 9
v -8 13 8
v -8 13 7
v -8 13 6
v -8 13 3
v -8 13 2
v -8 13 -2
v -8 13 -3
v -8 13 -6
v -8 13 -7
v -8 13 -8
v -8 13 -9
v -8 14 9
v -8 14 8
v -8 14 7
v -8 14 6
v -8 14 3
v -8 14 2
v -8 14 -2
v -8 14 -3
v -8 14 -6
v -8 14 -7
v -8 14 -8
v -8 14 -9
v -8 15 8
v -8 15 7
v -8 15 -7
v -8 15 -8
v -7 12 8
v -7 12 7
v -7 12 -7
v -7 12 -8
v -7 13 6
v -7 13 5
v -7 13 -5
v -7 13 -6
v -7 14 9
v -7 14 8
v -7 14 7
v -7 14 6
v -7 14 5
v -7 14 -5
v -7 14 -6
v -7 14 -7
v -7 14 -8
v -7 14 -9
v -7 15 9
v -7 15 8
v -7 15 -8
v -7 15 -9
v -6 12 5
v -6 12 4
v -6 12 -4
v -6 12 -5
v -6 13 5
v -6 13 4
v -6 13 -4
v -6 13 -5
v -5 2 13
v -5 2 12
v -5 2 -12
v -5 2 -13
v -5 8 13
v -5 8 12
v -5 8 -12
v -5 8 -13
v -5 9 13
v -5 9 12
v -5 9 -12
v -5 9 -13
v -5 11 12
v -5 11 10
v -5 11 6
v -5 11 5
v -5 11 -5
v -5 11 -6
v -5 11 -10
v -5 11 -12
v -5 12 13
v -5 12 10
v -5 12 6
v -5 12 5
v -5 12 -5
v -5 12 -6
v -5 12 -10
v -5 12 -13
v -3 2 13
v -3 2 12
v -3 2 -12
v -3 2 -13
v -3 11 12
v -3 11 10
v -3 11 -10
v -3 11 -12
v -3 12 13
v -3 12 10
v -3 12 3
v -3 12 2
v -3 12 -2
v -3 12 -3
v -3 12 -10
v -3 12 -13
v -3 13 3
v -3 13 2
v -3 13 -2
v -3 13 -3
v 2 2 13
v 2 2 12
v 2 2 -12
v 2 2 -13
v 2 11 12
v 2 11 10
v 2 11 3
v 2 11 2
v 2 11 -2
v 2 11 -3
v 2 11 -10
v 2 11 -12
v 2 12 13
v 2 12 10
v 2 12 -10
v 2 12 -13
v 2 13 3
v 2 13 2
v 2 13 -2
v 2 13 -3
v 4 2 13
v 4 2 12
v 4 2 -12
v 4 2 -13
v 4 11 12
v 4 11 10
v 4 11 5
v 4 11 4
v 4 11 -4
v 4 11 -5
v 4 11 -10
v 4 11 -12
v 4 12 13
v 4 12 10
v 4 12 6
v 4 12 5
v 4 12 4
v 4 12 3
v 4 12 2
v 4 12 -2
v 4 12 -3
v 4 12 -4
v 4 12 -5
v 4 12 -6
v 4 12 -10
v 4 12 -13
v 4 13 6
v 4 13 5
v 4 13 3
v 4 13 2
v 4 13 -2
v 4 13 -3
v 4 13 -5
v 4 13 -6
v 5 11 4
v 5 11 3
v 5 11 2
v 5 11 -2
v 5 11 -3
v 5 11 -4
v 5 12 7
v 5 12 6
v 5 12 5
v 5 12 4
v 5 12 3
v 5 12 2
v 5 12 -2
v 5 12 -3
v 5 12 -4
v 5 12 -5
v 5 12 -6
v 5 12 -7
v 5 13 7
v 5 13 6
v 5 13 5
v 5 13 4
v 5 13 -4
v 5 13 -5
v 5 13 -6
v 5 13 -7
v 5 14 7
v 5 14 6
v 5 14 -6
v 5 14 -7
v 5 16 10
v 5 16 9
v 5 16 -9
v 5 16 -10
v 5 17 10
v 5 17 9
v 5 17 -9
v 5 17 -10
v 6 11 6
v 6 11 5
v 6 11 -5
v 6 11 -6
v 6 12 6
v 6 12 5
v 6 12 -5
v 6 12 -6
v 6 13 8
v 6 13 7
v 6 13 6
v 6 13 5
v 6 13 3
v 6 13 2
v 6 13 -2
v 6 13 -3
v 6 13 -5
v 6 13 -6
v 6 13 -7
v 6 13 -8
v 6 14 9
v 6 14 8
v 6 14 7
v 6 14 6
v 6 14 5
v 6 14 3
v 6 14 2
v 6 14 -2
v 6 14 -3
v 6 14 -5
v 6 14 -6
v 6 14 -7
v 6 14 -8
v 6 14 -9
v 6 15 8
v 6 15 7
v 6 15 -7
v 6 15 -8
v 6 16 9
v 6 16 8
v 6 16 -8
v 6 16 -9
v 7 12 5
v 7 12 3
v 7 12 2
v 7 12 -2
v 7 12 -3
v 7 12 -5
v 7 13 5
v 7 13 4
v 7 13 3
v 7 13 2
v 7 13 -2
v 7 13 -3
v 7 13 -4
v 7 13 -5
v 7 14 7
v 7 14 6
v 7 14 4
v 7 14 3
v 7 14 -3
v 7 14 -4
v 7 14 -6
v 7 14 -7
v 7 15 7
v 7 15 6
v 7 15 -6
v 7 15 -7
v 8 12 8
v 8 12 7
v 8 12 -7
v 8 12 -8
v 8 13 8
v 8 13 7
v 8 13 5
v 8 13 4
v 8 13 -4
v 8 13 -5
v 8 13 -7
v 8 13 -8
v 8 14 5
v 8 14 4
v 8 14 -4
v 8 14 -5
v 8 15 8
v 8 15 6
v 8 15 -6
v 8 15 -8
v 8 16 8
v 8 16 6
v 8 16 -6
v 8 16 -8
v 9 13 9
v 9 13 5
v 9 13 3
v 9 13 -3
v 9 13 -5
v 9 13 -9
v 9 14 9
v 9 14 7
v 9 14 6
v 9 14 5
v 9 14 4
v 9 14 3
v 9 14 -3
v 9 14 -4
v 9 14 -5
v 9 14 -6
v 9 14 -7
v 9 14 -9
v 9 15 5
v 9 15 4
v 9 15 -4
v 9 15 -5
v 9 16 9
v 9 16 6
v 9 16 -6
v 9 16 -9
v 9 17 9
v 9 17 6
v 9 17 -6
v 9 17 -9
v 10 2 14
v 10 2 12
v 10 2 -12
v 10 2 -14
v 10 3 14
v 10 3 12
v 10 3 -12
v 10 3 -14
v 11 2 11
v 11 2 6
v 11 2 5
v 11 2 4
v 11 2 -4
v 11 2 -5
v 11 2 -6
v 11 2 -11
v 11 3 13
v 11 3 12
v 11 3 11
v 11 3 7
v 11 3 -7
v 11 3 -11
v 11 3 -12
v 11 3 -13
v 11 8 13
v 11 8 12
v 11 8 11
v 11 8 7
v 11 8 -7
v 11 8 -11
v 11 8 -12
v 11 8 -13
v 11 9 11
v 11 9 7
v 11 9 -7
v 11 9 -11
v 11 10 11
v 11 10 7
v 11 10 6
v 11 10 5
v 11 10 4
v 11 10 -4
v 11 10 -5
v 11 10 -6
v 11 10 -7
v 11 10 -11
v 18 0 18
v 18 0 17
v 18 0 -17
v 18 0 -18
v 18 1 18
v 18 1 17
v 18 1 -17
v 18 1 -18
v -18 0 18
v -18 0 17
v -18 0 -17
v -18 0 -18
v -18 1 18
v -18 1 17
v -18 1 -17
v -18 1 -18
v -11 2 11
v -11 2 6
v -11 2 5
v -11 2 4
v -11 2 -4
v -11 2 -5
v -11 2 -6
v -11 2 -11
v -11 3 13
v -11 3 12
v -11 3 11
v -11 3 7
v -11 3 -7
v -11 3 -11
v -11 3 -12
v -11 3 -13
v -11 8 13
v -11 8 12
v -11 8 11
v -11 8 7
v -11 8 -7
v -11 8 -11
v -11 8 -12
v -11 8 -13
v -11 9 11
v -11 9 7
v -11 9 -7
v -11 9 -11
v -11 10 11
v -11 10 7
v -11 10 6
v -11 10 5
v -11 10 4
v -11 10 -4
v -11 10 -5
v -11 10 -6
v -11 10 -7
v -11 10 -11
v -10 2 14
v -10 2 12
v -10 2 -12
v -10 2 -14
v -10 3 14
v -10 3 12
v -10 3 -12
v -10 3 -14
v -9 13 9
v -9 13 5
v -9 13 3
v -9 13 -3
v -9 13 -5
v -9 13 -9
v -9 14 9
v -9 14 7
v -9 14 6
v -9 14 5
v -9 14 4
v -9 14 3
v -9 14 -3
v -9 14 -4
v -9 14 -5
v -9 14 -6
v -9 14 -7
v -9 14 -9
v -9 15 5
v -9 15 4
v -9 15 -4
v -9 15 -5
v -9 16 9
v -9 16 6
v -9 16 -6
v -9 16 -9
v -9 17 9
v -9 17 6
v -9 17 -6
v -9 17 -9
v -8 12 8
v -8 12 7
v -8 12 -7
v -8 12 -8
v -8 13 8
v -8 13 7
v -8 13 5
v -8 13 4
v -8 13 -4
v -8 13 -5
v -8 13 -7
v -8 13 -8
v -8 14 5
v -8 14 4
v -8 14 -4
v -8 14 -5
v -8 15 8
v -8 15 6
v -8 15 -6
v -8 15 -8
v -8 16 8
v -8 16 6
v -8 16 -6
v -8 16 -8
v -7 12 5
v -7 12 3
v -7 12 2
v -7 12 -2
v -7 12 -3
v -7 12 -5
v -7 13 5
v -7 13 4
v -7 13 3
v -7 13 2
v -7 13 -2
v -7 13 -3
v -7 13 -4
v -7 13 -5
v -7 14 7
v -7 14 6
v -7 14 4
v -7 14 3
v -7 14 -3
v -7 14 -4
v -7 14 -6
v -7 14 -7
v -7 15 7
v -7 15 6
v -7 15 -6
v -7 15 -7
v -6 11 6
v -6 11 5
v -6 11 -5
v -6 11 -6
v -6 12 6
v -6 12 5
v -6 12 -5
v -6 12 -6
v -6 13 8
v -6 13 7
v -6 13 6
v -6 13 5
v -6 13 3
v -6 13 2
v -6 13 -2
v -6 13 -3
v -6 13 -5
v -6 13 -6
v -6 13 -7
v -6 13 -8
v -6 14 9
v -6 14 8
v -6 14 7
v -6 14 6
v -6 14 5
v -6 14 3
v -6 14 2
v -6 14 -2
v -6 14 -3
v -6 14 -5
v -6 14 -6
v -6 14 -7
v -6 14 -8
v -6 14 -9
v -6 15 8
v -6 15 7
v -6 15 -7
v -6 15 -8
v -6 16 9
v -6 16 8
v -6 16 -8
v -6 16 -9
v -5 11 4
v -5 11 3
v -5 11 2
v -5 11 -2
v -5 11 -3
v -5 11 -4
v -5 12 7
v -5 12 6
v -5 12 5
v -5 12 4
v -5 12 3
v -5 12 2
v -5 12 -2
v -5 12 -3
v -5 12 -4
v -5 12 -5
v -5 12 -6
v -5 12 -7
v -5 13 7
v -5 13 6
v -5 13 5
v -5 13 4
v -5 13 -4
v -5 13 -5
v -5 13 -6
v -5 13 -7
v -5 14 7
v -5 14 6
v -5 14 -6
v -5 14 -7
v -5 16 10
v -5 16 9
v -5 16 -9
v -5 16 -10
v -5 17 10
v -5 17 9
v -5 17 -9
v -5 17 -10
v -4 2 13
v -4 2 12
v -4 2 -12
v -4 2 -13
v -4 11 12
v -4 11 10
v -4 11 5
v -4 11 4
v -4 11 -4
v -4 11 -5
v -4 11 -10
v -4 11 -12
v -4 12 13
v -4 12 10
v -4 12 6
v -4 12 5
v -4 12 4
v -4 12 3
v -4 12 2
v -4 12 -2
v -4 12 -3
v -4 12 -4
v -4 12 -5
v -4 12 -6
v -4 12 -10
v -4 12 -13
v -4 13 6
v -4 13 5
v -4 13 3
v -4 13 2
v -4 13 -2
v -4 13 -3
v -4 13 -5
v -4 13 -6
v -2 2 13
v -2 2 12
v -2 2 -12
v -2 2 -13
v -2 11 12
v -2 11 10
v -2 11 3
v -2 11 2
v -2 11 -2
v -2 11 -3
v -2 11 -10
v -2 11 -12
v -2 12 13
v -2 12 10
v -2 12 -10
v -2 12 -13
v -2 13 3
v -2 13 2
v -2 13 -2
v -2 13 -3
v 3 2 13
v 3 2 12
v 3 2 -12
v 3 2 -13
v 3 11 12
v 3 11 10
v 3 11 -10
v 3 11 -12
v 3 12 13
v 3 12 10
v 3 12 3
v 3 12 2
v 3 12 -2
v 3 12 -3
v 3 12 -10
v 3 12 -13
v 3 13 3
v 3 13 2
v 3 13 -2
v 3 13 -3
v 5 2 13
v 5 2 12
v 5 2 -12
v 5 2 -13
v 5 8 13
v 5 8 12
v 5 8 -12
v 5 8 -13
v 5 9 13
v 5 9 12
v 5 9 -12
v 5 9 -13
v 5 11 12
v 5 11 10
v 5 11 6
v 5 11 5
v 5 11 -5
v 5 11 -6
v 5 11 -10
v 5 11 -12
v 5 12 13
v 5 12 10
v 5 12 6
v 5 12 5
v 5 12 -5
v 5 12 -6
v 5 12 -10
v 5 12 -13
v 6 12 5
v 6 12 4
v 6 12 -4
v 6 12 -5
v 6 13 5
v 6 13 4
v 6 13 -4
v 6 13 -5
v 7 12 8
v 7 12 7
v 7 12 -7
v 7 12 -8
v 7 13 6
v 7 13 5
v 7 13 -5
v 7 13 -6
v 7 14 9
v 7 14 8
v 7 14 7
v 7 14 6
v 7 14 5
v 7 14 -5
v 7 14 -6
v 7 14 -7
v 7 14 -8
v 7 14 -9
v 7 15 9
v 7 15 8
v 7 15 -8
v 7 15 -9
v 8 13 9
v 8 13 8
v 8 13 7
v 8 13 6
v 8 13 3
v 8 13 2
v 8 13 -2
v 8 13 -3
v 8 13 -6
v 8 13 -7
v 8 13 -8
v 8 13 -9
v 8 14 9
v 8 14 8
v 8 14 7
v 8 14 6
v 8 14 3
v 8 14 2
v 8 14 -2
v 8 14 -3
v 8 14 -6
v 8 14 -7
v 8 14 -8
v 8 14 -9
v 8 15 8
v 8 15 7
v 8 15 -7
v 8 15 -8
v 9 14 7
v 9 14 6
v 9 14 -6
v 9 14 -7
v 9 15 9
v 9 15 7
v 9 15 -7
v 9 15 -9
v 9 16 9
v 9 16 6
v 9 16 -6
v 9 16 -9
v 10 11 10
v 10 11 7
v 10 11 6
v 10 11 5
v 10 11 4
v 10 11 -4
v 10 11 -5
v 10 11 -6
v 10 11 -7
v 10 11 -10
v 10 12 6
v 10 12 5
v 10 12 -5
v 10 12 -6
v 10 13 7
v 10 13 5
v 10 13 -5
v 10 13 -7
v 10 14 10
v 10 14 5
v 10 14 4
v 10 14 -4
v 10 14 -5
v 10 14 -10
v 10 16 10
v 10 16 6
v 10 16 -6
v 10 16 -10
v 10 17 10
v 10 17 6
v 10 17 -6
v 10 17 -10
v 11 12 7
v 11 12 6
v 11 12 5
v 11 12 4
v 11 12 -4
v 11 12 -5
v 11 12 -6
v 11 12 -7
v 11 13 7
v 11 13 5
v 11 13 -5
v 11 13 -7
v 11 15 5
v 11 15 4
v 11 15 -4
v 11 15 -5
v 12 2 6
v 12 2 5
v 12 2 4
v 12 2 -4
v 12 2 -5
v 12 2 -6
v 12 3 13
v 12 3 12
v 12 3 7
v 12 3 -7
v 12 3 -12
v 12 3 -13
v 12 8 13
v 12 8 12
v 12 8 7
v 12 8 -7
v 12 8 -12
v 12 8 -13
v 12 9 12
v 12 9 7
v 12 9 -7
v 12 9 -12
v 12 11 12
v 12 11 7
v 12 11 6
v 12 11 5
v 12 11 4
v 12 11 -4
v 12 11 -5
v 12 11 -6
v 12 11 -7
v 12 11 -12
v 13 2 14
v 13 2 6
v 13 2 5
v 13 2 4
v 13 2 -4
v 13 2 -5
v 13 2 -6
v 13 2 -14
v 13 3 14
v 13 3 7
v 13 3 -7
v 13 3 -14
v 13 8 13
v 13 8 7
v 13 8 -7
v 13 8 -13
v 13 9 13
v 13 9 7
v 13 9 -7
v 13 9 -13
v 13 12 7
v 13 12 6
v 13 12 5
v 13 12 4
v 13 12 -4
v 13 12 -5
v 13 12 -6
v 13 12 -7
v 15 1 15
v 15 1 -15
v 15 2 15
v 15 2 -15
v 17 0 18
v 17 0 17
v 17 0 -17
v 17 0 -18
v 17 1 18
v 17 1 17
v 17 1 -17
v 17 1 -18
v 20 0 20
v 20 0 -20
v 20 1 20
v 20 1 -20
v -20 0 20
v -20 1 20
v 20 0 20
v 20 1 20
v -18 0 17
v -18 1 17
v -17 0 17
v -17 1 17
v 17 0 17
v 17 1 17
v 18 0 17
v 18 1 17
v -15 1 15
v -15 2 15
v 15 1 15
v 15 2 15
v -13 2 14
v -13 3 14
v -10 2 14
v -10 3 14
v 10 2 14
v 10 3 14
v 13 2 14
v 13 3 14
v -13 8 13
v -13 9 13
v -12 3 13
v -12 8 13
v -11 3 13
v -11 8 13
v -5 2 13
v -5 8 13
v -5 9 13
v -5 12 13
v -4 2 13
v -4 12 13
v -3 2 13
v -3 12 13
v -2 2 13
v -2 12 13
v 2 2 13
v 2 12 13
v 3 2 13
v 3 12 13
v 4 2 13
v 4 12 13
v 5 2 13
v 5 8 13
v 5 9 13
v 5 12 13
v 11 3 13
v 11 8 13
v 12 3 13
v 12 8 13
v 13 8 13
v 13 9 13
v -12 9 12
v -12 11 12
v -11 3 12
v -11 8 12
v -10 2 12
v -10 3 12
v -5 2 12
v -5 8 12
v -5 9 12
v -5 11 12
v -4 2 12
v -4 11 12
v -3 2 12
v -3 11 12
v -2 2 12
v -2 11 12
v 2 2 12
v 2 11 12
v 3 2 12
v 3 11 12
v 4 2 12
v 4 11 12
v 5 2 12
v 5 8 12
v 5 9 12
v 5 11 12
v 10 2 12
v 10 3 12
v 11 3 12
v 11 8 12
v 12 9 12
v 12 11 12
v -10 11 10
v -10 14 10
v -10 16 10
v -10 17 10
v -5 11 10
v -5 12 10
v -5 16 10
v -5 17 10
v -4 11 10
v -4 12 10
v -3 11 10
v -3 12 10
v -2 11 10
v -2 12 10
v 2 11 10
v 2 12 10
v 3 11 10
v 3 12 10
v 4 11 10
v 4 12 10
v 5 11 10
v 5 12 10
v 5 16 10
v 5 17 10
v 10 11 10
v 10 14 10
v 10 16 10
v 10 17 10
v -9 15 9
v -9 16 9
v -7 14 9
v -7 15 9
v -6 14 9
v -6 16 9
v 6 14 9
v 6 16 9
v 7 14 9
v 7 15 9
v 9 15 9
v 9 16 9
v -8 14 8
v -8 15 8
v -7 14 8
v -7 15 8
v 7 14 8
v 7 15 8
v 8 14 8
v 8 15 8
v -13 3 7
v -13 8 7
v -13 9 7
v -13 12 7
v -12 3 7
v -12 8 7
v -12 9 7
v -12 11 7
v -11 12 7
v -11 13 7
v -10 11 7
v -10 13 7
v -9 14 7
v -9 15 7
v -8 12 7
v -8 13 7
v -8 14 7
v -8 15 7
v -7 12 7
v -7 14 7
v -6 13 7
v -6 14 7
v -5 13 7
v -5 14 7
v 5 13 7
v 5 14 7
v 6 13 7
v 6 14 7
v 7 12 7
v 7 14 7
v 8 12 7
v 8 13 7
v 8 14 7
v 8 15 7
v 9 14 7
v 9 15 7
v 10 11 7
v 10 13 7
v 11 12 7
v 11 13 7
v 12 3 7
v 12 8 7
v 12 9 7
v 12 11 7
v 13 3 7
v 13 8 7
v 13 9 7
v 13 12 7
v -5 12 6
v -5 13 6
v -4 12 6
v -4 13 6
v 4 12 6
v 4 13 6
v 5 12 6
v 5 13 6
v -13 2 5
v -13 12 5
v -12 2 5
v -12 11 5
v -11 11 5
v -11 12 5
v -11 13 5
v -11 15 5
v -10 11 5
v -10 12 5
v -10 13 5
v -10 14 5
v -9 13 5
v -9 14 5
v -9 15 5
v -8 13 5
v -8 14 5
v -6 11 5
v -6 12 5
v -5 11 5
v -5 12 5
v 5 11 5
v 5 12 5
v 6 11 5
v 6 12 5
v 8 13 5
v 8 14 5
v 9 13 5
v 9 14 5
v 9 15 5
v 10 11 5
v 10 12 5
v 10 13 5
v 10 14 5
v 11 11 5
v 11 12 5
v 11 13 5
v 11 15 5
v 12 2 5
v 12 11 5
v 13 2 5
v 13 12 5
v -8 13 4
v -8 14 4
v -7 13 4
v -7 14 4
v 7 13 4
v 7 14 4
v 8 13 4
v 8 14 4
v -7 12 3
v -7 13 3
v -7 14 3
v -6 13 3
v -6 14 3
v -5 11 3
v -5 12 3
v -4 12 3
v -4 13 3
v -3 12 3
v -3 13 3
v -2 11 3
v -2 13 3
v 2 11 3
v 2 13 3
v 3 12 3
v 3 13 3
v 4 12 3
v 4 13 3
v 5 11 3
v 5 12 3
v 6 13 3
v 6 14 3
v 7 12 3
v 7 13 3
v 7 14 3
v -8 13 -2
v -8 14 -2
v -7 12 -2
v -7 13 -2
v -6 13 -2
v -6 14 -2
v -5 11 -2
v -5 12 -2
v -4 12 -2
v -4 13 -2
v -3 12 -2
v -3 13 -2
v -2 11 -2
v -2 13 -2
v 2 11 -2
v 2 13 -2
v 3 12 -2
v 3 13 -2
v 4 12 -2
v 4 13 -2
v 5 11 -2
v 5 12 -2
v 6 13 -2
v 6 14 -2
v 7 12 -2
v 7 13 -2
v 8 13 -2
v 8 14 -2
v -9 13 -3
v -9 14 -3
v -8 13 -3
v -8 14 -3
v 8 13 -3
v 8 14 -3
v 9 13 -3
v 9 14 -3
v -13 2 -4
v -13 12 -4
v -12 2 -4
v -12 11 -4
v -11 12 -4
v -11 15 -4
v -10 11 -4
v -10 14 -4
v -9 14 -4
v -9 15 -4
v -6 12 -4
v -6 13 -4
v -5 11 -4
v -5 12 -4
v -5 13 -4
v -4 11 -4
v -4 12 -4
v 4 11 -4
v 4 12 -4
v 5 11 -4
v 5 12 -4
v 5 13 -4
v 6 12 -4
v 6 13 -4
v 9 14 -4
v 9 15 -4
v 10 11 -4
v 10 14 -4
v 11 12 -4
v 11 15 -4
v 12 2 -4
v 12 11 -4
v 13 2 -4
v 13 12 -4
v -7 12 -5
v -7 13 -5
v -7 14 -5
v -6 12 -5
v -6 13 -5
v -6 14 -5
v -5 12 -5
v -5 13 -5
v -4 11 -5
v -4 12 -5
v -4 13 -5
v 4 11 -5
v 4 12 -5
v 4 13 -5
v 5 12 -5
v 5 13 -5
v 6 12 -5
v 6 13 -5
v 6 14 -5
v 7 12 -5
v 7 13 -5
v 7 14 -5
v -13 2 -6
v -13 12 -6
v -12 2 -6
v -12 11 -6
v -11 11 -6
v -11 12 -6
v -10 11 -6
v -10 12 -6
v -10 16 -6
v -10 17 -6
v -9 14 -6
v -9 16 -6
v -9 17 -6
v -8 13 -6
v -8 14 -6
v -8 15 -6
v -8 16 -6
v -7 13 -6
v -7 14 -6
v -7 15 -6
v -6 11 -6
v -6 12 -6
v -6 13 -6
v -6 14 -6
v -5 11 -6
v -5 12 -6
v -5 13 -6
v -5 14 -6
v 5 11 -6
v 5 12 -6
v 5 13 -6
v 5 14 -6
v 6 11 -6
v 6 12 -6
v 6 13 -6
v 6 14 -6
v 7 13 -6
v 7 14 -6
v 7 15 -6
v 8 13 -6
v 8 14 -6
v 8 15 -6
v 8 16 -6
v 9 14 -6
v 9 16 -6
v 9 17 -6
v 10 11 -6
v 10 12 -6
v 10 16 -6
v 10 17 -6
v 11 11 -6
v 11 12 -6
v 12 2 -6
v 12 11 -6
v 13 2 -6
v 13 12 -6
v -7 14 -7
v -7 15 -7
v -6 14 -7
v -6 15 -7
v -5 12 -7
v -5 13 -7
v 5 12 -7
v 5 13 -7
v 6 14 -7
v 6 15 -7
v 7 14 -7
v 7 15 -7
v -8 12 -8
v -8 13 -8
v -8 14 -8
v -8 15 -8
v -8 16 -8
v -7 12 -8
v -7 14 -8
v -6 13 -8
v -6 14 -8
v -6 15 -8
v -6 16 -8
v 6 13 -8
v 6 14 -8
v 6 15 -8
v 6 16 -8
v 7 12 -8
v 7 14 -8
v 8 12 -8
v 8 13 -8
v 8 14 -8
v 8 15 -8
v 8 16 -8
v -9 13 -9
v -9 14 -9
v -9 16 -9
v -9 17 -9
v -8 13 -9
v -8 14 -9
v -6 16 -9
v -5 16 -9
v -5 17 -9
v 5 16 -9
v 5 17 -9
v 6 16 -9
v 8 13 -9
v 8 14 -9
v 9 13 -9
v 9 14 -9
v 9 16 -9
v 9 17 -9
v -11 2 -11
v -11 3 -11
v -11 8 -11
v -11 9 -11
v -11 10 -11
v -10 2 -11
v -10 3 -11
v -5 2 -11
v -5 8 -11
v -5 9 -11
v -5 10 -11
v -4 2 -11
v -4 10 -11
v -3 2 -11
v -3 10 -11
v -2 2 -11
v -2 10 -11
v 2 2 -11
v 2 10 -11
v 3 2 -11
v 3 10 -11
v 4 2 -11
v 4 10 -11
v 5 2 -11
v 5 8 -11
v 5 9 -11
v 5 10 -11
v 10 2 -11
v 10 3 -11
v 11 2 -11
v 11 3 -11
v 11 8 -11
v 11 9 -11
v 11 10 -11
v -18 0 -18
v -18 1 -18
v -17 0 -18
v -17 1 -18
v 17 0 -18
v 17 1 -18
v 18 0 -18
v 18 1 -18
v -18 0 18
v -18 1 18
v -17 0 18
v -17 1 18
v 17 0 18
v 17 1 18
v 18 0 18
v 18 1 18
v -11 2 11
v -11 3 11
v -11 8 11
v -11 9 11
v -11 10 11
v -10 2 11
v -10 3 11
v -5 2 11
v -5 8 11
v -5 9 11
v -5 10 11
v -4 2 11
v -4 10 11
v -3 2 11
v -3 10 11
v -2 2 11
v -2 10 11
v 2 2 11
v 2 10 11
v 3 2 11
v 3 10 11
v 4 2 11
v 4 10 11
v 5 2 11
v 5 8 11
v 5 9 11
v 5 10 11
v 10 2 11
v 10 3 11
v 11 2 11
v 11 3 11
v 11 8 11
v 11 9 11
v 11 10 11
v -9 13 9
v -9 14 9
v -9 16 9
v -9 17 9
v -8 13 9
v -8 14 9
v -6 16 9
v -5 16 9
v -5 17 9
v 5 16 9
v 5 17 9
v 6 16 9
v 8 13 9
v 8 14 9
v 9 13 9
v 9 14 9
v 9 16 9
v 9 17 9
v -8 12 8
v -8 13 8
v -8 14 8
v -8 15 8
v -8 16 8
v -7 12 8
v -7 14 8
v -6 13 8
v -6 14 8
v -6 15 8
v -6 16 8
v 6 13 8
v 6 14 8
v 6 15 8
v 6 16 8
v 7 12 8
v 7 14 8
v 8 12 8
v 8 13 8
v 8 14 8
v 8 15 8
v 8 16 8
v -7 14 7
v -7 15 7
v -6 14 7
v -6 15 7
v -5 12 7
v -5 13 7
v 5 12 7
v 5 13 7
v 6 14 7
v 6 15 7
v 7 14 7
v 7 15 7
v -13 2 6
v -13 12 6
v -12 2 6
v -12 11 6
v -11 11 6
v -11 12 6
v -10 11 6
v -10 12 6
v -10 16 6
v -10 17 6
v -9 14 6
v -9 16 6
v -9 17 6
v -8 13 6
v -8 14 6
v -8 15 6
v -8 16 6
v -7 13 6
v -7 14 6
v -7 15 6
v -6 11 6
v -6 12 6
v -6 13 6
v -6 14 6
v -5 11 6
v -5 12 6
v -5 13 6
v -5 14 6
v 5 11 6
v 5 12 6
v 5 13 6
v 5 14 6
v 6 11 6
v 6 12 6
v 6 13 6
v 6 14 6
v 7 13 6
v 7 14 6
v 7 15 6
v 8 13 6
v 8 14 6
v 8 15 6
v 8 16 6
v 9 14 6
v 9 16 6
v 9 17 6
v 10 11 6
v 10 12 6
v 10 16 6
v 10 17 6
v 11 11 6
v 11 12 6
v 12 2 6
v 12 11 6
v 13 2 6
v 13 12 6
v -7 12 5
v -7 13 5
v -7 14 5
v -6 12 5
v -6 13 5
v -6 14 5
v -5 12 5
v -5 13 5
v -4 11 5
v -4 12 5
v -4 13 5
v 4 11 5
v 4 12 5
v 4 13 5
v 5 12 5
v 5 13 5
v 6 12 5
v 6 13 5
v 6 14 5
v 7 12 5
v 7 13 5
v 7 14 5
v -13 2 4
v -13 12 4
v -12 2 4
v -12 11 4
v -11 12 4
v -11 15 4
v -10 11 4
v -10 14 4
v -9 14 4
v -9 15 4
v -6 12 4
v -6 13 4
v -5 11 4
v -5 12 4
v -5 13 4
v -4 11 4
v -4 12 4
v 4 11 4
v 4 12 4
v 5 11 4
v 5 12 4
v 5 13 4
v 6 12 4
v 6 13 4
v 9 14 4
v 9 15 4
v 10 11 4
v 10 14 4
v 11 12 4
v 11 15 4
v 12 2 4
v 12 11 4
v 13 2 4
v 13 12 4
v -9 13 3
v -9 14 3
v -8 13 3
v -8 14 3
v 8 13 3
v 8 14 3
v 9 13 3
v 9 14 3
v -8 13 2
v -8 14 2
v -7 12 2
v -7 13 2
v -6 13 2
v -6 14 2
v -5 11 2
v -5 12 2
v -4 12 2
v -4 13 2
v -3 12 2
v -3 13 2
v -2 11 2
v -2 13 2
v 2 11 2
v 2 13 2
v 3 12 2
v 3 13 2
v 4 12 2
v 4 13 2
v 5 11 2
v 5 12 2
v 6 13 2
v 6 14 2
v 7 12 2
v 7 13 2
v 8 13 2
v 8 14 2
v -7 12 -3
v -7 13 -3
v -7 14 -3
v -6 13 -3
v -6 14 -3
v -5 11 -3
v -5 12 -3
v -4 12 -3
v -4 13 -3
v -3 12 -3
v -3 13 -3
v -2 11 -3
v -2 13 -3
v 2 11 -3
v 2 13 -3
v 3 12 -3
v 3 13 -3
v 4 12 -3
v 4 13 -3
v 5 11 -3
v 5 12 -3
v 6 13 -3
v 6 14 -3
v 7 12 -3
v 7 13 -3
v 7 14 -3
v -8 13 -4
v -8 14 -4
v -7 13 -4
v -7 14 -4
v 7 13 -4
v 7 14 -4
v 8 13 -4
v 8 14 -4
v -13 2 -5
v -13 12 -5
v -12 2 -5
v -12 11 -5
v -11 11 -5
v -11 12 -5
v -11 13 -5
v -11 15 -5
v -10 11 -5
v -10 12 -5
v -10 13 -5
v -10 14 -5
v -9 13 -5
v -9 14 -5
v -9 15 -5
v -8 13 -5
v -8 14 -5
v -6 11 -5
v -6 12 -5
v -5 11 -5
v -5 12 -5
v 5 11 -5
v 5 12 -5
v 6 11 -5
v 6 12 -5
v 8 13 -5
v 8 14 -5
v 9 13 -5
v 9 14 -5
v 9 15 -5
v 10 11 -5
v 10 12 -5
v 10 13 -5
v 10 14 -5
v 11 11 -5
v 11 12 -5
v 11 13 -5
v 11 15 -5
v 12 2 -5
v 12 11 -5
v 13 2 -5
v 13 12 -5
v -5 12 -6
v -5 13 -6
v -4 12 -6
v -4 13 -6
v 4 12 -6
v 4 13 -6
v 5 12 -6
v 5 13 -6
v -13 3 -7
v -13 8 -7
v -13 9 -7
v -13 12 -7
v -12 3 -7
v -12 8 -7
v -12 9 -7
v -12 11 -7
v -11 12 -7
v -11 13 -7
v -10 11 -7
v -10 13 -7
v -9 14 -7
v -9 15 -7
v -8 12 -7
v -8 13 -7
v -8 14 -7
v -8 15 -7
v -7 12 -7
v -7 14 -7
v -6 13 -7
v -6 14 -7
v -5 13 -7
v -5 14 -7
v 5 13 -7
v 5 14 -7
v 6 13 -7
v 6 14 -7
v 7 12 -7
v 7 14 -7
v 8 12 -7
v 8 13 -7
v 8 14 -7
v 8 15 -7
v 9 14 -7
v 9 15 -7
v 10 11 -7
v 10 13 -7
v 11 12 -7
v 11 13 -7
v 12 3 -7
v 12 8 -7
v 12 9 -7
v 12 11 -7
v 13 3 -7
v 13 8 -7
v 13 9 -7
v 13 12 -7
v -8 14 -8
v -8 15 -8
v -7 14 -8
v -7 15 -8
v 7 14 -8
v 7 15 -8
v 8 14 -8
v 8 15 -8
v -9 15 -9
v -9 16 -9
v -7 14 -9
v -7 15 -9
v -6 14 -9
v -6 16 -9
v 6 14 -9
v 6 16 -9
v 7 14 -9
v 7 15 -9
v 9 15 -9
v 9 16 -9
v -10 11 -10
v -10 14 -10
v -10 16 -10
v -10 17 -10
v -5 11 -10
v -5 12 -10
v -5 16 -10
v -5 17 -10
v -4 11 -10
v -4 12 -10
v -3 11 -10
v -3 12 -10
v -2 11 -10
v -2 12 -10
v 2 11 -10
v 2 12 -10
v 3 11 -10
v 3 12 -10
v 4 11 -10
v 4 12 -10
v 5 11 -10
v 5 12 -10
v 5 16 -10
v 5 17 -10
v 10 11 -10
v 10 14 -10
v 10 16 -10
v 10 17 -10
v -12 9 -12
v -12 11 -12
v -11 3 -12
v -11 8 -12
v -10 2 -12
v -10 3 -12
v -5 2 -12
v -5 8 -12
v -5 9 -12
v -5 11 -12
v -4 2 -12
v -4 11 -12
v -3 2 -12
v -3 11 -12
v -2 2 -12
v -2 11 -12
v 2 2 -12
v 2 11 -12
v 3 2 -12
v 3 11 -12
v 4 2 -12
v 4 11 -12
v 5 2 -12
v 5 8 -12
v 5 9 -12
v 5 11 -12
v 10 2 -12
v 10 3 -12
v 11 3 -12
v 11 8 -12
v 12 9 -12
v 12 11 -12
v -13 8 -13
v -13 9 -13
v -12 3 -13
v -12 8 -13
v -11 3 -13
v -11 8 -13
v -5 2 -13
v -5 8 -13
v -5 9 -13
v -5 12 -13
v -4 2 -13
v -4 12 -13
v -3 2 -13
v -3 12 -13
v -2 2 -13
v -2 12 -13
v 2 2 -13
v 2 12 -13
v 3 2 -13
v 3 12 -13
v 4 2 -13
v 4 12 -13
v 5 2 -13
v 5 8 -13
v 5 9 -13
v 5 12 -13
v 11 3 -13
v 11 8 -13
v 12 3 -13
v 12 8 -13
v 13 8 -13
v 13 9 -13
v -13 2 -14
v -13 3 -14
v -10 2 -14
v -10 3 -14
v 10 2 -14
v 10 3 -14
v 13 2 -14
v 13 3 -14
v -15 1 -15
v -15 2 -15
v 15 1 -15
v 15 2 -15
v -18 0 -17
v -18 1 -17
v -17 0 -17
v -17 1 -17
v 17 0 -17
v 17 1 -17
v 18 0 -17
v 18 1 -17
v -20 0 -20
v -20 1 -20
v 20 0 -20
v 20 1 -20
v -20 0 20
v 20 0 20
v -18 0 18
v -17 0 18
v 17 0 18
v 18 0 18
v -18 0 17
v -17 0 17
v 17 0 17
v 18 0 17
v -15 0 15
v 15 0 15
v -15 0 -15
v 15 0 -15
v -18 0 -17
v -17 0 -17
v 17 0 -17
v 18 0 -17
v -18 0 -18
v -17 0 -18
v 17 0 -18
v 18 0 -18
v -20 0 -20
v 20 0 -20
v -13 8 13
v -12 8 13
v -11 8 13
v -5 8 13
v 5 8 13
v 11 8 13
v 12 8 13
v 13 8 13
v -12 8 12
v -11 8 12
v -5 8 12
v 5 8 12
v 11 8 12
v 12 8 12
v -13 8 7
v -12 8 7
v 12 8 7
v 13 8 7
v -13 8 -7
v -12 8 -7
v 12 8 -7
v 13 8 -7
v -12 8 -12
v -11 8 -12
v -5 8 -12
v 5 8 -12
v 11 8 -12
v 12 8 -12
v -13 8 -13
v -12 8 -13
v -11 8 -13
v -5 8 -13
v 5 8 -13
v 11 8 -13
v 12 8 -13
v 13 8 -13
v -11 10 11
v -5 10 11
v -4 10 11
v -3 10 11
v -2 10 11
v 2 10 11
v 3 10 11
v 4 10 11
v 5 10 11
v 11 10 11
v -10 10 10
v -5 10 10
v -4 10 10
v -3 10 10
v -2 10 10
v 2 10 10
v 3 10 10
v 4 10 10
v 5 10 10
v 10 10 10
v -11 10 7
v -10 10 7
v 10 10 7
v 11 10 7
v -11 10 6
v 11 10 6
v -11 10 5
v 11 10 5
v -11 10 4
v -10 10 4
v 10 10 4
v 11 10 4
v -11 10 -4
v -10 10 -4
v 10 10 -4
v 11 10 -4
v -11 10 -5
v 11 10 -5
v -11 10 -6
v 11 10 -6
v -11 10 -7
v -10 10 -7
v 10 10 -7
v 11 10 -7
v -10 10 -10
v -5 10 -10
v -4 10 -10
v -3 10 -10
v -2 10 -10
v 2 10 -10
v 3 10 -10
v 4 10 -10
v 5 10 -10
v 10 10 -10
v -11 10 -11
v -5 10 -11
v -4 10 -11
v -3 10 -11
v -2 10 -11
v 2 10 -11
v 3 10 -11
v 4 10 -11
v 5 10 -11
v 11 10 -11
v -11 12 6
v -10 12 6
v -6 12 6
v -5 12 6
v 5 12 6
v 6 12 6
v 10 12 6
v 11 12 6
v -11 12 5
v -10 12 5
v -6 12 5
v -5 12 5
v 5 12 5
v 6 12 5
v 10 12 5
v 11 12 5
v -11 12 -5
v -10 12 -5
v -6 12 -5
v -5 12 -5
v 5 12 -5
v 6 12 -5
v 10 12 -5
v 11 12 -5
v -11 12 -6
v -10 12 -6
v -6 12 -6
v -5 12 -6
v 5 12 -6
v 6 12 -6
v 10 12 -6
v 11 12 -6
v -8 14 8
v -7 14 8
v 7 14 8
v 8 14 8
v -9 14 7
v -8 14 7
v -7 14 7
v 7 14 7
v 8 14 7
v 9 14 7
v -9 14 6
v -8 14 6
v 8 14 6
v 9 14 6
v -9 14 -6
v -8 14 -6
v 8 14 -6
v 9 14 -6
v -9 14 -7
v -8 14 -7
v -7 14 -7
v 7 14 -7
v 8 14 -7
v 9 14 -7
v -8 14 -8
v -7 14 -8
v 7 14 -8
v 8 14 -8
v -9 15 9
v -7 15 9
v 7 15 9
v 9 15 9
v -8 15 8
v -7 15 8
v 7 15 8
v 8 15 8
v -9 15 7
v -8 15 7
v 8 15 7
v 9 15 7
v -9 15 -7
v -8 15 -7
v 8 15 -7
v 9 15 -7
v -8 15 -8
v -7 15 -8
v 7 15 -8
v 8 15 -8
v -9 15 -9
v -7 15 -9
v 7 15 -9
v 9 15 -9
v -10 16 10
v -5 16 10
v 5 16 10
v 10 16 10
v -9 16 9
v -6 16 9
v -5 16 9
v 5 16 9
v 6 16 9
v 9 16 9
v -10 16 6
v -9 16 6
v 9 16 6
v 10 16 6
v -10 16 -6
v -9 16 -6
v 9 16 -6
v 10 16 -6
v -9 16 -9
v -6 16 -9
v -5 16 -9
v 5 16 -9
v 6 16 -9
v 9 16 -9
v -10 16 -10
v -5 16 -10
v 5 16 -10
v 10 16 -10
v -20 1 20
v 20 1 20
v -18 1 18
v -17 1 18
v 17 1 18
v 18 1 18
v -18 1 17
v -17 1 17
v 17 1 17
v 18 1 17
v -15 1 15
v 15 1 15
v -15 1 -15
v 15 1 -15
v -18 1 -17
v -17 1 -17
v 17 1 -17
v 18 1 -17
v -18 1 -18
v -17 1 -18
v 17 1 -18
v 18 1 -18
v -20 1 -20
v 20 1 -20
v -15 2 15
v 15 2 15
v -13 2 14
v -10 2 14
v 10 2 14
v 13 2 14
v -5 2 13
v -4 2 13
v -3 2 13
v -2 2 13
v 2 2 13
v 3 2 13
v 4 2 13
v 5 2 13
v -10 2 12
v -5 2 12
v -4 2 12
v -3 2 12
v -2 2 12
v 2 2 12
v 3 2 12
v 4 2 12
v 5 2 12
v 10 2 12
v -11 2 11
v -10 2 11
v -5 2 11
v -4 2 11
v -3 2 11
v -2 2 11
v 2 2 11
v 3 2 11
v 4 2 11
v 5 2 11
v 10 2 11
v 11 2 11
v -13 2 6
v -12 2 6
v -11 2 6
v 11 2 6
v 12 2 6
v 13 2 6
v -13 2 5
v -12 2 5
v -11 2 5
v 11 2 5
v 12 2 5
v 13 2 5
v -13 2 4
v -12 2 4
v -11 2 4
v 11 2 4
v 12 2 4
v 13 2 4
v -13 2 -4
v -12 2 -4
v -11 2 -4
v 11 2 -4
v 12 2 -4
v 13 2 -4
v -13 2 -5
v -12 2 -5
v -11 2 -5
v 11 2 -5
v 12 2 -5
v 13 2 -5
v -13 2 -6
v -12 2 -6
v -11 2 -6
v 11 2 -6
v 12 2 -6
v 13 2 -6
v -11 2 -11
v -10 2 -11
v -5 2 -11
v -4 2 -11
v -3 2 -11
v -2 2 -11
v 2 2 -11
v 3 2 -11
v 4 2 -11
v 5 2 -11
v 10 2 -11
v 11 2 -11
v -10 2 -12
v -5 2 -12
v -4 2 -12
v -3 2 -12
v -2 2 -12
v 2 2 -12
v 3 2 -12
v 4 2 -12
v 5 2 -12
v 10 2 -12
v -5 2 -13
v -4 2 -13
v -3 2 -13
v -2 2 -13
v 2 2 -13
v 3 2 -13
v 4 2 -13
v 5 2 -13
v -13 2 -14
v -10 2 -14
v 10 2 -14
v 13 2 -14
v -15 2 -15
v 15 2 -15
v -13 3 14
v -10 3 14
v 10 3 14
v 13 3 14
v -12 3 13
v -11 3 13
v 11 3 13
v 12 3 13
v -12 3 12
v -11 3 12
v -10 3 12
v 10 3 12
v 11 3 12
v 12 3 12
v -13 3 7
v -12 3 7
v 12 3 7
v 13 3 7
v -13 3 -7
v -12 3 -7
v 12 3 -7
v 13 3 -7
v -12 3 -12
v -11 3 -12
v -10 3 -12
v 10 3 -12
v 11 3 -12
v 12 3 -12
v -12 3 -13
v -11 3 -13
v 11 3 -13
v 12 3 -13
v -13 3 -14
v -10 3 -14
v 10 3 -14
v 13 3 -14
v -13 9 13
v -5 9 13
v 5 9 13
v 13 9 13
v -12 9 12
v -5 9 12
v 5 9 12
v 12 9 12
v -13 9 7
v -12 9 7
v 12 9 7
v 13 9 7
v -13 9 -7
v -12 9 -7
v 12 9 -7
v 13 9 -7
v -12 9 -12
v -5 9 -12
v 5 9 -12
v 12 9 -12
v -13 9 -13
v -5 9 -13
v 5 9 -13
v 13 9 -13
v -12 11 12
v -5 11 12
v -4 11 12
v -3 11 12
v -2 11 12
v 2 11 12
v 3 11 12
v 4 11 12
v 5 11 12
v 12 11 12
v -10 11 10
v -5 11 10
v -4 11 10
v -3 11 10
v -2 11 10
v 2 11 10
v 3 11 10
v 4 11 10
v 5 11 10
v 10 11 10
v -12 11 7
v -10 11 7
v 10 11 7
v 12 11 7
v -12 11 6
v -11 11 6
v -10 11 6
v -6 11 6
v -5 11 6
v 5 11 6
v 6 11 6
v 10 11 6
v 11 11 6
v 12 11 6
v -12 11 5
v -11 11 5
v -10 11 5
v -6 11 5
v -5 11 5
v -4 11 5
v 4 11 5
v 5 11 5
v 6 11 5
v 10 11 5
v 11 11 5
v 12 11 5
v -12 11 4
v -10 11 4
v -5 11 4
v -4 11 4
v 4 11 4
v 5 11 4
v 10 11 4
v 12 11 4
v -5 11 3
v -2 11 3
v 2 11 3
v 5 11 3
v -5 11 2
v -2 11 2
v 2 11 2
v 5 11 2
v -5 11 -2
v -2 11 -2
v 2 11 -2
v 5 11 -2
v -5 11 -3
v -2 11 -3
v 2 11 -3
v 5 11 -3
v -12 11 -4
v -10 11 -4
v -5 11 -4
v -4 11 -4
v 4 11 -4
v 5 11 -4
v 10 11 -4
v 12 11 -4
v -12 11 -5
v -11 11 -5
v -10 11 -5
v -6 11 -5
v -5 11 -5
v -4 11 -5
v 4 11 -5
v 5 11 -5
v 6 11 -5
v 10 11 -5
v 11 11 -5
v 12 11 -5
v -12 11 -6
v -11 11 -6
v -10 11 -6
v -6 11 -6
v -5 11 -6
v 5 11 -6
v 6 11 -6
v 10 11 -6
v 11 11 -6
v 12 11 -6
v -12 11 -7
v -10 11 -7
v 10 11 -7
v 12 11 -7
v -10 11 -10
v -5 11 -10
v -4 11 -10
v -3 11 -10
v -2 11 -10
v 2 11 -10
v 3 11 -10
v 4 11 -10
v 5 11 -10
v 10 11 -10
v -12 11 -12
v -5 11 -12
v -4 11 -12
v -3 11 -12
v -2 11 -12
v 2 11 -12
v 3 11 -12
v 4 11 -12
v 5 11 -12
v 12 11 -12
v -5 12 13
v -4 12 13
v -3 12 13
v -2 12 13
v 2 12 13
v 3 12 13
v 4 12 13
v 5 12 13
v -5 12 10
v -4 12 10
v -3 12 10
v -2 12 10
v 2 12 10
v 3 12 10
v 4 12 10
v 5 12 10
v -8 12 8
v -7 12 8
v 7 12 8
v 8 12 8
v -13 12 7
v -11 12 7
v -8 12 7
v -7 12 7
v -5 12 7
v 5 12 7
v 7 12 7
v 8 12 7
v 11 12 7
v 13 12 7
v -13 12 6
v -11 12 6
v -5 12 6
v -4 12 6
v 4 12 6
v 5 12 6
v 11 12 6
v 13 12 6
v -13 12 5
v -11 12 5
v -7 12 5
v -6 12 5
v -5 12 5
v -4 12 5
v 4 12 5
v 5 12 5
v 6 12 5
v 7 12 5
v 11 12 5
v 13 12 5
v -13 12 4
v -11 12 4
v -6 12 4
v -5 12 4
v -4 12 4
v 4 12 4
v 5 12 4
v 6 12 4
v 11 12 4
v 13 12 4
v -7 12 3
v -5 12 3
v -4 12 3
v -3 12 3
v 3 12 3
v 4 12 3
v 5 12 3
v 7 12 3
v -7 12 2
v -5 12 2
v -4 12 2
v -3 12 2
v 3 12 2
v 4 12 2
v 5 12 2
v 7 12 2
v -7 12 -2
v -5 12 -2
v -4 12 -2
v -3 12 -2
v 3 12 -2
v 4 12 -2
v 5 12 -2
v 7 12 -2
v -7 12 -3
v -5 12 -3
v -4 12 -3
v -3 12 -3
v 3 12 -3
v 4 12 -3
v 5 12 -3
v 7 12 -3
v -13 12 -4
v -11 12 -4
v -6 12 -4
v -5 12 -4
v -4 12 -4
v 4 12 -4
v 5 12 -4
v 6 12 -4
v 11 12 -4
v 13 12 -4
v -13 12 -5
v -11 12 -5
v -7 12 -5
v -6 12 -5
v -5 12 -5
v -4 12 -5
v 4 12 -5
v 5 12 -5
v 6 12 -5
v 7 12 -5
v 11 12 -5
v 13 12 -5
v -13 12 -6
v -11 12 -6
v -5 12 -6
v -4 12 -6
v 4 12 -6
v 5 12 -6
v 11 12 -6
v 13 12 -6
v -13 12 -7
v -11 12 -7
v -8 12 -7
v -7 12 -7
v -5 12 -7
v 5 12 -7
v 7 12 -7
v 8 12 -7
v 11 12 -7
v 13 12 -7
v -8 12 -8
v -7 12 -8
v 7 12 -8
v 8 12 -8
v -5 12 -10
v -4 12 -10
v -3 12 -10
v -2 12 -10
v 2 12 -10
v 3 12 -10
v 4 12 -10
v 5 12 -10
v -5 12 -13
v -4 12 -13
v -3 12 -13
v -2 12 -13
v 2 12 -13
v 3 12 -13
v 4 12 -13
v 5 12 -13
v -9 13 9
v -8 13 9
v 8 13 9
v 9 13 9
v -8 13 8
v -6 13 8
v 6 13 8
v 8 13 8
v -11 13 7
v -10 13 7
v -8 13 7
v -6 13 7
v -5 13 7
v 5 13 7
v 6 13 7
v 8 13 7
v 10 13 7
v 11 13 7
v -8 13 6
v -7 13 6
v -6 13 6
v -5 13 6
v -4 13 6
v 4 13 6
v 5 13 6
v 6 13 6
v 7 13 6
v 8 13 6
v -11 13 5
v -10 13 5
v -9 13 5
v -8 13 5
v -7 13 5
v -6 13 5
v -5 13 5
v -4 13 5
v 4 13 5
v 5 13 5
v 6 13 5
v 7 13 5
v 8 13 5
v 9 13 5
v 10 13 5
v 11 13 5
v -8 13 4
v -7 13 4
v -6 13 4
v -5 13 4
v 5 13 4
v 6 13 4
v 7 13 4
v 8 13 4
v -9 13 3
v -8 13 3
v -6 13 3
v -4 13 3
v -3 13 3
v -2 13 3
v 2 13 3
v 3 13 3
v 4 13 3
v 6 13 3
v 8 13 3
v 9 13 3
v -8 13 2
v -7 13 2
v -6 13 2
v -4 13 2
v -3 13 2
v -2 13 2
v 2 13 2
v 3 13 2
v 4 13 2
v 6 13 2
v 7 13 2
v 8 13 2
v -8 13 -2
v -7 13 -2
v -6 13 -2
v -4 13 -2
v -3 13 -2
v -2 13 -2
v 2 13 -2
v 3 13 -2
v 4 13 -2
v 6 13 -2
v 7 13 -2
v 8 13 -2
v -9 13 -3
v -8 13 -3
v -6 13 -3
v -4 13 -3
v -3 13 -3
v -2 13 -3
v 2 13 -3
v 3 13 -3
v 4 13 -3
v 6 13 -3
v 8 13 -3
v 9 13 -3
v -8 13 -4
v -7 13 -4
v -6 13 -4
v -5 13 -4
v 5 13 -4
v 6 13 -4
v 7 13 -4
v 8 13 -4
v -11 13 -5
v -10 13 -5
v -9 13 -5
v -8 13 -5
v -7 13 -5
v -6 13 -5
v -5 13 -5
v -4 13 -5
v 4 13 -5
v 5 13 -5
v 6 13 -5
v 7 13 -5
v 8 13 -5
v 9 13 -5
v 10 13 -5
v 11 13 -5
v -8 13 -6
v -7 13 -6
v -6 13 -6
v -5 13 -6
v -4 13 -6
v 4 13 -6
v 5 13 -6
v 6 13 -6
v 7 13 -6
v 8 13 -6
v -11 13 -7
v -10 13 -7
v -8 13 -7
v -6 13 -7
v -5 13 -7
v 5 13 -7
v 6 13 -7
v 8 13 -7
v 10 13 -7
v 11 13 -7
v -8 13 -8
v -6 13 -8
v 6 13 -8
v 8 13 -8
v -9 13 -9
v -8 13 -9
v 8 13 -9
v 9 13 -9
v -10 14 10
v 10 14 10
v -9 14 9
v -8 14 9
v -7 14 9
v -6 14 9
v 6 14 9
v 7 14 9
v 8 14 9
v 9 14 9
v -8 14 8
v -7 14 8
v -6 14 8
v 6 14 8
v 7 14 8
v 8 14 8
v -9 14 7
v -7 14 7
v -6 14 7
v -5 14 7
v 5 14 7
v 6 14 7
v 7 14 7
v 9 14 7
v -9 14 6
v -7 14 6
v -6 14 6
v -5 14 6
v 5 14 6
v 6 14 6
v 7 14 6
v 9 14 6
v -10 14 5
v -9 14 5
v -8 14 5
v -7 14 5
v -6 14 5
v 6 14 5
v 7 14 5
v 8 14 5
v 9 14 5
v 10 14 5
v -10 14 4
v -9 14 4
v -8 14 4
v -7 14 4
v 7 14 4
v 8 14 4
v 9 14 4
v 10 14 4
v -9 14 3
v -8 14 3
v -7 14 3
v -6 14 3
v 6 14 3
v 7 14 3
v 8 14 3
v 9 14 3
v -8 14 2
v -6 14 2
v 6 14 2
v 8 14 2
v -8 14 -2
v -6 14 -2
v 6 14 -2
v 8 14 -2
v -9 14 -3
v -8 14 -3
v -7 14 -3
v -6 14 -3
v 6 14 -3
v 7 14 -3
v 8 14 -3
v 9 14 -3
v -10 14 -4
v -9 14 -4
v -8 14 -4
v -7 14 -4
v 7 14 -4
v 8 14 -4
v 9 14 -4
v 10 14 -4
v -10 14 -5
v -9 14 -5
v -8 14 -5
v -7 14 -5
v -6 14 -5
v 6 14 -5
v 7 14 -5
v 8 14 -5
v 9 14 -5
v 10 14 -5
v -9 14 -6
v -7 14 -6
v -6 14 -6
v -5 14 -6
v 5 14 -6
v 6 14 -6
v 7 14 -6
v 9 14 -6
v -9 14 -7
v -7 14 -7
v -6 14 -7
v -5 14 -7
v 5 14 -7
v 6 14 -7
v 7 14 -7
v 9 14 -7
v -8 14 -8
v -7 14 -8
v -6 14 -8
v 6 14 -8
v 7 14 -8
v 8 14 -8
v -9 14 -9
v -8 14 -9
v -7 14 -9
v -6 14 -9
v 6 14 -9
v 7 14 -9
v 8 14 -9
v 9 14 -9
v -10 14 -10
v 10 14 -10
v -8 15 8
v -6 15 8
v 6 15 8
v 8 15 8
v -7 15 7
v -6 15 7
v 6 15 7
v 7 15 7
v -8 15 6
v -7 15 6
v 7 15 6
v 8 15 6
v -11 15 5
v -9 15 5
v 9 15 5
v 11 15 5
v -11 15 4
v -9 15 4
v 9 15 4
v 11 15 4
v -11 15 -4
v -9 15 -4
v 9 15 -4
v 11 15 -4
v -11 15 -5
v -9 15 -5
v 9 15 -5
v 11 15 -5
v -8 15 -6
v -7 15 -6
v 7 15 -6
v 8 15 -6
v -7 15 -7
v -6 15 -7
v 6 15 -7
v 7 15 -7
v -8 15 -8
v -6 15 -8
v 6 15 -8
v 8 15 -8
v -9 16 9
v -6 16 9
v 6 16 9
v 9 16 9
v -8 16 8
v -6 16 8
v 6 16 8
v 8 16 8
v -9 16 6
v -8 16 6
v 8 16 6
v 9 16 6
v -9 16 -6
v -8 16 -6
v 8 16 -6
v 9 16 -6
v -8 16 -8
v -6 16 -8
v 6 16 -8
v 8 16 -8
v -9 16 -9
v -6 16 -9
v 6 16 -9
v 9 16 -9
v -10 17 10
v -5 17 10
v 5 17 10
v 10 17 10
v -9 17 9
v -5 17 9
v 5 17 9
v 9 17 9
v -10 17 6
v -9 17 6
v 9 17 6
v 10 17 6
v -10 17 -6
v -9 17 -6
v 9 17 -6
v 10 17 -6
v -9 17 -9
v -5 17 -9
v 5 17 -9
v 9 17 -9
v -10 17 -10
v -5 17 -10
v 5 17 -10
v 10 17 -10

# faces
f 3/4/1 2/4/1 1/4/1
f 4/4/1 2/4/1 3/4/1
f 9/4/1 6/4/1 5/4/1
f 10/4/1 6/4/1 9/4/1
f 11/4/1 8/4/1 7/4/1
f 12/4/1 8/4/1 11/4/1
f 15/3/1 14/3/1 13/3/1
f 16/3/1 14/3/1 15/3/1
f 25/2/1 18/2/1 17/2/1
f 26/2/1 18/2/1 25/2/1
f 27/2/1 24/2/1 23/2/1
f 28/2/1 24/2/1 27/2/1
f 30/2/1 18/2/1 26/2/1
f 31/2/1 27/2/1 23/2/1
f 33/2/1 30/2/1 29/2/1
f 34/2/1 18/2/1 30/2/1
f 34/2/1 30/2/1 33/2/1
f 35/2/1 32/2/1 31/2/1
f 35/2/1 31/2/1 23/2/1
f 36/2/1 32/2/1 35/2/1
f 37/2/1 18/2/1 34/2/1
f 38/2/1 18/2/1 37/2/1
f 39/2/1 20/2/1 19/2/1
f 40/2/1 20/2/1 39/2/1
f 41/2/1 22/2/1 21/2/1
f 42/2/1 22/2/1 41/2/1
f 43/2/1 35/2/1 23/2/1
f 44/2/1 35/2/1 43/2/1
f 57/2/1 52/2/1 51/2/1
f 58/3/1 53/3/1 52/3/1
f 58/2/1 52/2/1 57/2/1
f 59/3/1 53/3/1 58/3/1
f 60/3/1 55/3/1 54/3/1
f 61/2/1 56/2/1 55/2/1
f 61/3/1 55/3/1 60/3/1
f 62/2/1 56/2/1 61/2/1
f 67/3/1 64/3/1 63/3/1
f 68/3/1 64/3/1 67/3/1
f 69/3/1 46/3/1 45/3/1
f 70/3/1 46/3/1 69/3/1
f 71/3/1 48/3/1 47/3/1
f 72/3/1 48/3/1 71/3/1
f 73/3/1 50/3/1 49/3/1
f 74/3/1 50/3/1 73/3/1
f 75/3/1 66/3/1 65/3/1
f 76/3/1 66/3/1 75/3/1
f 85/2/1 78/2/1 77/2/1
f 85/2/1 79/2/1 78/2/1
f 85/2/1 80/2/1 79/2/1
f 86/2/1 80/2/1 85/2/1
f 87/2/1 84/2/1 83/2/1
f 87/2/1 83/2/1 82/2/1
f 87/2/1 82/2/1 81/2/1
f 88/2/1 84/2/1 87/2/1
f 89/2/1 80/2/1 86/2/1
f 90/2/1 80/2/1 89/2/1
f 91/2/1 87/2/1 81/2/1
f 92/2/1 87/2/1 91/2/1
f 103/1/1 96/1/1 95/1/1
f 104/1/1 96/1/1 103/1/1
f 105/1/1 100/1/1 99/1/1
f 106/1/1 100/1/1 105/1/1
f 107/1/1 94/1/1 93/1/1
f 110/1/1 102/1/1 101/1/1
f 111/1/1 108/1/1 107/1/1
f 111/1/1 107/1/1 93/1/1
f 112/1/1 108/1/1 111/1/1
f 113/1/1 98/1/1 97/1/1
f 114/1/1 98/1/1 113/1/1
f 115/1/1 110/1/1 109/1/1
f 116/1/1 102/1/1 110/1/1
f 116/1/1 110/1/1 115/1/1
f 121/1/1 118/1/1 117/1/1
f 122/1/1 118/1/1 121/1/1
f 123/1/1 120/1/1 119/1/1
f 124/1/1 120/1/1 123/1/1
f 130/1/1 126/1/1 125/1/1
f 131/1/1 128/1/1 127/1/1
f 133/1/1 130/1/1 129/1/1
f 134/1/1 126/1/1 130/1/1
f 134/1/1 130/1/1 133/1/1
f 135/1/1 132/1/1 131/1/1
f 135/1/1 131/1/1 127/1/1
f 136/1/1 132/1/1 135/1/1
f 149/1/1 138/1/1 137/1/1
f 150/1/1 138/1/1 149/1/1
f 151/1/1 140/1/1 139/1/1
f 152/1/1 140/1/1 151/1/1
f 153/2/1 142/2/1 141/2/1
f 154/2/1 142/2/1 153/2/1
f 155/2/1 144/2/1 143/2/1
f 156/2/1 144/2/1 155/2/1
f 157/1/1 146/1/1 145/1/1
f 158/1/1 146/1/1 157/1/1
f 159/1/1 148/1/1 147/1/1
f 160/1/1 148/1/1 159/1/1
f 161/1/1 151/1/1 150/1/1
f 162/1/1 151/1/1 161/1/1
f 163/1/1 159/1/1 158/1/1
f 164/1/1 159/1/1 163/1/1
f 174/1/1 166/1/1 165/1/1
f 175/1/1 166/1/1 174/1/1
f 176/1/1 170/1/1 169/1/1
f 177/1/1 170/1/1 176/1/1
f 178/1/1 172/1/1 171/1/1
f 179/1/1 172/1/1 178/1/1
f 180/1/1 168/1/1 167/1/1
f 181/1/1 168/1/1 180/1/1
f 183/1/1 174/1/1 173/1/1
f 184/1/1 174/1/1 183/1/1
f 185/1/1 182/1/1 181/1/1
f 186/1/1 182/1/1 185/1/1
f 191/1/1 188/1/1 187/1/1
f 192/1/1 188/1/1 191/1/1
f 193/1/1 190/1/1 189/1/1
f 194/1/1 190/1/1 193/1/1
f 199/2/1 196/2/1 195/2/1
f 200/2/1 196/2/1 199/2/1
f 201/2/1 198/2/1 197/2/1
f 202/2/1 198/2/1 201/2/1
f 207/2/1 204/2/1 203/2/1
f 214/2/1 206/2/1 205/2/1
f 215/2/1 207/2/1 203/2/1
f 215/2/1 208/2/1 207/2/1
f 216/2/1 208/2/1 215/2/1
f 217/1/1 210/1/1 209/1/1
f 218/1/1 210/1/1 217/1/1
f 219/1/1 212/1/1 211/1/1
f 220/1/1 212/1/1 219/1/1
f 221/2/1 214/2/1 213/2/1
f 222/2/1 206/2/1 214/2/1
f 222/2/1 214/2/1 221/2/1
f 227/2/1 224/2/1 223/2/1
f 230/2/1 226/2/1 225/2/1
f 231/2/1 228/2/1 227/2/1
f 231/2/1 227/2/1 223/2/1
f 232/2/1 228/2/1 231/2/1
f 237/2/1 230/2/1 229/2/1
f 238/2/1 226/2/1 230/2/1
f 238/2/1 230/2/1 237/2/1
f 239/2/1 234/2/1 233/2/1
f 240/2/1 234/2/1 239/2/1
f 241/2/1 236/2/1 235/2/1
f 242/2/1 236/2/1 241/2/1
f 247/2/1 244/2/1 243/2/1
f 254/2/1 246/2/1 245/2/1
f 255/2/1 247/2/1 243/2/1
f 255/2/1 248/2/1 247/2/1
f 256/2/1 248/2/1 255/2/1
f 257/2/1 254/2/1 253/2/1
f 258/2/1 246/2/1 254/2/1
f 258/2/1 254/2/1 257/2/1
f 259/2/1 250/2/1 249/2/1
f 260/2/1 250/2/1 259/2/1
f 261/2/1 252/2/1 251/2/1
f 262/2/1 252/2/1 261/2/1
f 267/2/1 264/2/1 263/2/1
f 274/2/1 266/2/1 265/2/1
f 275/2/1 267/2/1 263/2/1
f 275/2/1 268/2/1 267/2/1
f 276/2/1 268/2/1 275/2/1
f 278/1/1 270/1/1 269/1/1
f 279/1/1 270/1/1 278/1/1
f 284/1/1 272/1/1 271/1/1
f 285/1/1 272/1/1 284/1/1
f 287/2/1 274/2/1 273/2/1
f 288/2/1 266/2/1 274/2/1
f 288/2/1 274/2/1 287/2/1
f 289/1/1 278/1/1 277/1/1
f 290/1/1 278/1/1 289/1/1
f 291/2/1 281/2/1 280/2/1
f 292/2/1 281/2/1 291/2/1
f 293/2/1 283/2/1 282/2/1
f 294/2/1 283/2/1 293/2/1
f 295/1/1 286/1/1 285/1/1
f 296/1/1 286/1/1 295/1/1
f 306/1/1 298/1/1 297/1/1
f 307/1/1 298/1/1 306/1/1
f 308/1/1 300/1/1 299/1/1
f 309/1/1 300/1/1 308/1/1
f 310/1/1 302/1/1 301/1/1
f 311/1/1 302/1/1 310/1/1
f 315/1/1 304/1/1 303/1/1
f 316/1/1 304/1/1 315/1/1
f 317/1/1 306/1/1 305/1/1
f 318/1/1 306/1/1 317/1/1
f 319/1/1 312/1/1 311/1/1
f 320/1/1 312/1/1 319/1/1
f 321/1/1 314/1/1 313/1/1
f 322/1/1 314/1/1 321/1/1
f 323/1/1 316/1/1 315/1/1
f 324/1/1 316/1/1 323/1/1
f 325/1/1 322/1/1 321/1/1
f 326/1/1 322/1/1 325/1/1
f 331/1/1 328/1/1 327/1/1
f 332/1/1 328/1/1 331/1/1
f 333/1/1 330/1/1 329/1/1
f 334/1/1 330/1/1 333/1/1
f 339/1/1 336/1/1 335/1/1
f 340/1/1 336/1/1 339/1/1
f 341/1/1 338/1/1 337/1/1
f 342/1/1 338/1/1 341/1/1
f 356/1/1 344/1/1 343/1/1
f 357/1/1 344/1/1 356/1/1
f 358/1/1 346/1/1 345/1/1
f 359/1/1 346/1/1 358/1/1
f 360/2/1 348/2/1 347/2/1
f 361/2/1 348/2/1 360/2/1
f 362/2/1 350/2/1 349/2/1
f 363/2/1 350/2/1 362/2/1
f 364/1/1 352/1/1 351/1/1
f 365/1/1 352/1/1 364/1/1
f 366/1/1 354/1/1 353/1/1
f 367/1/1 354/1/1 366/1/1
f 369/1/1 357/1/1 356/1/1
f 369/1/1 356/1/1 355/1/1
f 370/1/1 357/1/1 369/1/1
f 371/1/1 368/1/1 367/1/1
f 371/1/1 367/1/1 366/1/1
f 372/1/1 368/1/1 371/1/1
f 373/1/1 369/1/1 355/1/1
f 374/1/1 369/1/1 373/1/1
f 375/1/1 368/1/1 372/1/1
f 376/1/1 368/1/1 375/1/1
f 383/1/1 378/1/1 377/1/1
f 384/1/1 378/1/1 383/1/1
f 385/1/1 378/1/1 384/1/1
f 386/1/1 380/1/1 379/1/1
f 387/1/1 380/1/1 386/1/1
f 388/1/1 382/1/1 381/1/1
f 389/1/1 382/1/1 388/1/1
f 390/1/1 382/1/1 389/1/1
f 393/2/1 385/2/1 384/2/1
f 394/2/1 385/2/1 393/2/1
f 395/2/1 389/2/1 388/2/1
f 396/2/1 389/2/1 395/2/1
f 399/1/1 392/1/1 391/1/1
f 400/1/1 392/1/1 399/1/1
f 401/1/1 398/1/1 397/1/1
f 402/1/1 398/1/1 401/1/1
f 407/1/1 404/1/1 403/1/1
f 408/1/1 404/1/1 407/1/1
f 413/1/1 406/1/1 405/1/1
f 414/1/1 406/1/1 413/1/1
f 415/2/1 410/2/1 409/2/1
f 416/2/1 410/2/1 415/2/1
f 417/2/1 412/2/1 411/2/1
f 418/2/1 412/2/1 417/2/1
f 423/1/1 420/1/1 419/1/1
f 424/1/1 420/1/1 423/1/1
f 425/1/1 422/1/1 421/1/1
f 426/1/1 422/1/1 425/1/1
f 433/1/1 428/1/1 427/1/1
f 434/1/1 428/1/1 433/1/1
f 435/1/1 428/1/1 434/1/1
f 436/1/1 428/1/1 435/1/1
f 438/1/1 430/1/1 429/1/1
f 439/1/1 430/1/1 438/1/1
f 441/1/1 432/1/1 431/1/1
f 442/1/1 432/1/1 441/1/1
f 443/1/1 432/1/1 442/1/1
f 444/1/1 432/1/1 443/1/1
f 445/2/1 437/2/1 436/2/1
f 446/2/1 437/2/1 445/2/1
f 447/2/1 441/2/1 440/2/1
f 448/2/1 441/2/1 447/2/1
f 453/1/1 450/1/1 449/1/1
f 454/1/1 450/1/1 453/1/1
f 455/1/1 452/1/1 451/1/1
f 456/1/1 452/1/1 455/1/1
f 461/2/1 458/2/1 457/2/1
f 462/2/1 458/2/1 461/2/1
f 463/2/1 460/2/1 459/2/1
f 464/2/1 460/2/1 463/2/1
f 475/1/1 466/1/1 465/1/1
f 476/1/1 466/1/1 475/1/1
f 477/1/1 472/1/1 471/1/1
f 478/1/1 472/1/1 477/1/1
f 481/2/1 474/2/1 473/2/1
f 482/2/1 474/2/1 481/2/1
f 483/3/1 476/3/1 475/3/1
f 484/1/1 466/1/1 476/1/1
f 484/3/1 476/3/1 483/3/1
f 485/1/1 477/1/1 471/1/1
f 485/3/1 478/3/1 477/3/1
f 486/3/1 478/3/1 485/3/1
f 487/2/1 480/2/1 479/2/1
f 488/2/1 480/2/1 487/2/1
f 489/1/1 484/1/1 483/1/1
f 490/1/1 466/1/1 484/1/1
f 490/1/1 484/1/1 489/1/1
f 491/1/1 486/1/1 485/1/1
f 491/1/1 485/1/1 471/1/1
f 492/1/1 486/1/1 491/1/1
f 493/3/1 490/3/1 489/3/1
f 494/1/1 466/1/1 490/1/1
f 494/3/1 490/3/1 493/3/1
f 495/3/1 467/3/1 466/3/1
f 495/1/1 466/1/1 494/1/1
f 496/1/1 468/1/1 467/1/1
f 496/3/1 467/3/1 495/3/1
f 497/3/1 469/3/1 468/3/1
f 497/1/1 468/1/1 496/1/1
f 498/1/1 470/1/1 469/1/1
f 498/3/1 469/3/1 497/3/1
f 499/3/1 471/3/1 470/3/1
f 499/1/1 470/1/1 498/1/1
f 500/1/1 491/1/1 471/1/1
f 500/3/1 471/3/1 499/3/1
f 501/3/1 492/3/1 491/3/1
f 501/1/1 491/1/1 500/1/1
f 502/3/1 492/3/1 501/3/1
f 507/4/1 504/4/1 503/4/1
f 508/4/1 504/4/1 507/4/1
f 509/4/1 506/4/1 505/4/1
f 510/4/1 506/4/1 509/4/1
f 511/4/2 512/4/2 515/4/2
f 515/4/2 512/4/2 516/4/2
f 513/4/2 514/4/2 517/4/2
f 517/4/2 514/4/2 518/4/2
f 519/1/2 520/1/2 529/1/2
f 529/1/2 520/1/2 530/1/2
f 525/1/2 526/1/2 531/1/2
f 531/1/2 526/1/2 532/1/2
f 527/2/2 528/2/2 535/2/2
f 535/2/2 528/2/2 536/2/2
f 529/3/2 530/3/2 537/3/2
f 530/1/2 520/1/2 538/1/2
f 537/3/2 530/3/2 538/3/2
f 525/1/2 531/1/2 539/1/2
f 531/3/2 532/3/2 539/3/2
f 539/3/2 532/3/2 540/3/2
f 533/2/2 534/2/2 541/2/2
f 541/2/2 534/2/2 542/2/2
f 537/1/2 538/1/2 543/1/2
f 538/1/2 520/1/2 544/1/2
f 543/1/2 538/1/2 544/1/2
f 539/1/2 540/1/2 545/1/2
f 525/1/2 539/1/2 545/1/2
f 545/1/2 540/1/2 546/1/2
f 543/3/2 544/3/2 547/3/2
f 544/1/2 520/1/2 548/1/2
f 547/3/2 544/3/2 548/3/2
f 520/3/2 521/3/2 549/3/2
f 548/1/2 520/1/2 549/1/2
f 521/1/2 522/1/2 550/1/2
f 549/3/2 521/3/2 550/3/2
f 522/3/2 523/3/2 551/3/2
f 550/1/2 522/1/2 551/1/2
f 523/1/2 524/1/2 552/1/2
f 551/3/2 523/3/2 552/3/2
f 524/3/2 525/3/2 553/3/2
f 552/1/2 524/1/2 553/1/2
f 525/1/2 545/1/2 554/1/2
f 553/3/2 525/3/2 554/3/2
f 545/3/2 546/3/2 555/3/2
f 554/1/2 545/1/2 555/1/2
f 555/3/2 546/3/2 556/3/2
f 557/2/2 558/2/2 561/2/2
f 561/2/2 558/2/2 562/2/2
f 559/2/2 560/2/2 563/2/2
f 563/2/2 560/2/2 564/2/2
f 565/1/2 566/1/2 571/1/2
f 571/1/2 566/1/2 572/1/2
f 572/1/2 566/1/2 573/1/2
f 573/1/2 566/1/2 574/1/2
f 567/1/2 568/1/2 576/1/2
f 576/1/2 568/1/2 577/1/2
f 569/1/2 570/1/2 579/1/2
f 579/1/2 570/1/2 580/1/2
f 580/1/2 570/1/2 581/1/2
f 581/1/2 570/1/2 582/1/2
f 574/2/2 575/2/2 583/2/2
f 583/2/2 575/2/2 584/2/2
f 578/2/2 579/2/2 585/2/2
f 585/2/2 579/2/2 586/2/2
f 587/1/2 588/1/2 591/1/2
f 591/1/2 588/1/2 592/1/2
f 589/1/2 590/1/2 593/1/2
f 593/1/2 590/1/2 594/1/2
f 595/1/2 596/1/2 599/1/2
f 599/1/2 596/1/2 600/1/2
f 597/1/2 598/1/2 605/1/2
f 605/1/2 598/1/2 606/1/2
f 601/2/2 602/2/2 607/2/2
f 607/2/2 602/2/2 608/2/2
f 603/2/2 604/2/2 609/2/2
f 609/2/2 604/2/2 610/2/2
f 611/1/2 612/1/2 615/1/2
f 615/1/2 612/1/2 616/1/2
f 613/1/2 614/1/2 617/1/2
f 617/1/2 614/1/2 618/1/2
f 619/1/2 620/1/2 625/1/2
f 625/1/2 620/1/2 626/1/2
f 626/1/2 620/1/2 627/1/2
f 621/1/2 622/1/2 628/1/2
f 628/1/2 622/1/2 629/1/2
f 623/1/2 624/1/2 630/1/2
f 630/1/2 624/1/2 631/1/2
f 631/1/2 624/1/2 632/1/2
f 626/2/2 627/2/2 635/2/2
f 635/2/2 627/2/2 636/2/2
f 630/2/2 631/2/2 637/2/2
f 637/2/2 631/2/2 638/2/2
f 633/1/2 634/1/2 641/1/2
f 641/1/2 634/1/2 642/1/2
f 639/1/2 640/1/2 643/1/2
f 643/1/2 640/1/2 644/1/2
f 645/1/2 646/1/2 649/1/2
f 649/1/2 646/1/2 650/1/2
f 647/1/2 648/1/2 651/1/2
f 651/1/2 648/1/2 652/1/2
f 653/1/2 654/1/2 666/1/2
f 666/1/2 654/1/2 667/1/2
f 655/1/2 656/1/2 668/1/2
f 668/1/2 656/1/2 669/1/2
f 657/2/2 658/2/2 670/2/2
f 670/2/2 658/2/2 671/2/2
f 659/2/2 660/2/2 672/2/2
f 672/2/2 660/2/2 673/2/2
f 661/1/2 662/1/2 674/1/2
f 674/1/2 662/1/2 675/1/2
f 663/1/2 664/1/2 676/1/2
f 676/1/2 664/1/2 677/1/2
f 666/1/2 667/1/2 679/1/2
f 665/1/2 666/1/2 679/1/2
f 679/1/2 667/1/2 680/1/2
f 677/1/2 678/1/2 681/1/2
f 676/1/2 677/1/2 681/1/2
f 681/1/2 678/1/2 682/1/2
f 665/1/2 679/1/2 683/1/2
f 683/1/2 679/1/2 684/1/2
f 682/1/2 678/1/2 685/1/2
f 685/1/2 678/1/2 686/1/2
f 687/1/2 688/1/2 696/1/2
f 696/1/2 688/1/2 697/1/2
f 689/1/2 690/1/2 698/1/2
f 698/1/2 690/1/2 699/1/2
f 691/1/2 692/1/2 700/1/2
f 700/1/2 692/1/2 701/1/2
f 693/1/2 694/1/2 705/1/2
f 705/1/2 694/1/2 706/1/2
f 695/1/2 696/1/2 707/1/2
f 707/1/2 696/1/2 708/1/2
f 701/1/2 702/1/2 709/1/2
f 709/1/2 702/1/2 710/1/2
f 703/1/2 704/1/2 711/1/2
f 711/1/2 704/1/2 712/1/2
f 705/1/2 706/1/2 713/1/2
f 713/1/2 706/1/2 714/1/2
f 711/1/2 712/1/2 715/1/2
f 715/1/2 712/1/2 716/1/2
f 717/1/2 718/1/2 721/1/2
f 721/1/2 718/1/2 722/1/2
f 719/1/2 720/1/2 723/1/2
f 723/1/2 720/1/2 724/1/2
f 725/2/2 726/2/2 729/2/2
f 727/2/2 728/2/2 736/2/2
f 725/2/2 729/2/2 737/2/2
f 729/2/2 730/2/2 737/2/2
f 737/2/2 730/2/2 738/2/2
f 731/1/2 732/1/2 740/1/2
f 740/1/2 732/1/2 741/1/2
f 733/1/2 734/1/2 746/1/2
f 746/1/2 734/1/2 747/1/2
f 735/2/2 736/2/2 749/2/2
f 736/2/2 728/2/2 750/2/2
f 749/2/2 736/2/2 750/2/2
f 739/1/2 740/1/2 751/1/2
f 751/1/2 740/1/2 752/1/2
f 742/2/2 743/2/2 753/2/2
f 753/2/2 743/2/2 754/2/2
f 744/2/2 745/2/2 755/2/2
f 755/2/2 745/2/2 756/2/2
f 747/1/2 748/1/2 757/1/2
f 757/1/2 748/1/2 758/1/2
f 759/2/2 760/2/2 763/2/2
f 761/2/2 762/2/2 770/2/2
f 759/2/2 763/2/2 771/2/2
f 763/2/2 764/2/2 771/2/2
f 771/2/2 764/2/2 772/2/2
f 769/2/2 770/2/2 773/2/2
f 770/2/2 762/2/2 774/2/2
f 773/2/2 770/2/2 774/2/2
f 765/2/2 766/2/2 775/2/2
f 775/2/2 766/2/2 776/2/2
f 767/2/2 768/2/2 777/2/2
f 777/2/2 768/2/2 778/2/2
f 779/2/2 780/2/2 783/2/2
f 781/2/2 782/2/2 786/2/2
f 783/2/2 784/2/2 787/2/2
f 779/2/2 783/2/2 787/2/2
f 787/2/2 784/2/2 788/2/2
f 785/2/2 786/2/2 793/2/2
f 786/2/2 782/2/2 794/2/2
f 793/2/2 786/2/2 794/2/2
f 789/2/2 790/2/2 795/2/2
f 795/2/2 790/2/2 796/2/2
f 791/2/2 792/2/2 797/2/2
f 797/2/2 792/2/2 798/2/2
f 799/2/2 800/2/2 803/2/2
f 803/2/2 800/2/2 804/2/2
f 801/2/2 802/2/2 805/2/2
f 805/2/2 802/2/2 806/2/2
f 807/2/2 808/2/2 811/2/2
f 809/2/2 810/2/2 818/2/2
f 807/2/2 811/2/2 819/2/2
f 811/2/2 812/2/2 819/2/2
f 819/2/2 812/2/2 820/2/2
f 813/1/2 814/1/2 821/1/2
f 821/1/2 814/1/2 822/1/2
f 815/1/2 816/1/2 823/1/2
f 823/1/2 816/1/2 824/1/2
f 817/2/2 818/2/2 825/2/2
f 818/2/2 810/2/2 826/2/2
f 825/2/2 818/2/2 826/2/2
f 827/1/2 828/1/2 831/1/2
f 831/1/2 828/1/2 832/1/2
f 829/1/2 830/1/2 833/1/2
f 833/1/2 830/1/2 834/1/2
f 835/1/2 836/1/2 844/1/2
f 844/1/2 836/1/2 845/1/2
f 839/1/2 840/1/2 846/1/2
f 846/1/2 840/1/2 847/1/2
f 841/1/2 842/1/2 848/1/2
f 848/1/2 842/1/2 849/1/2
f 837/1/2 838/1/2 850/1/2
f 850/1/2 838/1/2 851/1/2
f 843/1/2 844/1/2 853/1/2
f 853/1/2 844/1/2 854/1/2
f 851/1/2 852/1/2 855/1/2
f 855/1/2 852/1/2 856/1/2
f 857/1/2 858/1/2 869/1/2
f 869/1/2 858/1/2 870/1/2
f 859/1/2 860/1/2 871/1/2
f 871/1/2 860/1/2 872/1/2
f 861/2/2 862/2/2 873/2/2
f 873/2/2 862/2/2 874/2/2
f 863/2/2 864/2/2 875/2/2
f 875/2/2 864/2/2 876/2/2
f 865/1/2 866/1/2 877/1/2
f 877/1/2 866/1/2 878/1/2
f 867/1/2 868/1/2 879/1/2
f 879/1/2 868/1/2 880/1/2
f 870/1/2 871/1/2 881/1/2
f 881/1/2 871/1/2 882/1/2
f 878/1/2 879/1/2 883/1/2
f 883/1/2 879/1/2 884/1/2
f 885/1/2 886/1/2 890/1/2
f 887/1/2 888/1/2 891/1/2
f 889/1/2 890/1/2 893/1/2
f 890/1/2 886/1/2 894/1/2
f 893/1/2 890/1/2 894/1/2
f 891/1/2 892/1/2 895/1/2
f 887/1/2 891/1/2 895/1/2
f 895/1/2 892/1/2 896/1/2
f 899/1/2 900/1/2 907/1/2
f 907/1/2 900/1/2 908/1/2
f 903/1/2 904/1/2 909/1/2
f 909/1/2 904/1/2 910/1/2
f 897/1/2 898/1/2 911/1/2
f 905/1/2 906/1/2 914/1/2
f 911/1/2 912/1/2 915/1/2
f 897/1/2 911/1/2 915/1/2
f 915/1/2 912/1/2 916/1/2
f 901/1/2 902/1/2 917/1/2
f 917/1/2 902/1/2 918/1/2
f 913/1/2 914/1/2 919/1/2
f 914/1/2 906/1/2 920/1/2
f 919/1/2 914/1/2 920/1/2
f 921/1/2 922/1/2 925/1/2
f 925/1/2 922/1/2 926/1/2
f 923/1/2 924/1/2 927/1/2
f 927/1/2 924/1/2 928/1/2
f 929/2/2 930/2/2 937/2/2
f 930/2/2 931/2/2 937/2/2
f 931/2/2 932/2/2 937/2/2
f 937/2/2 932/2/2 938/2/2
f 935/2/2 936/2/2 939/2/2
f 934/2/2 935/2/2 939/2/2
f 933/2/2 934/2/2 939/2/2
f 939/2/2 936/2/2 940/2/2
f 938/2/2 932/2/2 941/2/2
f 941/2/2 932/2/2 942/2/2
f 933/2/2 939/2/2 943/2/2
f 943/2/2 939/2/2 944/2/2
f 951/2/2 952/2/2 957/2/2
f 952/3/2 953/3/2 958/3/2
f 957/2/2 952/2/2 958/2/2
f 958/3/2 953/3/2 959/3/2
f 954/3/2 955/3/2 960/3/2
f 955/2/2 956/2/2 961/2/2
f 960/3/2 955/3/2 961/3/2
f 961/2/2 956/2/2 962/2/2
f 963/3/2 964/3/2 967/3/2
f 967/3/2 964/3/2 968/3/2
f 945/3/2 946/3/2 969/3/2
f 969/3/2 946/3/2 970/3/2
f 947/3/2 948/3/2 971/3/2
f 971/3/2 948/3/2 972/3/2
f 949/3/2 950/3/2 973/3/2
f 973/3/2 950/3/2 974/3/2
f 965/3/2 966/3/2 975/3/2
f 975/3/2 966/3/2 976/3/2
f 977/2/2 978/2/2 985/2/2
f 985/2/2 978/2/2 986/2/2
f 983/2/2 984/2/2 987/2/2
f 987/2/2 984/2/2 988/2/2
f 986/2/2 978/2/2 990/2/2
f 983/2/2 987/2/2 991/2/2
f 989/2/2 990/2/2 993/2/2
f 990/2/2 978/2/2 994/2/2
f 993/2/2 990/2/2 994/2/2
f 991/2/2 992/2/2 995/2/2
f 983/2/2 991/2/2 995/2/2
f 995/2/2 992/2/2 996/2/2
f 994/2/2 978/2/2 997/2/2
f 997/2/2 978/2/2 998/2/2
f 979/2/2 980/2/2 999/2/2
f 999/2/2 980/2/2 1000/2/2
f 981/2/2 982/2/2 1001/2/2
f 1001/2/2 982/2/2 1002/2/2
f 983/2/2 995/2/2 1003/2/2
f 1003/2/2 995/2/2 1004/2/2
f 1005/3/2 1006/3/2 1007/3/2
f 1007/3/2 1006/3/2 1008/3/2
f 1009/4/2 1010/4/2 1013/4/2
f 1013/4/2 1010/4/2 1014/4/2
f 1011/4/2 1012/4/2 1015/4/2
f 1015/4/2 1012/4/2 1016/4/2
f 1017/4/2 1018/4/2 1019/4/2
f 1019/4/2 1018/4/2 1020/4/2
f 1023/4/3 1022/4/3 1021/4/3
f 1024/4/3 1022/4/3 1023/4/3
f 1027/4/3 1026/4/3 1025/4/3
f 1028/4/3 1026/4/3 1027/4/3
f 1031/4/3 1030/4/3 1029/4/3
f 1032/4/3 1030/4/3 1031/4/3
f 1035/3/3 1034/3/3 1033/3/3
f 1036/3/3 1034/3/3 1035/3/3
f 1039/2/3 1038/2/3 1037/2/3
f 1040/2/3 1038/2/3 1039/2/3
f 1043/2/3 1042/2/3 1041/2/3
f 1044/2/3 1042/2/3 1043/2/3
f 1048/2/3 1046/2/3 1045/2/3
f 1049/2/3 1048/2/3 1047/2/3
f 1050/2/3 1046/2/3 1048/2/3
f 1050/2/3 1048/2/3 1049/2/3
f 1052/2/3 1046/2/3 1050/2/3
f 1053/2/3 1046/2/3 1052/2/3
f 1055/2/3 1052/2/3 1051/2/3
f 1055/2/3 1054/2/3 1053/2/3
f 1055/2/3 1053/2/3 1052/2/3
f 1056/2/3 1054/2/3 1055/2/3
f 1059/2/3 1058/2/3 1057/2/3
f 1060/2/3 1058/2/3 1059/2/3
f 1063/2/3 1062/2/3 1061/2/3
f 1064/2/3 1062/2/3 1063/2/3
f 1067/2/3 1066/2/3 1065/2/3
f 1068/2/3 1066/2/3 1067/2/3
f 1069/2/3 1066/2/3 1068/2/3
f 1070/2/3 1066/2/3 1069/2/3
f 1072/2/3 1069/2/3 1068/2/3
f 1073/2/3 1072/2/3 1071/2/3
f 1074/2/3 1069/2/3 1072/2/3
f 1074/2/3 1072/2/3 1073/2/3
f 1075/2/3 1069/2/3 1074/2/3
f 1076/2/3 1069/2/3 1075/2/3
f 1082/3/3 1080/3/3 1079/3/3
f 1083/3/3 1082/3/3 1081/3/3
f 1084/3/3 1080/3/3 1082/3/3
f 1084/3/3 1082/3/3 1083/3/3
f 1085/3/3 1078/3/3 1077/3/3
f 1086/3/3 1078/3/3 1085/3/3
f 1089/3/3 1088/3/3 1087/3/3
f 1090/3/3 1088/3/3 1089/3/3
f 1093/3/3 1092/3/3 1091/3/3
f 1094/3/3 1092/3/3 1093/3/3
f 1097/3/3 1096/3/3 1095/3/3
f 1098/3/3 1096/3/3 1097/3/3
f 1103/3/3 1100/3/3 1099/3/3
f 1104/3/3 1100/3/3 1103/3/3
f 1105/3/3 1100/3/3 1104/3/3
f 1106/3/3 1100/3/3 1105/3/3
f 1107/3/3 1102/3/3 1101/3/3
f 1108/3/3 1102/3/3 1107/3/3
f 1113/1/3 1110/1/3 1109/1/3
f 1114/1/3 1110/1/3 1113/1/3
f 1115/1/3 1112/1/3 1111/1/3
f 1116/1/3 1112/1/3 1115/1/3
f 1118/1/3 1110/1/3 1114/1/3
f 1119/1/3 1118/1/3 1117/1/3
f 1120/1/3 1110/1/3 1118/1/3
f 1120/1/3 1118/1/3 1119/1/3
f 1122/1/3 1110/1/3 1120/1/3
f 1123/1/3 1122/1/3 1121/1/3
f 1124/1/3 1110/1/3 1122/1/3
f 1124/1/3 1122/1/3 1123/1/3
f 1126/1/3 1110/1/3 1124/1/3
f 1127/1/3 1126/1/3 1125/1/3
f 1128/1/3 1110/1/3 1126/1/3
f 1128/1/3 1126/1/3 1127/1/3
f 1130/1/3 1110/1/3 1128/1/3
f 1133/1/3 1130/1/3 1129/1/3
f 1134/1/3 1110/1/3 1130/1/3
f 1134/1/3 1130/1/3 1133/1/3
f 1135/1/3 1132/1/3 1131/1/3
f 1136/1/3 1132/1/3 1135/1/3
f 1140/1/3 1138/1/3 1137/1/3
f 1141/1/3 1140/1/3 1139/1/3
f 1142/1/3 1138/1/3 1140/1/3
f 1142/1/3 1140/1/3 1141/1/3
f 1145/1/3 1144/1/3 1143/1/3
f 1146/1/3 1144/1/3 1145/1/3
f 1147/1/3 1144/1/3 1146/1/3
f 1148/1/3 1144/1/3 1147/1/3
f 1151/1/3 1150/1/3 1149/1/3
f 1152/1/3 1150/1/3 1151/1/3
f 1155/1/3 1154/1/3 1153/1/3
f 1156/1/3 1154/1/3 1155/1/3
f 1161/2/3 1158/2/3 1157/2/3
f 1162/2/3 1158/2/3 1161/2/3
f 1163/2/3 1160/2/3 1159/2/3
f 1164/2/3 1160/2/3 1163/2/3
f 1165/2/3 1160/2/3 1164/2/3
f 1167/2/3 1165/2/3 1164/2/3
f 1167/2/3 1166/2/3 1165/2/3
f 1168/2/3 1166/2/3 1167/2/3
f 1173/1/3 1170/1/3 1169/1/3
f 1174/1/3 1170/1/3 1173/1/3
f 1175/1/3 1172/1/3 1171/1/3
f 1175/1/3 1173/1/3 1172/1/3
f 1176/1/3 1173/1/3 1175/1/3
f 1179/1/3 1178/1/3 1177/1/3
f 1180/1/3 1178/1/3 1179/1/3
f 1183/1/3 1182/1/3 1181/1/3
f 1184/1/3 1182/1/3 1183/1/3
f 1187/1/3 1186/1/3 1185/1/3
f 1188/1/3 1186/1/3 1187/1/3
f 1189/1/3 1186/1/3 1188/1/3
f 1191/1/3 1190/1/3 1189/1/3
f 1192/1/3 1190/1/3 1191/1/3
f 1195/2/3 1194/2/3 1193/2/3
f 1196/2/3 1194/2/3 1195/2/3
f 1200/2/3 1195/2/3 1193/2/3
f 1201/2/3 1198/2/3 1197/2/3
f 1202/2/3 1198/2/3 1201/2/3
f 1203/2/3 1200/2/3 1199/2/3
f 1204/2/3 1195/2/3 1200/2/3
f 1204/2/3 1200/2/3 1203/2/3
f 1207/1/3 1206/1/3 1205/1/3
f 1208/1/3 1206/1/3 1207/1/3
f 1211/1/3 1210/1/3 1209/1/3
f 1212/1/3 1210/1/3 1211/1/3
f 1215/2/3 1214/2/3 1213/2/3
f 1216/2/3 1214/2/3 1215/2/3
f 1217/2/3 1214/2/3 1216/2/3
f 1218/2/3 1214/2/3 1217/2/3
f 1221/2/3 1218/2/3 1217/2/3
f 1222/2/3 1218/2/3 1221/2/3
f 1223/2/3 1220/2/3 1219/2/3
f 1224/2/3 1220/2/3 1223/2/3
f 1226/2/3 1220/2/3 1224/2/3
f 1227/2/3 1220/2/3 1226/2/3
f 1228/2/3 1226/2/3 1225/2/3
f 1229/2/3 1226/2/3 1228/2/3
f 1232/1/3 1231/1/3 1230/1/3
f 1233/1/3 1231/1/3 1232/1/3
f 1236/1/3 1235/1/3 1234/1/3
f 1237/1/3 1235/1/3 1236/1/3
f 1240/2/3 1239/2/3 1238/2/3
f 1241/2/3 1239/2/3 1240/2/3
f 1246/2/3 1242/2/3 1241/2/3
f 1247/2/3 1244/2/3 1243/2/3
f 1248/2/3 1244/2/3 1247/2/3
f 1249/2/3 1246/2/3 1245/2/3
f 1250/2/3 1242/2/3 1246/2/3
f 1250/2/3 1246/2/3 1249/2/3
f 1252/2/3 1248/2/3 1247/2/3
f 1253/2/3 1252/2/3 1251/2/3
f 1254/2/3 1248/2/3 1252/2/3
f 1254/2/3 1252/2/3 1253/2/3
f 1257/2/3 1256/2/3 1255/2/3
f 1258/2/3 1256/2/3 1257/2/3
f 1261/2/3 1260/2/3 1259/2/3
f 1262/2/3 1260/2/3 1261/2/3
f 1266/2/3 1264/2/3 1263/2/3
f 1266/2/3 1265/2/3 1264/2/3
f 1267/2/3 1265/2/3 1266/2/3
f 1269/2/3 1266/2/3 1263/2/3
f 1270/2/3 1266/2/3 1269/2/3
f 1270/2/3 1269/2/3 1268/2/3
f 1271/2/3 1266/2/3 1270/2/3
f 1272/2/3 1270/2/3 1268/2/3
f 1274/2/3 1272/2/3 1268/2/3
f 1274/2/3 1273/2/3 1272/2/3
f 1275/2/3 1273/2/3 1274/2/3
f 1278/2/3 1277/2/3 1276/2/3
f 1279/2/3 1277/2/3 1278/2/3
f 1280/2/3 1278/2/3 1276/2/3
f 1282/2/3 1280/2/3 1276/2/3
f 1282/2/3 1281/2/3 1280/2/3
f 1283/2/3 1281/2/3 1282/2/3
f 1284/2/3 1281/2/3 1283/2/3
f 1286/2/3 1284/2/3 1283/2/3
f 1286/2/3 1285/2/3 1284/2/3
f 1287/2/3 1285/2/3 1286/2/3
f 1288/2/3 1285/2/3 1287/2/3
f 1292/2/3 1290/2/3 1289/2/3
f 1293/2/3 1290/2/3 1292/2/3
f 1293/2/3 1292/2/3 1291/2/3
f 1294/2/3 1290/2/3 1293/2/3
f 1296/2/3 1293/2/3 1291/2/3
f 1297/2/3 1293/2/3 1296/2/3
f 1297/2/3 1296/2/3 1295/2/3
f 1298/2/3 1293/2/3 1297/2/3
f 1299/2/3 1297/2/3 1295/2/3
f 1301/2/3 1299/2/3 1295/2/3
f 1301/2/3 1300/2/3 1299/2/3
f 1302/2/3 1300/2/3 1301/2/3
f 1305/2/3 1304/2/3 1303/2/3
f 1306/2/3 1304/2/3 1305/2/3
f 1307/2/3 1305/2/3 1303/2/3
f 1309/2/3 1307/2/3 1303/2/3
f 1309/2/3 1308/2/3 1307/2/3
f 1310/2/3 1308/2/3 1309/2/3
f 1311/2/3 1308/2/3 1310/2/3
f 1313/2/3 1311/2/3 1310/2/3
f 1313/2/3 1312/2/3 1311/2/3
f 1314/2/3 1312/2/3 1313/2/3
f 1315/2/3 1312/2/3 1314/2/3
f 1316/2/3 1312/2/3 1315/2/3
f 1319/2/3 1318/2/3 1317/2/3
f 1320/2/3 1318/2/3 1319/2/3
f 1323/2/3 1322/2/3 1321/2/3
f 1324/2/3 1322/2/3 1323/2/3
f 1327/2/3 1326/2/3 1325/2/3
f 1328/2/3 1326/2/3 1327/2/3
f 1329/2/3 1326/2/3 1328/2/3
f 1331/2/3 1329/2/3 1328/2/3
f 1331/2/3 1330/2/3 1329/2/3
f 1332/2/3 1330/2/3 1331/2/3
f 1333/2/3 1330/2/3 1332/2/3
f 1334/2/3 1330/2/3 1333/2/3
f 1338/1/3 1336/1/3 1335/1/3
f 1339/1/3 1336/1/3 1338/1/3
f 1340/1/3 1338/1/3 1337/1/3
f 1341/1/3 1338/1/3 1340/1/3
f 1344/1/3 1343/1/3 1342/1/3
f 1345/1/3 1343/1/3 1344/1/3
f 1347/1/3 1346/1/3 1345/1/3
f 1348/1/3 1346/1/3 1347/1/3
f 1352/2/3 1350/2/3 1349/2/3
f 1353/2/3 1352/2/3 1351/2/3
f 1354/2/3 1350/2/3 1352/2/3
f 1354/2/3 1352/2/3 1353/2/3
f 1356/2/3 1353/2/3 1351/2/3
f 1357/2/3 1356/2/3 1355/2/3
f 1358/2/3 1353/2/3 1356/2/3
f 1358/2/3 1356/2/3 1357/2/3
f 1362/1/3 1360/1/3 1359/1/3
f 1362/1/3 1361/1/3 1360/1/3
f 1363/1/3 1361/1/3 1362/1/3
f 1364/1/3 1361/1/3 1363/1/3
f 1368/1/3 1366/1/3 1365/1/3
f 1369/1/3 1366/1/3 1368/1/3
f 1370/1/3 1368/1/3 1367/1/3
f 1371/1/3 1368/1/3 1370/1/3
f 1373/1/3 1372/1/3 1371/1/3
f 1374/1/3 1372/1/3 1373/1/3
f 1378/1/3 1376/1/3 1375/1/3
f 1378/1/3 1377/1/3 1376/1/3
f 1379/1/3 1377/1/3 1378/1/3
f 1380/1/3 1377/1/3 1379/1/3
f 1383/2/3 1382/2/3 1381/2/3
f 1384/2/3 1382/2/3 1383/2/3
f 1385/2/3 1382/2/3 1384/2/3
f 1386/2/3 1382/2/3 1385/2/3
f 1387/2/3 1386/2/3 1385/2/3
f 1388/2/3 1386/2/3 1387/2/3
f 1392/1/3 1390/1/3 1389/1/3
f 1393/1/3 1390/1/3 1392/1/3
f 1395/1/3 1392/1/3 1391/1/3
f 1396/1/3 1392/1/3 1395/1/3
f 1397/1/3 1392/1/3 1396/1/3
f 1398/1/3 1395/1/3 1394/1/3
f 1398/1/3 1396/1/3 1395/1/3
f 1399/1/3 1396/1/3 1398/1/3
f 1400/1/3 1396/1/3 1399/1/3
f 1405/1/3 1402/1/3 1401/1/3
f 1406/1/3 1402/1/3 1405/1/3
f 1407/1/3 1404/1/3 1403/1/3
f 1408/1/3 1404/1/3 1407/1/3
f 1413/1/3 1410/1/3 1409/1/3
f 1414/1/3 1410/1/3 1413/1/3
f 1415/1/3 1412/1/3 1411/1/3
f 1416/1/3 1412/1/3 1415/1/3
f 1420/1/3 1418/1/3 1417/1/3
f 1420/1/3 1419/1/3 1418/1/3
f 1421/1/3 1419/1/3 1420/1/3
f 1422/1/3 1419/1/3 1421/1/3
f 1424/1/3 1422/1/3 1421/1/3
f 1424/1/3 1423/1/3 1422/1/3
f 1425/1/3 1423/1/3 1424/1/3
f 1429/1/3 1426/1/3 1425/1/3
f 1430/1/3 1426/1/3 1429/1/3
f 1431/2/3 1428/2/3 1427/2/3
f 1432/2/3 1428/2/3 1431/2/3
f 1434/2/3 1432/2/3 1431/2/3
f 1435/2/3 1434/2/3 1433/2/3
f 1436/2/3 1432/2/3 1434/2/3
f 1436/2/3 1434/2/3 1435/2/3
f 1439/1/3 1438/1/3 1437/1/3
f 1440/1/3 1438/1/3 1439/1/3
f 1443/1/3 1442/1/3 1441/1/3
f 1444/1/3 1442/1/3 1443/1/3
f 1447/1/3 1446/1/3 1445/1/3
f 1448/1/3 1446/1/3 1447/1/3
f 1454/1/3 1450/1/3 1449/1/3
f 1454/1/3 1451/1/3 1450/1/3
f 1455/1/3 1451/1/3 1454/1/3
f 1458/1/3 1453/1/3 1452/1/3
f 1459/1/3 1453/1/3 1458/1/3
f 1460/1/3 1457/1/3 1456/1/3
f 1461/1/3 1457/1/3 1460/1/3
f 1466/1/3 1465/1/3 1464/1/3
f 1467/1/3 1465/1/3 1466/1/3
f 1468/1/3 1465/1/3 1467/1/3
f 1469/1/3 1463/1/3 1462/1/3
f 1470/1/3 1463/1/3 1469/1/3
f 1475/1/3 1472/1/3 1471/1/3
f 1476/1/3 1472/1/3 1475/1/3
f 1477/1/3 1474/1/3 1473/1/3
f 1478/1/3 1474/1/3 1477/1/3
f 1479/1/3 1474/1/3 1478/1/3
f 1482/1/3 1481/1/3 1480/1/3
f 1485/1/3 1484/1/3 1483/1/3
f 1486/1/3 1484/1/3 1485/1/3
f 1487/1/3 1481/1/3 1482/1/3
f 1488/1/3 1481/1/3 1487/1/3
f 1494/1/3 1490/1/3 1489/1/3
f 1495/3/3 1491/3/3 1490/3/3
f 1495/1/3 1490/1/3 1494/1/3
f 1496/3/3 1495/3/3 1494/3/3
f 1497/1/3 1492/1/3 1491/1/3
f 1497/3/3 1495/3/3 1496/3/3
f 1497/3/3 1491/3/3 1495/3/3
f 1498/3/3 1493/3/3 1492/3/3
f 1498/1/3 1492/1/3 1497/1/3
f 1499/3/3 1493/3/3 1498/3/3
f 1500/1/3 1497/1/3 1496/1/3
f 1500/1/3 1498/1/3 1497/1/3
f 1500/1/3 1499/1/3 1498/1/3
f 1501/1/3 1499/1/3 1500/1/3
f 1502/3/3 1501/3/3 1500/3/3
f 1503/3/3 1501/3/3 1502/3/3
f 1504/1/3 1503/1/3 1502/1/3
f 1505/1/3 1503/1/3 1504/1/3
f 1506/3/3 1505/3/3 1504/3/3
f 1507/3/3 1505/3/3 1506/3/3
f 1508/1/3 1507/1/3 1506/1/3
f 1509/1/3 1507/1/3 1508/1/3
f 1510/3/3 1509/3/3 1508/3/3
f 1511/3/3 1509/3/3 1510/3/3
f 1512/1/3 1511/1/3 1510/1/3
f 1513/1/3 1511/1/3 1512/1/3
f 1514/1/3 1511/1/3 1513/1/3
f 1515/1/3 1511/1/3 1514/1/3
f 1516/3/3 1513/3/3 1512/3/3
f 1517/3/3 1513/3/3 1516/3/3
f 1518/1/3 1517/1/3 1516/1/3
f 1519/3/3 1513/3/3 1517/3/3
f 1519/1/3 1517/1/3 1518/1/3
f 1520/1/3 1514/1/3 1513/1/3
f 1520/3/3 1513/3/3 1519/3/3
f 1521/3/3 1515/3/3 1514/3/3
f 1521/1/3 1514/1/3 1520/1/3
f 1522/3/3 1515/3/3 1521/3/3
f 1525/4/3 1524/4/3 1523/4/3
f 1526/4/3 1524/4/3 1525/4/3
f 1529/4/3 1528/4/3 1527/4/3
f 1530/4/3 1528/4/3 1529/4/3
f 1531/4/4 1532/4/4 1533/4/4
f 1533/4/4 1532/4/4 1534/4/4
f 1535/4/4 1536/4/4 1537/4/4
f 1537/4/4 1536/4/4 1538/4/4
f 1539/1/4 1540/1/4 1544/1/4
f 1540/3/4 1541/3/4 1545/3/4
f 1544/1/4 1540/1/4 1545/1/4
f 1544/3/4 1545/3/4 1546/3/4
f 1541/1/4 1542/1/4 1547/1/4
f 1546/3/4 1545/3/4 1547/3/4
f 1545/3/4 1541/3/4 1547/3/4
f 1542/3/4 1543/3/4 1548/3/4
f 1547/1/4 1542/1/4 1548/1/4
f 1548/3/4 1543/3/4 1549/3/4
f 1546/1/4 1547/1/4 1550/1/4
f 1547/1/4 1548/1/4 1550/1/4
f 1548/1/4 1549/1/4 1550/1/4
f 1550/1/4 1549/1/4 1551/1/4
f 1550/3/4 1551/3/4 1552/3/4
f 1552/3/4 1551/3/4 1553/3/4
f 1552/1/4 1553/1/4 1554/1/4
f 1554/1/4 1553/1/4 1555/1/4
f 1554/3/4 1555/3/4 1556/3/4
f 1556/3/4 1555/3/4 1557/3/4
f 1556/1/4 1557/1/4 1558/1/4
f 1558/1/4 1557/1/4 1559/1/4
f 1558/3/4 1559/3/4 1560/3/4
f 1560/3/4 1559/3/4 1561/3/4
f 1560/1/4 1561/1/4 1562/1/4
f 1562/1/4 1561/1/4 1563/1/4
f 1563/1/4 1561/1/4 1564/1/4
f 1564/1/4 1561/1/4 1565/1/4
f 1562/3/4 1563/3/4 1566/3/4
f 1566/3/4 1563/3/4 1567/3/4
f 1566/1/4 1567/1/4 1568/1/4
f 1567/3/4 1563/3/4 1569/3/4
f 1568/1/4 1567/1/4 1569/1/4
f 1563/1/4 1564/1/4 1570/1/4
f 1569/3/4 1563/3/4 1570/3/4
f 1564/3/4 1565/3/4 1571/3/4
f 1570/1/4 1564/1/4 1571/1/4
f 1571/3/4 1565/3/4 1572/3/4
f 1573/1/4 1574/1/4 1577/1/4
f 1577/1/4 1574/1/4 1578/1/4
f 1575/1/4 1576/1/4 1579/1/4
f 1579/1/4 1576/1/4 1580/1/4
f 1580/1/4 1576/1/4 1581/1/4
f 1582/1/4 1583/1/4 1584/1/4
f 1585/1/4 1586/1/4 1587/1/4
f 1587/1/4 1586/1/4 1588/1/4
f 1584/1/4 1583/1/4 1589/1/4
f 1589/1/4 1583/1/4 1590/1/4
f 1591/1/4 1592/1/4 1596/1/4
f 1592/1/4 1593/1/4 1596/1/4
f 1596/1/4 1593/1/4 1597/1/4
f 1594/1/4 1595/1/4 1600/1/4
f 1600/1/4 1595/1/4 1601/1/4
f 1598/1/4 1599/1/4 1602/1/4
f 1602/1/4 1599/1/4 1603/1/4
f 1606/1/4 1607/1/4 1608/1/4
f 1608/1/4 1607/1/4 1609/1/4
f 1609/1/4 1607/1/4 1610/1/4
f 1604/1/4 1605/1/4 1611/1/4
f 1611/1/4 1605/1/4 1612/1/4
f 1613/1/4 1614/1/4 1615/1/4
f 1615/1/4 1614/1/4 1616/1/4
f 1617/1/4 1618/1/4 1619/1/4
f 1619/1/4 1618/1/4 1620/1/4
f 1621/1/4 1622/1/4 1623/1/4
f 1623/1/4 1622/1/4 1624/1/4
f 1625/2/4 1626/2/4 1627/2/4
f 1627/2/4 1626/2/4 1628/2/4
f 1628/2/4 1626/2/4 1629/2/4
f 1629/2/4 1626/2/4 1630/2/4
f 1629/2/4 1630/2/4 1631/2/4
f 1631/2/4 1630/2/4 1632/2/4
f 1633/1/4 1634/1/4 1636/1/4
f 1636/1/4 1634/1/4 1637/1/4
f 1635/1/4 1636/1/4 1639/1/4
f 1639/1/4 1636/1/4 1640/1/4
f 1640/1/4 1636/1/4 1641/1/4
f 1638/1/4 1639/1/4 1642/1/4
f 1639/1/4 1640/1/4 1642/1/4
f 1642/1/4 1640/1/4 1643/1/4
f 1643/1/4 1640/1/4 1644/1/4
f 1645/1/4 1646/1/4 1649/1/4
f 1649/1/4 1646/1/4 1650/1/4
f 1647/1/4 1648/1/4 1651/1/4
f 1651/1/4 1648/1/4 1652/1/4
f 1653/1/4 1654/1/4 1657/1/4
f 1657/1/4 1654/1/4 1658/1/4
f 1655/1/4 1656/1/4 1659/1/4
f 1659/1/4 1656/1/4 1660/1/4
f 1661/1/4 1662/1/4 1664/1/4
f 1662/1/4 1663/1/4 1664/1/4
f 1664/1/4 1663/1/4 1665/1/4
f 1665/1/4 1663/1/4 1666/1/4
f 1665/1/4 1666/1/4 1668/1/4
f 1666/1/4 1667/1/4 1668/1/4
f 1668/1/4 1667/1/4 1669/1/4
f 1669/1/4 1670/1/4 1673/1/4
f 1673/1/4 1670/1/4 1674/1/4
f 1671/2/4 1672/2/4 1675/2/4
f 1675/2/4 1672/2/4 1676/2/4
f 1675/2/4 1676/2/4 1678/2/4
f 1677/2/4 1678/2/4 1679/2/4
f 1678/2/4 1676/2/4 1680/2/4
f 1679/2/4 1678/2/4 1680/2/4
f 1681/1/4 1682/1/4 1684/1/4
f 1682/1/4 1683/1/4 1684/1/4
f 1684/1/4 1683/1/4 1685/1/4
f 1685/1/4 1683/1/4 1686/1/4
f 1687/1/4 1688/1/4 1690/1/4
f 1690/1/4 1688/1/4 1691/1/4
f 1689/1/4 1690/1/4 1692/1/4
f 1692/1/4 1690/1/4 1693/1/4
f 1693/1/4 1694/1/4 1695/1/4
f 1695/1/4 1694/1/4 1696/1/4
f 1697/1/4 1698/1/4 1700/1/4
f 1698/1/4 1699/1/4 1700/1/4
f 1700/1/4 1699/1/4 1701/1/4
f 1701/1/4 1699/1/4 1702/1/4
f 1703/2/4 1704/2/4 1705/2/4
f 1705/2/4 1704/2/4 1706/2/4
f 1706/2/4 1704/2/4 1707/2/4
f 1706/2/4 1707/2/4 1709/2/4
f 1707/2/4 1708/2/4 1709/2/4
f 1709/2/4 1708/2/4 1710/2/4
f 1710/2/4 1708/2/4 1711/2/4
f 1711/2/4 1708/2/4 1712/2/4
f 1713/1/4 1714/1/4 1716/1/4
f 1716/1/4 1714/1/4 1717/1/4
f 1715/1/4 1716/1/4 1718/1/4
f 1718/1/4 1716/1/4 1719/1/4
f 1720/1/4 1721/1/4 1722/1/4
f 1722/1/4 1721/1/4 1723/1/4
f 1723/1/4 1724/1/4 1725/1/4
f 1725/1/4 1724/1/4 1726/1/4
f 1727/2/4 1728/2/4 1730/2/4
f 1729/2/4 1730/2/4 1731/2/4
f 1730/2/4 1728/2/4 1732/2/4
f 1731/2/4 1730/2/4 1732/2/4
f 1729/2/4 1731/2/4 1734/2/4
f 1733/2/4 1734/2/4 1735/2/4
f 1734/2/4 1731/2/4 1736/2/4
f 1735/2/4 1734/2/4 1736/2/4
f 1737/2/4 1738/2/4 1739/2/4
f 1739/2/4 1738/2/4 1740/2/4
f 1741/2/4 1742/2/4 1743/2/4
f 1743/2/4 1742/2/4 1744/2/4
f 1745/2/4 1746/2/4 1748/2/4
f 1748/2/4 1746/2/4 1749/2/4
f 1747/2/4 1748/2/4 1749/2/4
f 1749/2/4 1746/2/4 1750/2/4
f 1747/2/4 1749/2/4 1752/2/4
f 1752/2/4 1749/2/4 1753/2/4
f 1751/2/4 1752/2/4 1753/2/4
f 1753/2/4 1749/2/4 1754/2/4
f 1751/2/4 1753/2/4 1755/2/4
f 1751/2/4 1755/2/4 1757/2/4
f 1755/2/4 1756/2/4 1757/2/4
f 1757/2/4 1756/2/4 1758/2/4
f 1759/2/4 1760/2/4 1761/2/4
f 1761/2/4 1760/2/4 1762/2/4
f 1759/2/4 1761/2/4 1763/2/4
f 1759/2/4 1763/2/4 1765/2/4
f 1763/2/4 1764/2/4 1765/2/4
f 1765/2/4 1764/2/4 1766/2/4
f 1766/2/4 1764/2/4 1767/2/4
f 1766/2/4 1767/2/4 1769/2/4
f 1767/2/4 1768/2/4 1769/2/4
f 1769/2/4 1768/2/4 1770/2/4
f 1770/2/4 1768/2/4 1771/2/4
f 1771/2/4 1768/2/4 1772/2/4
f 1773/2/4 1774/2/4 1776/2/4
f 1774/2/4 1775/2/4 1776/2/4
f 1776/2/4 1775/2/4 1777/2/4
f 1773/2/4 1776/2/4 1779/2/4
f 1779/2/4 1776/2/4 1780/2/4
f 1778/2/4 1779/2/4 1780/2/4
f 1780/2/4 1776/2/4 1781/2/4
f 1778/2/4 1780/2/4 1782/2/4
f 1778/2/4 1782/2/4 1784/2/4
f 1782/2/4 1783/2/4 1784/2/4
f 1784/2/4 1783/2/4 1785/2/4
f 1786/2/4 1787/2/4 1788/2/4
f 1788/2/4 1787/2/4 1789/2/4
f 1786/2/4 1788/2/4 1790/2/4
f 1786/2/4 1790/2/4 1792/2/4
f 1790/2/4 1791/2/4 1792/2/4
f 1792/2/4 1791/2/4 1793/2/4
f 1793/2/4 1791/2/4 1794/2/4
f 1793/2/4 1794/2/4 1796/2/4
f 1794/2/4 1795/2/4 1796/2/4
f 1796/2/4 1795/2/4 1797/2/4
f 1797/2/4 1795/2/4 1798/2/4
f 1799/2/4 1800/2/4 1801/2/4
f 1801/2/4 1800/2/4 1802/2/4
f 1803/2/4 1804/2/4 1805/2/4
f 1805/2/4 1804/2/4 1806/2/4
f 1807/2/4 1808/2/4 1809/2/4
f 1809/2/4 1808/2/4 1810/2/4
f 1810/2/4 1808/2/4 1811/2/4
f 1811/2/4 1808/2/4 1812/2/4
f 1811/2/4 1812/2/4 1815/2/4
f 1815/2/4 1812/2/4 1816/2/4
f 1813/2/4 1814/2/4 1817/2/4
f 1817/2/4 1814/2/4 1818/2/4
f 1818/2/4 1814/2/4 1820/2/4
f 1820/2/4 1814/2/4 1821/2/4
f 1819/2/4 1820/2/4 1822/2/4
f 1822/2/4 1820/2/4 1823/2/4
f 1824/1/4 1825/1/4 1826/1/4
f 1826/1/4 1825/1/4 1827/1/4
f 1828/1/4 1829/1/4 1830/1/4
f 1830/1/4 1829/1/4 1831/1/4
f 1832/2/4 1833/2/4 1834/2/4
f 1834/2/4 1833/2/4 1835/2/4
f 1835/2/4 1836/2/4 1840/2/4
f 1837/2/4 1838/2/4 1841/2/4
f 1841/2/4 1838/2/4 1842/2/4
f 1839/2/4 1840/2/4 1843/2/4
f 1840/2/4 1836/2/4 1844/2/4
f 1843/2/4 1840/2/4 1844/2/4
f 1841/2/4 1842/2/4 1846/2/4
f 1845/2/4 1846/2/4 1847/2/4
f 1846/2/4 1842/2/4 1848/2/4
f 1847/2/4 1846/2/4 1848/2/4
f 1849/1/4 1850/1/4 1851/1/4
f 1851/1/4 1850/1/4 1852/1/4
f 1853/1/4 1854/1/4 1855/1/4
f 1855/1/4 1854/1/4 1856/1/4
f 1857/2/4 1858/2/4 1861/2/4
f 1861/2/4 1858/2/4 1862/2/4
f 1859/2/4 1860/2/4 1863/2/4
f 1863/2/4 1860/2/4 1864/2/4
f 1864/2/4 1860/2/4 1865/2/4
f 1864/2/4 1865/2/4 1867/2/4
f 1865/2/4 1866/2/4 1867/2/4
f 1867/2/4 1866/2/4 1868/2/4
f 1869/1/4 1870/1/4 1873/1/4
f 1873/1/4 1870/1/4 1874/1/4
f 1871/1/4 1872/1/4 1875/1/4
f 1872/1/4 1873/1/4 1875/1/4
f 1875/1/4 1873/1/4 1876/1/4
f 1877/1/4 1878/1/4 1879/1/4
f 1879/1/4 1878/1/4 1880/1/4
f 1881/1/4 1882/1/4 1883/1/4
f 1883/1/4 1882/1/4 1884/1/4
f 1885/1/4 1886/1/4 1887/1/4
f 1887/1/4 1886/1/4 1888/1/4
f 1888/1/4 1886/1/4 1889/1/4
f 1889/1/4 1890/1/4 1891/1/4
f 1891/1/4 1890/1/4 1892/1/4
f 1893/2/4 1894/2/4 1895/2/4
f 1895/2/4 1894/2/4 1896/2/4
f 1893/2/4 1895/2/4 1900/2/4
f 1897/2/4 1898/2/4 1901/2/4
f 1901/2/4 1898/2/4 1902/2/4
f 1899/2/4 1900/2/4 1903/2/4
f 1900/2/4 1895/2/4 1904/2/4
f 1903/2/4 1900/2/4 1904/2/4
f 1905/1/4 1906/1/4 1907/1/4
f 1907/1/4 1906/1/4 1908/1/4
f 1909/1/4 1910/1/4 1911/1/4
f 1911/1/4 1910/1/4 1912/1/4
f 1913/1/4 1914/1/4 1916/1/4
f 1915/1/4 1916/1/4 1917/1/4
f 1916/1/4 1914/1/4 1918/1/4
f 1917/1/4 1916/1/4 1918/1/4
f 1919/1/4 1920/1/4 1921/1/4
f 1921/1/4 1920/1/4 1922/1/4
f 1922/1/4 1920/1/4 1923/1/4
f 1923/1/4 1920/1/4 1924/1/4
f 1925/1/4 1926/1/4 1929/1/4
f 1929/1/4 1926/1/4 1930/1/4
f 1927/1/4 1928/1/4 1931/1/4
f 1931/1/4 1928/1/4 1932/1/4
f 1930/1/4 1926/1/4 1934/1/4
f 1933/1/4 1934/1/4 1935/1/4
f 1934/1/4 1926/1/4 1936/1/4
f 1935/1/4 1934/1/4 1936/1/4
f 1936/1/4 1926/1/4 1938/1/4
f 1937/1/4 1938/1/4 1939/1/4
f 1938/1/4 1926/1/4 1940/1/4
f 1939/1/4 1938/1/4 1940/1/4
f 1940/1/4 1926/1/4 1942/1/4
f 1941/1/4 1942/1/4 1943/1/4
f 1942/1/4 1926/1/4 1944/1/4
f 1943/1/4 1942/1/4 1944/1/4
f 1944/1/4 1926/1/4 1946/1/4
f 1945/1/4 1946/1/4 1949/1/4
f 1946/1/4 1926/1/4 1950/1/4
f 1949/1/4 1946/1/4 1950/1/4
f 1947/1/4 1948/1/4 1951/1/4
f 1951/1/4 1948/1/4 1952/1/4
f 1955/3/4 1956/3/4 1958/3/4
f 1957/3/4 1958/3/4 1959/3/4
f 1958/3/4 1956/3/4 1960/3/4
f 1959/3/4 1958/3/4 1960/3/4
f 1953/3/4 1954/3/4 1961/3/4
f 1961/3/4 1954/3/4 1962/3/4
f 1963/3/4 1964/3/4 1965/3/4
f 1965/3/4 1964/3/4 1966/3/4
f 1967/3/4 1968/3/4 1969/3/4
f 1969/3/4 1968/3/4 1970/3/4
f 1971/3/4 1972/3/4 1973/3/4
f 1973/3/4 1972/3/4 1974/3/4
f 1975/3/4 1976/3/4 1979/3/4
f 1979/3/4 1976/3/4 1980/3/4
f 1980/3/4 1976/3/4 1981/3/4
f 1981/3/4 1976/3/4 1982/3/4
f 1977/3/4 1978/3/4 1983/3/4
f 1983/3/4 1978/3/4 1984/3/4
f 1985/2/4 1986/2/4 1988/2/4
f 1987/2/4 1988/2/4 1989/2/4
f 1988/2/4 1986/2/4 1990/2/4
f 1989/2/4 1988/2/4 1990/2/4
f 1990/2/4 1986/2/4 1992/2/4
f 1992/2/4 1986/2/4 1993/2/4
f 1991/2/4 1992/2/4 1995/2/4
f 1993/2/4 1994/2/4 1995/2/4
f 1992/2/4 1993/2/4 1995/2/4
f 1995/2/4 1994/2/4 1996/2/4
f 1997/2/4 1998/2/4 1999/2/4
f 1999/2/4 1998/2/4 2000/2/4
f 2001/2/4 2002/2/4 2003/2/4
f 2003/2/4 2002/2/4 2004/2/4
f 2005/2/4 2006/2/4 2007/2/4
f 2007/2/4 2006/2/4 2008/2/4
f 2008/2/4 2006/2/4 2009/2/4
f 2009/2/4 2006/2/4 2010/2/4
f 2008/2/4 2009/2/4 2012/2/4
f 2011/2/4 2012/2/4 2013/2/4
f 2012/2/4 2009/2/4 2014/2/4
f 2013/2/4 2012/2/4 2014/2/4
f 2014/2/4 2009/2/4 2015/2/4
f 2015/2/4 2009/2/4 2016/2/4
f 2017/2/4 2018/2/4 2019/2/4
f 2019/2/4 2018/2/4 2020/2/4
f 2021/2/4 2022/2/4 2023/2/4
f 2023/2/4 2022/2/4 2024/2/4
f 2025/3/4 2026/3/4 2027/3/4
f 2027/3/4 2026/3/4 2028/3/4
f 2029/4/4 2030/4/4 2031/4/4
f 2031/4/4 2030/4/4 2032/4/4
f 2033/4/4 2034/4/4 2035/4/4
f 2035/4/4 2034/4/4 2036/4/4
f 2037/4/4 2038/4/4 2039/4/4
f 2039/4/4 2038/4/4 2040/4/4
f 2043/4/5 2042/4/5 2041/4/5
f 2044/4/5 2042/4/5 2043/4/5
f 2045/4/5 2042/4/5 2044/4/5
f 2046/4/5 2042/4/5 2045/4/5
f 2047/4/5 2043/4/5 2041/4/5
f 2048/4/5 2045/4/5 2044/4/5
f 2049/4/5 2045/4/5 2048/4/5
f 2050/4/5 2042/4/5 2046/4/5
f 2051/4/5 2049/4/5 2048/4/5
f 2051/4/5 2050/4/5 2049/4/5
f 2051/4/5 2048/4/5 2047/4/5
f 2052/4/5 2050/4/5 2051/4/5
f 2053/4/5 2051/4/5 2047/4/5
f 2053/1/5 2052/1/5 2051/1/5
f 2054/4/5 2050/4/5 2052/4/5
f 2054/1/5 2052/1/5 2053/1/5
f 2055/4/5 2047/4/5 2041/4/5
f 2055/4/5 2053/4/5 2047/4/5
f 2055/4/5 2054/4/5 2053/4/5
f 2056/4/5 2054/4/5 2055/4/5
f 2057/4/5 2050/4/5 2054/4/5
f 2057/4/5 2054/4/5 2056/4/5
f 2058/4/5 2042/4/5 2050/4/5
f 2058/4/5 2050/4/5 2057/4/5
f 2059/4/5 2055/4/5 2041/4/5
f 2060/4/5 2057/4/5 2056/4/5
f 2061/4/5 2057/4/5 2060/4/5
f 2062/4/5 2042/4/5 2058/4/5
f 2063/4/5 2059/4/5 2041/4/5
f 2063/4/5 2062/4/5 2061/4/5
f 2063/4/5 2061/4/5 2060/4/5
f 2063/4/5 2060/4/5 2059/4/5
f 2064/4/5 2042/4/5 2062/4/5
f 2064/4/5 2062/4/5 2063/4/5
f 2073/2/5 2066/2/5 2065/2/5
f 2074/2/5 2068/2/5 2067/2/5
f 2075/2/5 2068/2/5 2074/2/5
f 2076/2/5 2070/2/5 2069/2/5
f 2077/2/5 2070/2/5 2076/2/5
f 2078/2/5 2072/2/5 2071/2/5
f 2079/2/5 2073/2/5 2065/2/5
f 2080/2/5 2073/2/5 2079/2/5
f 2081/2/5 2072/2/5 2078/2/5
f 2082/2/5 2072/2/5 2081/2/5
f 2087/2/5 2084/2/5 2083/2/5
f 2092/2/5 2086/2/5 2085/2/5
f 2093/2/5 2087/2/5 2083/2/5
f 2094/2/5 2087/2/5 2093/2/5
f 2095/2/5 2089/2/5 2088/2/5
f 2096/2/5 2089/2/5 2095/2/5
f 2097/2/5 2091/2/5 2090/2/5
f 2098/2/5 2091/2/5 2097/2/5
f 2099/2/5 2086/2/5 2092/2/5
f 2100/2/5 2086/2/5 2099/2/5
f 2111/3/5 2102/3/5 2101/3/5
f 2112/1/5 2103/1/5 2102/1/5
f 2112/3/5 2102/3/5 2111/3/5
f 2113/3/5 2104/3/5 2103/3/5
f 2113/1/5 2103/1/5 2112/1/5
f 2114/1/5 2105/1/5 2104/1/5
f 2114/3/5 2104/3/5 2113/3/5
f 2115/3/5 2106/3/5 2105/3/5
f 2115/1/5 2105/1/5 2114/1/5
f 2116/1/5 2107/1/5 2106/1/5
f 2116/3/5 2106/3/5 2115/3/5
f 2117/3/5 2108/3/5 2107/3/5
f 2117/1/5 2107/1/5 2116/1/5
f 2118/1/5 2109/1/5 2108/1/5
f 2118/3/5 2108/3/5 2117/3/5
f 2119/3/5 2110/3/5 2109/3/5
f 2119/1/5 2109/1/5 2118/1/5
f 2120/3/5 2110/3/5 2119/3/5
f 2121/3/5 2111/3/5 2101/3/5
f 2122/1/5 2118/1/5 2117/1/5
f 2122/3/5 2111/3/5 2121/3/5
f 2122/1/5 2112/1/5 2111/1/5
f 2122/1/5 2120/1/5 2119/1/5
f 2122/1/5 2119/1/5 2118/1/5
f 2122/1/5 2117/1/5 2116/1/5
f 2122/1/5 2116/1/5 2115/1/5
f 2122/1/5 2115/1/5 2114/1/5
f 2122/1/5 2114/1/5 2113/1/5
f 2122/1/5 2113/1/5 2112/1/5
f 2123/3/5 2110/3/5 2120/3/5
f 2123/1/5 2120/1/5 2122/1/5
f 2124/3/5 2110/3/5 2123/3/5
f 2125/1/5 2122/1/5 2121/1/5
f 2125/1/5 2123/1/5 2122/1/5
f 2125/1/5 2124/1/5 2123/1/5
f 2126/1/5 2124/1/5 2125/1/5
f 2127/1/5 2126/1/5 2125/1/5
f 2128/1/5 2126/1/5 2127/1/5
f 2129/1/5 2128/1/5 2127/1/5
f 2130/1/5 2128/1/5 2129/1/5
f 2131/1/5 2128/1/5 2130/1/5
f 2132/1/5 2128/1/5 2131/1/5
f 2133/3/5 2130/3/5 2129/3/5
f 2134/1/5 2131/1/5 2130/1/5
f 2134/3/5 2130/3/5 2133/3/5
f 2135/3/5 2132/3/5 2131/3/5
f 2135/1/5 2131/1/5 2134/1/5
f 2136/3/5 2132/3/5 2135/3/5
f 2137/1/5 2134/1/5 2133/1/5
f 2137/1/5 2135/1/5 2134/1/5
f 2137/1/5 2136/1/5 2135/1/5
f 2138/1/5 2136/1/5 2137/1/5
f 2139/1/5 2138/1/5 2137/1/5
f 2140/1/5 2138/1/5 2139/1/5
f 2141/1/5 2140/1/5 2139/1/5
f 2142/1/5 2140/1/5 2141/1/5
f 2143/1/5 2140/1/5 2142/1/5
f 2144/1/5 2140/1/5 2143/1/5
f 2145/3/5 2142/3/5 2141/3/5
f 2145/1/5 2143/1/5 2142/1/5
f 2146/1/5 2143/1/5 2145/1/5
f 2147/1/5 2143/1/5 2146/1/5
f 2148/1/5 2143/1/5 2147/1/5
f 2149/1/5 2143/1/5 2148/1/5
f 2150/1/5 2143/1/5 2149/1/5
f 2151/1/5 2143/1/5 2150/1/5
f 2152/1/5 2143/1/5 2151/1/5
f 2153/1/5 2143/1/5 2152/1/5
f 2154/3/5 2144/3/5 2143/3/5
f 2154/1/5 2143/1/5 2153/1/5
f 2155/3/5 2145/3/5 2141/3/5
f 2155/3/5 2146/3/5 2145/3/5
f 2156/1/5 2147/1/5 2146/1/5
f 2156/3/5 2146/3/5 2155/3/5
f 2157/3/5 2148/3/5 2147/3/5
f 2157/1/5 2147/1/5 2156/1/5
f 2158/1/5 2149/1/5 2148/1/5
f 2158/3/5 2148/3/5 2157/3/5
f 2159/3/5 2150/3/5 2149/3/5
f 2159/1/5 2149/1/5 2158/1/5
f 2160/1/5 2151/1/5 2150/1/5
f 2160/3/5 2150/3/5 2159/3/5
f 2161/3/5 2152/3/5 2151/3/5
f 2161/1/5 2151/1/5 2160/1/5
f 2162/1/5 2153/1/5 2152/1/5
f 2162/3/5 2152/3/5 2161/3/5
f 2163/3/5 2154/3/5 2153/3/5
f 2163/1/5 2153/1/5 2162/1/5
f 2164/3/5 2144/3/5 2154/3/5
f 2164/3/5 2154/3/5 2163/3/5
f 2173/2/5 2166/2/5 2165/2/5
f 2174/2/5 2166/2/5 2173/2/5
f 2175/1/5 2168/1/5 2167/1/5
f 2176/1/5 2168/1/5 2175/1/5
f 2177/1/5 2170/1/5 2169/1/5
f 2178/1/5 2170/1/5 2177/1/5
f 2179/2/5 2172/2/5 2171/2/5
f 2180/2/5 2172/2/5 2179/2/5
f 2189/2/5 2182/2/5 2181/2/5
f 2190/2/5 2182/2/5 2189/2/5
f 2191/1/5 2184/1/5 2183/1/5
f 2192/1/5 2184/1/5 2191/1/5
f 2193/1/5 2186/1/5 2185/1/5
f 2194/1/5 2186/1/5 2193/1/5
f 2195/2/5 2188/2/5 2187/2/5
f 2196/2/5 2188/2/5 2195/2/5
f 2202/1/5 2198/1/5 2197/1/5
f 2203/1/5 2198/1/5 2202/1/5
f 2204/1/5 2200/1/5 2199/1/5
f 2205/1/5 2200/1/5 2204/1/5
f 2207/1/5 2202/1/5 2201/1/5
f 2208/1/5 2202/1/5 2207/1/5
f 2209/1/5 2206/1/5 2205/1/5
f 2210/1/5 2206/1/5 2209/1/5
f 2215/1/5 2212/1/5 2211/1/5
f 2216/1/5 2212/1/5 2215/1/5
f 2219/1/5 2214/1/5 2213/1/5
f 2220/1/5 2214/1/5 2219/1/5
f 2221/1/5 2217/1/5 2216/1/5
f 2222/1/5 2217/1/5 2221/1/5
f 2223/1/5 2219/1/5 2218/1/5
f 2224/1/5 2219/1/5 2223/1/5
f 2229/1/5 2226/1/5 2225/1/5
f 2230/1/5 2226/1/5 2229/1/5
f 2231/1/5 2228/1/5 2227/1/5
f 2232/1/5 2228/1/5 2231/1/5
f 2233/1/5 2229/1/5 2225/1/5
f 2234/1/5 2229/1/5 2233/1/5
f 2235/1/5 2228/1/5 2232/1/5
f 2236/1/5 2228/1/5 2235/1/5
f 2241/1/5 2238/1/5 2237/1/5
f 2244/1/5 2240/1/5 2239/1/5
f 2245/1/5 2242/1/5 2241/1/5
f 2245/1/5 2241/1/5 2237/1/5
f 2246/1/5 2242/1/5 2245/1/5
f 2247/1/5 2244/1/5 2243/1/5
f 2248/1/5 2240/1/5 2244/1/5
f 2248/1/5 2244/1/5 2247/1/5
f 2253/1/5 2250/1/5 2249/1/5
f 2254/1/5 2250/1/5 2253/1/5
f 2255/1/5 2250/1/5 2254/1/5
f 2256/1/5 2252/1/5 2251/1/5
f 2257/1/5 2252/1/5 2256/1/5
f 2258/1/5 2252/1/5 2257/1/5
f 2259/1/5 2253/1/5 2249/1/5
f 2260/1/5 2253/1/5 2259/1/5
f 2261/1/5 2252/1/5 2258/1/5
f 2262/1/5 2252/1/5 2261/1/5
f 2267/1/5 2264/1/5 2263/1/5
f 2272/1/5 2266/1/5 2265/1/5
f 2273/1/5 2267/1/5 2263/1/5
f 2273/1/5 2268/1/5 2267/1/5
f 2273/1/5 2269/1/5 2268/1/5
f 2274/1/5 2269/1/5 2273/1/5
f 2275/1/5 2271/1/5 2270/1/5
f 2275/1/5 2272/1/5 2271/1/5
f 2276/1/5 2266/1/5 2272/1/5
f 2276/1/5 2272/1/5 2275/1/5
f 2277/4/6 2278/4/6 2279/4/6
f 2279/4/6 2278/4/6 2280/4/6
f 2280/4/6 2278/4/6 2281/4/6
f 2281/4/6 2278/4/6 2282/4/6
f 2277/4/6 2279/4/6 2283/4/6
f 2280/4/6 2281/4/6 2284/4/6
f 2284/4/6 2281/4/6 2285/4/6
f 2282/4/6 2278/4/6 2286/4/6
f 2284/4/6 2285/4/6 2287/4/6
f 2285/4/6 2286/4/6 2287/4/6
f 2283/4/6 2284/4/6 2287/4/6
f 2287/4/6 2286/4/6 2288/4/6
f 2283/4/6 2287/4/6 2289/4/6
f 2288/4/6 2286/4/6 2290/4/6
f 2277/4/6 2283/4/6 2291/4/6
f 2289/4/6 2290/4/6 2291/4/6
f 2283/4/6 2289/4/6 2291/4/6
f 2291/4/6 2290/4/6 2292/4/6
f 2290/4/6 2286/4/6 2293/4/6
f 2292/4/6 2290/4/6 2293/4/6
f 2286/4/6 2278/4/6 2294/4/6
f 2293/4/6 2286/4/6 2294/4/6
f 2277/4/6 2291/4/6 2295/4/6
f 2292/4/6 2293/4/6 2296/4/6
f 2296/4/6 2293/4/6 2297/4/6
f 2294/4/6 2278/4/6 2298/4/6
f 2277/4/6 2295/4/6 2299/4/6
f 2297/4/6 2298/4/6 2299/4/6
f 2296/4/6 2297/4/6 2299/4/6
f 2295/4/6 2296/4/6 2299/4/6
f 2298/4/6 2278/4/6 2300/4/6
f 2299/4/6 2298/4/6 2300/4/6
f 2301/3/6 2302/3/6 2303/3/6
f 2303/3/6 2302/3/6 2304/3/6
f 2304/3/6 2302/3/6 2305/3/6
f 2305/3/6 2302/3/6 2306/3/6
f 2304/3/6 2305/3/6 2307/3/6
f 2307/3/6 2305/3/6 2308/3/6
f 2308/3/6 2305/3/6 2309/3/6
f 2309/3/6 2305/3/6 2310/3/6
f 2310/3/6 2305/3/6 2311/3/6
f 2311/3/6 2305/3/6 2312/3/6
f 2312/3/6 2305/3/6 2313/3/6
f 2313/3/6 2305/3/6 2314/3/6
f 2304/3/6 2307/3/6 2315/3/6
f 2315/3/6 2307/3/6 2316/3/6
f 2308/3/6 2309/3/6 2317/3/6
f 2317/3/6 2309/3/6 2318/3/6
f 2310/3/6 2311/3/6 2319/3/6
f 2319/3/6 2311/3/6 2320/3/6
f 2312/3/6 2313/3/6 2321/3/6
f 2321/3/6 2313/3/6 2322/3/6
f 2314/3/6 2305/3/6 2323/3/6
f 2323/3/6 2305/3/6 2324/3/6
f 2301/3/6 2303/3/6 2337/3/6
f 2335/1/6 2336/1/6 2339/1/6
f 2334/1/6 2335/1/6 2339/1/6
f 2325/1/6 2326/1/6 2339/1/6
f 2333/1/6 2334/1/6 2339/1/6
f 2332/1/6 2333/1/6 2339/1/6
f 2331/1/6 2332/1/6 2339/1/6
f 2330/1/6 2331/1/6 2339/1/6
f 2329/1/6 2330/1/6 2339/1/6
f 2328/1/6 2329/1/6 2339/1/6
f 2327/1/6 2328/1/6 2339/1/6
f 2326/1/6 2327/1/6 2339/1/6
f 2339/1/6 2336/1/6 2340/1/6
f 2306/3/6 2302/3/6 2342/3/6
f 2337/3/6 2338/3/6 2343/3/6
f 2301/3/6 2337/3/6 2343/3/6
f 2343/3/6 2338/3/6 2344/3/6
f 2339/1/6 2340/1/6 2345/1/6
f 2345/1/6 2340/1/6 2346/1/6
f 2341/3/6 2342/3/6 2347/3/6
f 2342/3/6 2302/3/6 2348/3/6
f 2347/3/6 2342/3/6 2348/3/6
f 2301/3/6 2343/3/6 2349/3/6
f 2345/1/6 2346/1/6 2351/1/6
f 2351/1/6 2346/1/6 2352/1/6
f 2348/3/6 2302/3/6 2354/3/6
f 2349/3/6 2350/3/6 2355/3/6
f 2301/3/6 2349/3/6 2355/3/6
f 2355/3/6 2350/3/6 2356/3/6
f 2351/1/6 2352/1/6 2357/1/6
f 2357/1/6 2352/1/6 2358/1/6
f 2353/3/6 2354/3/6 2359/3/6
f 2354/3/6 2302/3/6 2360/3/6
f 2359/3/6 2354/3/6 2360/3/6
f 2301/3/6 2355/3/6 2361/3/6
f 2357/1/6 2358/1/6 2363/1/6
f 2363/1/6 2358/1/6 2364/1/6
f 2360/3/6 2302/3/6 2366/3/6
f 2361/3/6 2362/3/6 2367/3/6
f 2301/3/6 2361/3/6 2367/3/6
f 2367/3/6 2362/3/6 2368/3/6
f 2363/1/6 2364/1/6 2369/1/6
f 2369/1/6 2364/1/6 2370/1/6
f 2365/3/6 2366/3/6 2371/3/6
f 2366/3/6 2302/3/6 2372/3/6
f 2371/3/6 2366/3/6 2372/3/6
f 2369/1/6 2370/1/6 2373/1/6
f 2373/1/6 2370/1/6 2374/1/6
f 2374/1/6 2370/1/6 2375/1/6
f 2375/1/6 2370/1/6 2376/1/6
f 2376/1/6 2370/1/6 2377/1/6
f 2377/1/6 2370/1/6 2378/1/6
f 2378/1/6 2370/1/6 2379/1/6
f 2379/1/6 2370/1/6 2380/1/6
f 2380/1/6 2370/1/6 2381/1/6
f 2381/1/6 2370/1/6 2382/1/6
f 2382/1/6 2370/1/6 2383/1/6
f 2383/1/6 2370/1/6 2384/1/6
f 2385/3/6 2386/3/6 2395/3/6
f 2387/3/6 2388/3/6 2396/3/6
f 2396/3/6 2388/3/6 2397/3/6
f 2389/3/6 2390/3/6 2398/3/6
f 2398/3/6 2390/3/6 2399/3/6
f 2391/3/6 2392/3/6 2400/3/6
f 2400/3/6 2392/3/6 2401/3/6
f 2393/3/6 2394/3/6 2402/3/6
f 2301/3/6 2367/3/6 2403/3/6
f 2401/3/6 2402/3/6 2404/3/6
f 2400/3/6 2401/3/6 2404/3/6
f 2385/3/6 2395/3/6 2404/3/6
f 2396/3/6 2397/3/6 2404/3/6
f 2399/3/6 2400/3/6 2404/3/6
f 2398/3/6 2399/3/6 2404/3/6
f 2397/3/6 2398/3/6 2404/3/6
f 2395/3/6 2396/3/6 2404/3/6
f 2402/3/6 2394/3/6 2405/3/6
f 2404/3/6 2402/3/6 2405/3/6
f 2372/3/6 2302/3/6 2406/3/6
f 2404/3/6 2405/3/6 2407/3/6
f 2405/3/6 2406/3/6 2407/3/6
f 2301/3/6 2403/3/6 2407/3/6
f 2403/3/6 2404/3/6 2407/3/6
f 2406/3/6 2302/3/6 2408/3/6
f 2407/3/6 2406/3/6 2408/3/6
f 2409/2/6 2410/2/6 2413/2/6
f 2413/2/6 2410/2/6 2414/2/6
f 2411/2/6 2412/2/6 2415/2/6
f 2415/2/6 2412/2/6 2416/2/6
f 2409/2/6 2413/2/6 2417/2/6
f 2414/2/6 2410/2/6 2418/2/6
f 2418/2/6 2410/2/6 2419/2/6
f 2411/2/6 2415/2/6 2420/2/6
f 2420/2/6 2415/2/6 2421/2/6
f 2416/2/6 2412/2/6 2422/2/6
f 2409/2/6 2417/2/6 2423/2/6
f 2423/2/6 2417/2/6 2424/2/6
f 2422/2/6 2412/2/6 2425/2/6
f 2425/2/6 2412/2/6 2426/2/6
f 2427/2/6 2428/2/6 2431/2/6
f 2429/2/6 2430/2/6 2436/2/6
f 2427/2/6 2431/2/6 2437/2/6
f 2432/2/6 2433/2/6 2438/2/6
f 2434/2/6 2435/2/6 2439/2/6
f 2436/2/6 2430/2/6 2440/2/6
f 2437/2/6 2438/2/6 2441/2/6
f 2427/2/6 2437/2/6 2441/2/6
f 2438/2/6 2433/2/6 2442/2/6
f 2441/2/6 2438/2/6 2442/2/6
f 2439/2/6 2440/2/6 2443/2/6
f 2434/2/6 2439/2/6 2443/2/6
f 2440/2/6 2430/2/6 2444/2/6
f 2443/2/6 2440/2/6 2444/2/6
f 2445/2/6 2446/2/6 2449/2/6
f 2449/2/6 2446/2/6 2450/2/6
f 2447/2/6 2448/2/6 2451/2/6
f 2451/2/6 2448/2/6 2452/2/6
f 2445/2/6 2449/2/6 2453/2/6
f 2453/2/6 2449/2/6 2454/2/6
f 2452/2/6 2448/2/6 2455/2/6
f 2455/2/6 2448/2/6 2456/2/6
f 2457/2/6 2458/2/6 2461/2/6
f 2459/2/6 2460/2/6 2464/2/6
f 2461/2/6 2462/2/6 2465/2/6
f 2457/2/6 2461/2/6 2465/2/6
f 2465/2/6 2462/2/6 2466/2/6
f 2463/2/6 2464/2/6 2467/2/6
f 2464/2/6 2460/2/6 2468/2/6
f 2467/2/6 2464/2/6 2468/2/6
f 2469/3/6 2470/3/6 2479/3/6
f 2479/3/6 2470/3/6 2480/3/6
f 2471/3/6 2472/3/6 2481/3/6
f 2481/3/6 2472/3/6 2482/3/6
f 2473/3/6 2474/3/6 2483/3/6
f 2483/3/6 2474/3/6 2484/3/6
f 2475/3/6 2476/3/6 2485/3/6
f 2485/3/6 2476/3/6 2486/3/6
f 2477/3/6 2478/3/6 2487/3/6
f 2487/3/6 2478/3/6 2488/3/6
f 2469/3/6 2479/3/6 2489/3/6
f 2489/3/6 2479/3/6 2490/3/6
f 2488/3/6 2478/3/6 2491/3/6
f 2491/3/6 2478/3/6 2492/3/6
f 2493/3/6 2494/3/6 2503/3/6
f 2494/1/6 2495/1/6 2504/1/6
f 2503/3/6 2494/3/6 2504/3/6
f 2504/1/6 2495/1/6 2505/1/6
f 2496/1/6 2497/1/6 2506/1/6
f 2506/1/6 2497/1/6 2507/1/6
f 2498/1/6 2499/1/6 2510/1/6
f 2510/1/6 2499/1/6 2511/1/6
f 2500/1/6 2501/1/6 2512/1/6
f 2501/3/6 2502/3/6 2513/3/6
f 2512/1/6 2501/1/6 2513/1/6
f 2513/3/6 2502/3/6 2514/3/6
f 2508/1/6 2509/1/6 2518/1/6
f 2518/1/6 2509/1/6 2519/1/6
f 2517/1/6 2518/1/6 2523/1/6
f 2518/1/6 2519/1/6 2523/1/6
f 2519/1/6 2520/1/6 2523/1/6
f 2523/1/6 2520/1/6 2524/1/6
f 2524/1/6 2520/1/6 2525/1/6
f 2525/1/6 2520/1/6 2526/1/6
f 2524/1/6 2525/1/6 2528/1/6
f 2528/1/6 2525/1/6 2529/1/6
f 2527/1/6 2528/1/6 2531/1/6
f 2529/1/6 2530/1/6 2531/1/6
f 2528/1/6 2529/1/6 2531/1/6
f 2531/1/6 2530/1/6 2532/1/6
f 2532/1/6 2530/1/6 2533/1/6
f 2533/1/6 2530/1/6 2534/1/6
f 2532/1/6 2533/1/6 2536/1/6
f 2536/1/6 2533/1/6 2537/1/6
f 2515/3/6 2516/3/6 2539/3/6
f 2539/3/6 2516/3/6 2540/3/6
f 2537/1/6 2538/1/6 2541/1/6
f 2535/1/6 2536/1/6 2541/1/6
f 2536/1/6 2537/1/6 2541/1/6
f 2541/1/6 2538/1/6 2542/1/6
f 2542/1/6 2538/1/6 2543/1/6
f 2543/1/6 2538/1/6 2544/1/6
f 2521/3/6 2522/3/6 2545/3/6
f 2545/3/6 2522/3/6 2546/3/6
f 2542/1/6 2543/1/6 2552/1/6
f 2552/1/6 2543/1/6 2553/1/6
f 2547/3/6 2548/3/6 2559/3/6
f 2548/1/6 2549/1/6 2560/1/6
f 2559/3/6 2548/3/6 2560/3/6
f 2560/1/6 2549/1/6 2561/1/6
f 2550/1/6 2551/1/6 2562/1/6
f 2562/1/6 2551/1/6 2563/1/6
f 2554/1/6 2555/1/6 2564/1/6
f 2564/1/6 2555/1/6 2565/1/6
f 2556/1/6 2557/1/6 2566/1/6
f 2557/3/6 2558/3/6 2567/3/6
f 2566/1/6 2557/1/6 2567/1/6
f 2567/3/6 2558/3/6 2568/3/6
f 2569/3/6 2570/3/6 2573/3/6
f 2571/3/6 2572/3/6 2582/3/6
f 2569/3/6 2573/3/6 2583/3/6
f 2573/3/6 2574/3/6 2583/3/6
f 2583/3/6 2574/3/6 2584/3/6
f 2575/3/6 2576/3/6 2585/3/6
f 2585/3/6 2576/3/6 2586/3/6
f 2577/3/6 2578/3/6 2587/3/6
f 2587/3/6 2578/3/6 2588/3/6
f 2579/3/6 2580/3/6 2589/3/6
f 2589/3/6 2580/3/6 2590/3/6
f 2581/3/6 2582/3/6 2591/3/6
f 2582/3/6 2572/3/6 2592/3/6
f 2591/3/6 2582/3/6 2592/3/6
f 2593/2/6 2594/2/6 2601/2/6
f 2601/2/6 2594/2/6 2602/2/6
f 2595/2/6 2596/2/6 2603/2/6
f 2603/2/6 2596/2/6 2604/2/6
f 2597/2/6 2598/2/6 2605/2/6
f 2605/2/6 2598/2/6 2606/2/6
f 2599/2/6 2600/2/6 2607/2/6
f 2607/2/6 2600/2/6 2608/2/6
f 2609/1/6 2610/1/6 2615/1/6
f 2615/1/6 2610/1/6 2616/1/6
f 2611/1/6 2612/1/6 2619/1/6
f 2619/1/6 2612/1/6 2620/1/6
f 2613/2/6 2614/2/6 2623/2/6
f 2623/2/6 2614/2/6 2624/2/6
f 2617/1/6 2618/1/6 2625/1/6
f 2625/1/6 2618/1/6 2626/1/6
f 2626/1/6 2618/1/6 2627/1/6
f 2627/1/6 2618/1/6 2628/1/6
f 2621/2/6 2622/2/6 2629/2/6
f 2629/2/6 2622/2/6 2630/2/6
f 2626/1/6 2627/1/6 2636/1/6
f 2636/1/6 2627/1/6 2637/1/6
f 2631/2/6 2632/2/6 2643/2/6
f 2643/2/6 2632/2/6 2644/2/6
f 2633/1/6 2634/1/6 2645/1/6
f 2635/1/6 2636/1/6 2646/1/6
f 2646/1/6 2636/1/6 2647/1/6
f 2637/1/6 2638/1/6 2648/1/6
f 2648/1/6 2638/1/6 2649/1/6
f 2639/1/6 2640/1/6 2650/1/6
f 2641/2/6 2642/2/6 2651/2/6
f 2651/2/6 2642/2/6 2652/2/6
f 2633/1/6 2645/1/6 2653/1/6
f 2645/1/6 2646/1/6 2653/1/6
f 2653/1/6 2646/1/6 2654/1/6
f 2649/1/6 2650/1/6 2659/1/6
f 2650/1/6 2640/1/6 2660/1/6
f 2659/1/6 2650/1/6 2660/1/6
f 2655/2/6 2656/2/6 2663/2/6
f 2663/2/6 2656/2/6 2664/2/6
f 2657/2/6 2658/2/6 2665/2/6
f 2665/2/6 2658/2/6 2666/2/6
f 2661/1/6 2662/1/6 2669/1/6
f 2669/1/6 2662/1/6 2670/1/6
f 2667/1/6 2668/1/6 2675/1/6
f 2675/1/6 2668/1/6 2676/1/6
f 2671/2/6 2672/2/6 2679/2/6
f 2679/2/6 2672/2/6 2680/2/6
f 2673/2/6 2674/2/6 2681/2/6
f 2681/2/6 2674/2/6 2682/2/6
f 2677/1/6 2678/1/6 2687/1/6
f 2687/1/6 2678/1/6 2688/1/6
f 2683/1/6 2684/1/6 2691/1/6
f 2691/1/6 2684/1/6 2692/1/6
f 2685/2/6 2686/2/6 2695/2/6
f 2695/2/6 2686/2/6 2696/2/6
f 2677/1/6 2687/1/6 2697/1/6
f 2697/1/6 2687/1/6 2698/1/6
f 2688/1/6 2689/1/6 2699/1/6
f 2699/1/6 2689/1/6 2700/1/6
f 2690/1/6 2691/1/6 2701/1/6
f 2701/1/6 2691/1/6 2702/1/6
f 2692/1/6 2684/1/6 2703/1/6
f 2703/1/6 2684/1/6 2704/1/6
f 2693/2/6 2694/2/6 2705/2/6
f 2705/2/6 2694/2/6 2706/2/6
f 2700/1/6 2701/1/6 2710/1/6
f 2710/1/6 2701/1/6 2711/1/6
f 2707/2/6 2708/2/6 2715/2/6
f 2715/2/6 2708/2/6 2716/2/6
f 2709/1/6 2710/1/6 2719/1/6
f 2710/1/6 2711/1/6 2719/1/6
f 2711/1/6 2712/1/6 2719/1/6
f 2719/1/6 2712/1/6 2720/1/6
f 2713/2/6 2714/2/6 2723/2/6
f 2723/2/6 2714/2/6 2724/2/6
f 2717/1/6 2718/1/6 2725/1/6
f 2725/1/6 2718/1/6 2726/1/6
f 2721/1/6 2722/1/6 2727/1/6
f 2727/1/6 2722/1/6 2728/1/6
f 2729/2/6 2730/2/6 2737/2/6
f 2737/2/6 2730/2/6 2738/2/6
f 2731/2/6 2732/2/6 2739/2/6
f 2739/2/6 2732/2/6 2740/2/6
f 2733/2/6 2734/2/6 2741/2/6
f 2741/2/6 2734/2/6 2742/2/6
f 2735/2/6 2736/2/6 2743/2/6
f 2743/2/6 2736/2/6 2744/2/6
f 2745/1/6 2746/1/6 2749/1/6
f 2747/1/6 2748/1/6 2752/1/6
f 2745/1/6 2749/1/6 2755/1/6
f 2750/1/6 2751/1/6 2756/1/6
f 2756/1/6 2751/1/6 2757/1/6
f 2757/1/6 2751/1/6 2758/1/6
f 2758/1/6 2751/1/6 2759/1/6
f 2752/1/6 2748/1/6 2760/1/6
f 2745/1/6 2755/1/6 2763/1/6
f 2760/1/6 2748/1/6 2772/1/6
f 2753/2/6 2754/2/6 2773/2/6
f 2773/2/6 2754/2/6 2774/2/6
f 2745/1/6 2763/1/6 2775/1/6
f 2763/1/6 2764/1/6 2775/1/6
f 2775/1/6 2764/1/6 2776/1/6
f 2776/1/6 2764/1/6 2777/1/6
f 2765/1/6 2766/1/6 2778/1/6
f 2766/1/6 2767/1/6 2778/1/6
f 2778/1/6 2767/1/6 2779/1/6
f 2779/1/6 2767/1/6 2780/1/6
f 2769/1/6 2770/1/6 2781/1/6
f 2768/1/6 2769/1/6 2781/1/6
f 2781/1/6 2770/1/6 2782/1/6
f 2782/1/6 2770/1/6 2783/1/6
f 2771/1/6 2772/1/6 2784/1/6
f 2772/1/6 2748/1/6 2785/1/6
f 2784/1/6 2772/1/6 2785/1/6
f 2785/1/6 2748/1/6 2786/1/6
f 2761/2/6 2762/2/6 2787/2/6
f 2787/2/6 2762/2/6 2788/2/6
f 2776/1/6 2777/1/6 2789/1/6
f 2789/1/6 2777/1/6 2790/1/6
f 2778/1/6 2779/1/6 2791/1/6
f 2791/1/6 2779/1/6 2792/1/6
f 2782/1/6 2783/1/6 2793/1/6
f 2793/1/6 2783/1/6 2794/1/6
f 2784/1/6 2785/1/6 2795/1/6
f 2795/1/6 2785/1/6 2796/1/6
f 2797/1/6 2798/1/6 2809/1/6
f 2799/2/6 2800/2/6 2811/2/6
f 2811/2/6 2800/2/6 2812/2/6
f 2801/2/6 2802/2/6 2813/2/6
f 2813/2/6 2802/2/6 2814/2/6
f 2803/2/6 2804/2/6 2815/2/6
f 2815/2/6 2804/2/6 2816/2/6
f 2805/2/6 2806/2/6 2817/2/6
f 2817/2/6 2806/2/6 2818/2/6
f 2807/1/6 2808/1/6 2820/1/6
f 2809/1/6 2810/1/6 2821/1/6
f 2797/1/6 2809/1/6 2821/1/6
f 2821/1/6 2810/1/6 2822/1/6
f 2819/1/6 2820/1/6 2831/1/6
f 2820/1/6 2808/1/6 2832/1/6
f 2831/1/6 2820/1/6 2832/1/6
f 2797/1/6 2821/1/6 2833/1/6
f 2833/1/6 2821/1/6 2834/1/6
f 2823/2/6 2824/2/6 2835/2/6
f 2835/2/6 2824/2/6 2836/2/6
f 2825/2/6 2826/2/6 2837/2/6
f 2837/2/6 2826/2/6 2838/2/6
f 2827/2/6 2828/2/6 2839/2/6
f 2839/2/6 2828/2/6 2840/2/6
f 2829/2/6 2830/2/6 2841/2/6
f 2841/2/6 2830/2/6 2842/2/6
f 2832/1/6 2808/1/6 2843/1/6
f 2843/1/6 2808/1/6 2844/1/6
f 2845/1/6 2846/1/6 2856/1/6
f 2856/1/6 2846/1/6 2857/1/6
f 2847/1/6 2848/1/6 2858/1/6
f 2858/1/6 2848/1/6 2859/1/6
f 2849/1/6 2850/1/6 2862/1/6
f 2862/1/6 2850/1/6 2863/1/6
f 2851/1/6 2852/1/6 2864/1/6
f 2864/1/6 2852/1/6 2865/1/6
f 2856/1/6 2857/1/6 2869/1/6
f 2855/1/6 2856/1/6 2869/1/6
f 2869/1/6 2857/1/6 2870/1/6
f 2859/1/6 2860/1/6 2871/1/6
f 2858/1/6 2859/1/6 2871/1/6
f 2871/1/6 2860/1/6 2872/1/6
f 2872/1/6 2860/1/6 2873/1/6
f 2862/1/6 2863/1/6 2874/1/6
f 2861/1/6 2862/1/6 2874/1/6
f 2874/1/6 2863/1/6 2875/1/6
f 2875/1/6 2863/1/6 2876/1/6
f 2865/1/6 2866/1/6 2877/1/6
f 2864/1/6 2865/1/6 2877/1/6
f 2877/1/6 2866/1/6 2878/1/6
f 2853/2/6 2854/2/6 2879/2/6
f 2879/2/6 2854/2/6 2880/2/6
f 2855/1/6 2869/1/6 2881/1/6
f 2878/1/6 2866/1/6 2886/1/6
f 2867/2/6 2868/2/6 2887/2/6
f 2887/2/6 2868/2/6 2888/2/6
f 2855/1/6 2881/1/6 2889/1/6
f 2884/1/6 2885/1/6 2890/1/6
f 2882/1/6 2883/1/6 2890/1/6
f 2883/1/6 2884/1/6 2890/1/6
f 2890/1/6 2885/1/6 2891/1/6
f 2886/1/6 2866/1/6 2892/1/6
f 2855/1/6 2889/1/6 2893/1/6
f 2893/1/6 2889/1/6 2894/1/6
f 2892/1/6 2866/1/6 2895/1/6
f 2895/1/6 2866/1/6 2896/1/6
f 2897/1/6 2898/1/6 2899/1/6
f 2899/1/6 2898/1/6 2900/1/6
f 2900/1/6 2898/1/6 2901/1/6
f 2901/1/6 2898/1/6 2902/1/6
f 2902/1/6 2898/1/6 2903/1/6
f 2903/1/6 2898/1/6 2904/1/6
f 2904/1/6 2898/1/6 2905/1/6
f 2905/1/6 2898/1/6 2906/1/6
f 2900/1/6 2901/1/6 2907/1/6
f 2907/1/6 2901/1/6 2908/1/6
f 2902/1/6 2903/1/6 2909/1/6
f 2909/1/6 2903/1/6 2910/1/6
f 2904/1/6 2905/1/6 2911/1/6
f 2911/1/6 2905/1/6 2912/1/6
f 2897/1/6 2899/1/6 2913/1/6
f 2906/1/6 2898/1/6 2920/1/6
f 2897/1/6 2913/1/6 2921/1/6
f 2914/1/6 2915/1/6 2922/1/6
f 2915/1/6 2916/1/6 2922/1/6
f 2922/1/6 2916/1/6 2923/1/6
f 2923/1/6 2916/1/6 2924/1/6
f 2918/1/6 2919/1/6 2925/1/6
f 2917/1/6 2918/1/6 2925/1/6
f 2925/1/6 2919/1/6 2926/1/6
f 2926/1/6 2919/1/6 2927/1/6
f 2920/1/6 2898/1/6 2928/1/6
f 2897/1/6 2921/1/6 2929/1/6
f 2929/1/6 2921/1/6 2930/1/6
f 2922/1/6 2923/1/6 2932/1/6
f 2932/1/6 2923/1/6 2933/1/6
f 2926/1/6 2927/1/6 2934/1/6
f 2934/1/6 2927/1/6 2935/1/6
f 2928/1/6 2898/1/6 2937/1/6
f 2937/1/6 2898/1/6 2938/1/6
f 2930/2/6 2931/2/6 2940/2/6
f 2940/2/6 2931/2/6 2941/2/6
f 2936/2/6 2937/2/6 2944/2/6
f 2944/2/6 2937/2/6 2945/2/6
f 2941/2/6 2942/2/6 2947/2/6
f 2939/1/6 2940/1/6 2947/1/6
f 2940/2/6 2941/2/6 2947/2/6
f 2947/2/6 2942/2/6 2948/2/6
f 2948/2/6 2942/2/6 2949/2/6
f 2944/2/6 2945/2/6 2952/2/6
f 2943/2/6 2944/2/6 2952/2/6
f 2952/2/6 2945/2/6 2953/2/6
f 2945/1/6 2946/1/6 2954/1/6
f 2953/2/6 2945/2/6 2954/2/6
f 2949/2/6 2950/2/6 2955/2/6
f 2948/2/6 2949/2/6 2955/2/6
f 2955/2/6 2950/2/6 2956/2/6
f 2952/2/6 2953/2/6 2957/2/6
f 2951/2/6 2952/2/6 2957/2/6
f 2957/2/6 2953/2/6 2958/2/6
f 2939/1/6 2947/1/6 2963/1/6
f 2959/2/6 2960/2/6 2964/2/6
f 2964/2/6 2960/2/6 2965/2/6
f 2965/2/6 2960/2/6 2966/2/6
f 2961/2/6 2962/2/6 2967/2/6
f 2967/2/6 2962/2/6 2968/2/6
f 2968/2/6 2962/2/6 2969/2/6
f 2954/1/6 2946/1/6 2970/1/6
f 2939/1/6 2963/1/6 2971/1/6
f 2963/2/6 2964/2/6 2972/2/6
f 2971/1/6 2963/1/6 2972/1/6
f 2964/2/6 2965/2/6 2972/2/6
f 2972/2/6 2965/2/6 2973/2/6
f 2973/2/6 2965/2/6 2974/2/6
f 2968/2/6 2969/2/6 2975/2/6
f 2969/2/6 2970/2/6 2975/2/6
f 2975/2/6 2970/2/6 2976/2/6
f 2970/1/6 2946/1/6 2977/1/6
f 2976/2/6 2970/2/6 2977/2/6
f 2977/1/6 2946/1/6 2978/1/6
f 2972/2/6 2973/2/6 2980/2/6
f 2980/2/6 2973/2/6 2981/2/6
f 2976/2/6 2977/2/6 2986/2/6
f 2986/2/6 2977/2/6 2987/2/6
f 2979/1/6 2980/1/6 2989/1/6
f 2982/1/6 2983/1/6 2990/1/6
f 2990/1/6 2983/1/6 2991/1/6
f 2984/1/6 2985/1/6 2994/1/6
f 2994/1/6 2985/1/6 2995/1/6
f 2987/1/6 2988/1/6 2996/1/6
f 2979/1/6 2989/1/6 2997/1/6
f 2991/1/6 2992/1/6 2998/1/6
f 2990/1/6 2991/1/6 2998/1/6
f 2998/1/6 2992/1/6 2999/1/6
f 2999/1/6 2992/1/6 3000/1/6
f 2994/1/6 2995/1/6 3001/1/6
f 2993/1/6 2994/1/6 3001/1/6
f 3001/1/6 2995/1/6 3002/1/6
f 3002/1/6 2995/1/6 3003/1/6
f 2996/1/6 2988/1/6 3004/1/6
f 2979/1/6 2997/1/6 3011/1/6
f 3005/1/6 3006/1/6 3012/1/6
f 3012/1/6 3006/1/6 3013/1/6
f 3007/1/6 3008/1/6 3014/1/6
f 3014/1/6 3008/1/6 3015/1/6
f 3009/1/6 3010/1/6 3016/1/6
f 3016/1/6 3010/1/6 3017/1/6
f 3004/1/6 2988/1/6 3018/1/6
f 3014/1/6 3015/1/6 3019/1/6
f 3017/1/6 3018/1/6 3019/1/6
f 3016/1/6 3017/1/6 3019/1/6
f 2979/1/6 3011/1/6 3019/1/6
f 3015/1/6 3016/1/6 3019/1/6
f 3012/1/6 3013/1/6 3019/1/6
f 3013/1/6 3014/1/6 3019/1/6
f 3011/1/6 3012/1/6 3019/1/6
f 3018/1/6 2988/1/6 3020/1/6
f 3019/1/6 3018/1/6 3020/1/6
f 3021/1/6 3022/1/6 3025/1/6
f 3025/1/6 3022/1/6 3026/1/6
f 3023/1/6 3024/1/6 3027/1/6
f 3027/1/6 3024/1/6 3028/1/6
f 3021/1/6 3025/1/6 3029/1/6
f 3029/1/6 3025/1/6 3030/1/6
f 3028/1/6 3024/1/6 3031/1/6
f 3031/1/6 3024/1/6 3032/1/6
f 3033/2/6 3034/2/6 3037/2/6
f 3037/2/6 3034/2/6 3038/2/6
f 3035/2/6 3036/2/6 3039/2/6
f 3039/2/6 3036/2/6 3040/2/6
f 3041/2/6 3042/2/6 3045/2/6
f 3045/2/6 3042/2/6 3046/2/6
f 3043/2/6 3044/2/6 3047/2/6
f 3047/2/6 3044/2/6 3048/2/6
f 3049/1/6 3050/1/6 3053/1/6
f 3051/1/6 3052/1/6 3056/1/6
f 3053/1/6 3054/1/6 3057/1/6
f 3049/1/6 3053/1/6 3057/1/6
f 3057/1/6 3054/1/6 3058/1/6
f 3055/1/6 3056/1/6 3059/1/6
f 3056/1/6 3052/1/6 3060/1/6
f 3059/1/6 3056/1/6 3060/1/6
f 3061/1/6 3062/1/6 3065/1/6
f 3065/1/6 3062/1/6 3066/1/6
f 3063/1/6 3064/1/6 3067/1/6
f 3067/1/6 3064/1/6 3068/1/6
f 3061/1/6 3065/1/6 3069/1/6
f 3069/1/6 3065/1/6 3070/1/6
f 3068/1/6 3064/1/6 3071/1/6
f 3071/1/6 3064/1/6 3072/1/6
f 3073/1/6 3074/1/6 3077/1/6
f 3075/1/6 3076/1/6 3080/1/6
f 3077/1/6 3078/1/6 3081/1/6
f 3073/1/6 3077/1/6 3081/1/6
f 3081/1/6 3078/1/6 3082/1/6
f 3079/1/6 3080/1/6 3083/1/6
f 3080/1/6 3076/1/6 3084/1/6
f 3083/1/6 3080/1/6 3084/1/6
f 3085/1/6 3086/1/6 3089/1/6
f 3089/1/6 3086/1/6 3090/1/6
f 3087/1/6 3088/1/6 3091/1/6
f 3091/1/6 3088/1/6 3092/1/6
f 3085/1/6 3089/1/6 3093/1/6
f 3093/1/6 3089/1/6 3094/1/6
f 3092/1/6 3088/1/6 3095/1/6
f 3095/1/6 3088/1/6 3096/1/6
f 3097/1/6 3098/1/6 3101/1/6
f 3099/1/6 3100/1/6 3104/1/6
f 3101/1/6 3102/1/6 3105/1/6
f 3097/1/6 3101/1/6 3105/1/6
f 3105/1/6 3102/1/6 3106/1/6
f 3103/1/6 3104/1/6 3107/1/6
f 3104/1/6 3100/1/6 3108/1/6
f 3107/1/6 3104/1/6 3108/1/6
