# MagicaVoxel @ Ephtracy

# group
g Rubik'sCube

# material
mtllib Rubik'sCube.mtl
usemtl palette

# normals
vn -1 0 0
vn 1 0 0
vn 0 0 1
vn 0 0 -1
vn 0 -1 0
vn 0 1 0

# texcoords
vt 0.0214844 0.5
vt 0.0917969 0.5
vt 0.306641 0.5
vt 0.587891 0.5
vt 0.744141 0.5
vt 0.748047 0.5
vt 0.841797 0.5
vt 0.958984 0.5
vt 0.994141 0.5

# verts
v -20 0 20
v -20 0 7
v -20 0 6
v -20 0 -6
v -20 0 -7
v -20 0 -20
v -20 1 19
v -20 1 7
v -20 1 6
v -20 1 -6
v -20 1 -7
v -20 1 -19
v -20 14 20
v -20 14 19
v -20 14 7
v -20 14 6
v -20 14 -6
v -20 14 -7
v -20 14 -19
v -20 14 -20
v -20 15 20
v -20 15 19
v -20 15 7
v -20 15 6
v -20 15 -6
v -20 15 -7
v -20 15 -19
v -20 15 -20
v -20 26 20
v -20 26 19
v -20 26 7
v -20 26 6
v -20 26 -6
v -20 26 -7
v -20 26 -19
v -20 26 -20
v -20 27 20
v -20 27 19
v -20 27 7
v -20 27 6
v -20 27 -6
v -20 27 -7
v -20 27 -19
v -20 27 -20
v -20 39 19
v -20 39 7
v -20 39 6
v -20 39 -6
v -20 39 -7
v -20 39 -19
v -20 40 20
v -20 40 7
v -20 40 6
v -20 40 -6
v -20 40 -7
v -20 40 -20
v -19 1 7
v -19 1 6
v -19 1 -6
v -19 1 -7
v -19 14 19
v -19 14 7
v -19 14 6
v -19 14 -6
v -19 14 -7
v -19 14 -19
v -19 15 19
v -19 15 7
v -19 15 6
v -19 15 -6
v -19 15 -7
v -19 15 -19
v -19 26 19
v -19 26 7
v -19 26 6
v -19 26 -6
v -19 26 -7
v -19 26 -19
v -19 27 19
v -19 27 7
v -19 27 6
v -19 27 -6
v -19 27 -7
v -19 27 -19
v -19 39 7
v -19 39 6
v -19 39 -6
v -19 39 -7
v -6 0 20
v -6 0 19
v -6 0 7
v -6 0 6
v -6 0 -6
v -6 0 -7
v -6 0 -19
v -6 0 -20
v -6 1 20
v -6 1 19
v -6 1 7
v -6 1 6
v -6 1 -6
v -6 1 -7
v -6 1 -19
v -6 1 -20
v -6 14 20
v -6 14 19
v -6 14 -19
v -6 14 -20
v -6 15 20
v -6 15 19
v -6 15 -19
v -6 15 -20
v -6 26 20
v -6 26 19
v -6 26 -19
v -6 26 -20
v -6 27 20
v -6 27 19
v -6 27 -19
v -6 27 -20
v -6 39 20
v -6 39 19
v -6 39 7
v -6 39 6
v -6 39 -6
v -6 39 -7
v -6 39 -19
v -6 39 -20
v -6 40 20
v -6 40 19
v -6 40 7
v -6 40 6
v -6 40 -6
v -6 40 -7
v -6 40 -19
v -6 40 -20
v 7 0 20
v 7 0 19
v 7 0 7
v 7 0 6
v 7 0 -6
v 7 0 -7
v 7 0 -19
v 7 0 -20
v 7 1 20
v 7 1 19
v 7 1 7
v 7 1 6
v 7 1 -6
v 7 1 -7
v 7 1 -19
v 7 1 -20
v 7 14 20
v 7 14 19
v 7 14 -19
v 7 14 -20
v 7 15 20
v 7 15 19
v 7 15 -19
v 7 15 -20
v 7 26 20
v 7 26 19
v 7 26 -19
v 7 26 -20
v 7 27 20
v 7 27 19
v 7 27 -19
v 7 27 -20
v 7 39 20
v 7 39 19
v 7 39 7
v 7 39 6
v 7 39 -6
v 7 39 -7
v 7 39 -19
v 7 39 -20
v 7 40 20
v 7 40 19
v 7 40 7
v 7 40 6
v 7 40 -6
v 7 40 -7
v 7 40 -19
v 7 40 -20
v -7 0 20
v -7 0 19
v -7 0 7
v -7 0 6
v -7 0 -6
v -7 0 -7
v -7 0 -19
v -7 0 -20
v -7 1 20
v -7 1 19
v -7 1 7
v -7 1 6
v -7 1 -6
v -7 1 -7
v -7 1 -19
v -7 1 -20
v -7 14 20
v -7 14 19
v -7 14 -19
v -7 14 -20
v -7 15 20
v -7 15 19
v -7 15 -19
v -7 15 -20
v -7 26 20
v -7 26 19
v -7 26 -19
v -7 26 -20
v -7 27 20
v -7 27 19
v -7 27 -19
v -7 27 -20
v -7 39 20
v -7 39 19
v -7 39 7
v -7 39 6
v -7 39 -6
v -7 39 -7
v -7 39 -19
v -7 39 -20
v -7 40 20
v -7 40 19
v -7 40 7
v -7 40 6
v -7 40 -6
v -7 40 -7
v -7 40 -19
v -7 40 -20
v 6 0 20
v 6 0 19
v 6 0 7
v 6 0 6
v 6 0 -6
v 6 0 -7
v 6 0 -19
v 6 0 -20
v 6 1 20
v 6 1 19
v 6 1 7
v 6 1 6
v 6 1 -6
v 6 1 -7
v 6 1 -19
v 6 1 -20
v 6 14 20
v 6 14 19
v 6 14 -19
v 6 14 -20
v 6 15 20
v 6 15 19
v 6 15 -19
v 6 15 -20
v 6 26 20
v 6 26 19
v 6 26 -19
v 6 26 -20
v 6 27 20
v 6 27 19
v 6 27 -19
v 6 27 -20
v 6 39 20
v 6 39 19
v 6 39 7
v 6 39 6
v 6 39 -6
v 6 39 -7
v 6 39 -19
v 6 39 -20
v 6 40 20
v 6 40 19
v 6 40 7
v 6 40 6
v 6 40 -6
v 6 40 -7
v 6 40 -19
v 6 40 -20
v 19 1 7
v 19 1 6
v 19 1 -6
v 19 1 -7
v 19 14 19
v 19 14 7
v 19 14 6
v 19 14 -6
v 19 14 -7
v 19 14 -19
v 19 15 19
v 19 15 7
v 19 15 6
v 19 15 -6
v 19 15 -7
v 19 15 -19
v 19 26 19
v 19 26 7
v 19 26 6
v 19 26 -6
v 19 26 -7
v 19 26 -19
v 19 27 19
v 19 27 7
v 19 27 6
v 19 27 -6
v 19 27 -7
v 19 27 -19
v 19 39 7
v 19 39 6
v 19 39 -6
v 19 39 -7
v 20 0 20
v 20 0 7
v 20 0 6
v 20 0 -6
v 20 0 -7
v 20 0 -20
v 20 1 19
v 20 1 7
v 20 1 6
v 20 1 -6
v 20 1 -7
v 20 1 -19
v 20 14 20
v 20 14 19
v 20 14 7
v 20 14 6
v 20 14 -6
v 20 14 -7
v 20 14 -19
v 20 14 -20
v 20 15 20
v 20 15 19
v 20 15 7
v 20 15 6
v 20 15 -6
v 20 15 -7
v 20 15 -19
v 20 15 -20
v 20 26 20
v 20 26 19
v 20 26 7
v 20 26 6
v 20 26 -6
v 20 26 -7
v 20 26 -19
v 20 26 -20
v 20 27 20
v 20 27 19
v 20 27 7
v 20 27 6
v 20 27 -6
v 20 27 -7
v 20 27 -19
v 20 27 -20
v 20 39 19
v 20 39 7
v 20 39 6
v 20 39 -6
v 20 39 -7
v 20 39 -19
v 20 40 20
v 20 40 7
v 20 40 6
v 20 40 -6
v 20 40 -7
v 20 40 -20
v -20 0 20
v -20 14 20
v -20 15 20
v -20 26 20
v -20 27 20
v -20 40 20
v -19 1 20
v -19 14 20
v -19 15 20
v -19 26 20
v -19 27 20
v -19 39 20
v -7 0 20
v -7 1 20
v -7 14 20
v -7 15 20
v -7 26 20
v -7 27 20
v -7 39 20
v -7 40 20
v -6 0 20
v -6 1 20
v -6 14 20
v -6 15 20
v -6 26 20
v -6 27 20
v -6 39 20
v -6 40 20
v 6 0 20
v 6 1 20
v 6 14 20
v 6 15 20
v 6 26 20
v 6 27 20
v 6 39 20
v 6 40 20
v 7 0 20
v 7 1 20
v 7 14 20
v 7 15 20
v 7 26 20
v 7 27 20
v 7 39 20
v 7 40 20
v 19 1 20
v 19 14 20
v 19 15 20
v 19 26 20
v 19 27 20
v 19 39 20
v 20 0 20
v 20 14 20
v 20 15 20
v 20 26 20
v 20 27 20
v 20 40 20
v -19 14 19
v -19 15 19
v -19 26 19
v -19 27 19
v -7 1 19
v -7 14 19
v -7 15 19
v -7 26 19
v -7 27 19
v -7 39 19
v -6 1 19
v -6 14 19
v -6 15 19
v -6 26 19
v -6 27 19
v -6 39 19
v 6 1 19
v 6 14 19
v 6 15 19
v 6 26 19
v 6 27 19
v 6 39 19
v 7 1 19
v 7 14 19
v 7 15 19
v 7 26 19
v 7 27 19
v 7 39 19
v 19 14 19
v 19 15 19
v 19 26 19
v 19 27 19
v -20 0 6
v -20 1 6
v -20 14 6
v -20 15 6
v -20 26 6
v -20 27 6
v -20 39 6
v -20 40 6
v -19 0 6
v -19 1 6
v -19 14 6
v -19 15 6
v -19 26 6
v -19 27 6
v -19 39 6
v -19 40 6
v -7 0 6
v -7 1 6
v -7 39 6
v -7 40 6
v -6 0 6
v -6 1 6
v -6 39 6
v -6 40 6
v 6 0 6
v 6 1 6
v 6 39 6
v 6 40 6
v 7 0 6
v 7 1 6
v 7 39 6
v 7 40 6
v 19 0 6
v 19 1 6
v 19 14 6
v 19 15 6
v 19 26 6
v 19 27 6
v 19 39 6
v 19 40 6
v 20 0 6
v 20 1 6
v 20 14 6
v 20 15 6
v 20 26 6
v 20 27 6
v 20 39 6
v 20 40 6
v -20 0 -7
v -20 1 -7
v -20 14 -7
v -20 15 -7
v -20 26 -7
v -20 27 -7
v -20 39 -7
v -20 40 -7
v -19 0 -7
v -19 1 -7
v -19 14 -7
v -19 15 -7
v -19 26 -7
v -19 27 -7
v -19 39 -7
v -19 40 -7
v -7 0 -7
v -7 1 -7
v -7 39 -7
v -7 40 -7
v -6 0 -7
v -6 1 -7
v -6 39 -7
v -6 40 -7
v 6 0 -7
v 6 1 -7
v 6 39 -7
v 6 40 -7
v 7 0 -7
v 7 1 -7
v 7 39 -7
v 7 40 -7
v 19 0 -7
v 19 1 -7
v 19 14 -7
v 19 15 -7
v 19 26 -7
v 19 27 -7
v 19 39 -7
v 19 40 -7
v 20 0 -7
v 20 1 -7
v 20 14 -7
v 20 15 -7
v 20 26 -7
v 20 27 -7
v 20 39 -7
v 20 40 -7
v -20 0 7
v -20 1 7
v -20 14 7
v -20 15 7
v -20 26 7
v -20 27 7
v -20 39 7
v -20 40 7
v -19 0 7
v -19 1 7
v -19 14 7
v -19 15 7
v -19 26 7
v -19 27 7
v -19 39 7
v -19 40 7
v -7 0 7
v -7 1 7
v -7 39 7
v -7 40 7
v -6 0 7
v -6 1 7
v -6 39 7
v -6 40 7
v 6 0 7
v 6 1 7
v 6 39 7
v 6 40 7
v 7 0 7
v 7 1 7
v 7 39 7
v 7 40 7
v 19 0 7
v 19 1 7
v 19 14 7
v 19 15 7
v 19 26 7
v 19 27 7
v 19 39 7
v 19 40 7
v 20 0 7
v 20 1 7
v 20 14 7
v 20 15 7
v 20 26 7
v 20 27 7
v 20 39 7
v 20 40 7
v -20 0 -6
v -20 1 -6
v -20 14 -6
v -20 15 -6
v -20 26 -6
v -20 27 -6
v -20 39 -6
v -20 40 -6
v -19 0 -6
v -19 1 -6
v -19 14 -6
v -19 15 -6
v -19 26 -6
v -19 27 -6
v -19 39 -6
v -19 40 -6
v -7 0 -6
v -7 1 -6
v -7 39 -6
v -7 40 -6
v -6 0 -6
v -6 1 -6
v -6 39 -6
v -6 40 -6
v 6 0 -6
v 6 1 -6
v 6 39 -6
v 6 40 -6
v 7 0 -6
v 7 1 -6
v 7 39 -6
v 7 40 -6
v 19 0 -6
v 19 1 -6
v 19 14 -6
v 19 15 -6
v 19 26 -6
v 19 27 -6
v 19 39 -6
v 19 40 -6
v 20 0 -6
v 20 1 -6
v 20 14 -6
v 20 15 -6
v 20 26 -6
v 20 27 -6
v 20 39 -6
v 20 40 -6
v -19 14 -19
v -19 15 -19
v -19 26 -19
v -19 27 -19
v -7 1 -19
v -7 14 -19
v -7 15 -19
v -7 26 -19
v -7 27 -19
v -7 39 -19
v -6 1 -19
v -6 14 -19
v -6 15 -19
v -6 26 -19
v -6 27 -19
v -6 39 -19
v 6 1 -19
v 6 14 -19
v 6 15 -19
v 6 26 -19
v 6 27 -19
v 6 39 -19
v 7 1 -19
v 7 14 -19
v 7 15 -19
v 7 26 -19
v 7 27 -19
v 7 39 -19
v 19 14 -19
v 19 15 -19
v 19 26 -19
v 19 27 -19
v -20 0 -20
v -20 14 -20
v -20 15 -20
v -20 26 -20
v -20 27 -20
v -20 40 -20
v -19 1 -20
v -19 14 -20
v -19 15 -20
v -19 26 -20
v -19 27 -20
v -19 39 -20
v -7 0 -20
v -7 1 -20
v -7 14 -20
v -7 15 -20
v -7 26 -20
v -7 27 -20
v -7 39 -20
v -7 40 -20
v -6 0 -20
v -6 1 -20
v -6 14 -20
v -6 15 -20
v -6 26 -20
v -6 27 -20
v -6 39 -20
v -6 40 -20
v 6 0 -20
v 6 1 -20
v 6 14 -20
v 6 15 -20
v 6 26 -20
v 6 27 -20
v 6 39 -20
v 6 40 -20
v 7 0 -20
v 7 1 -20
v 7 14 -20
v 7 15 -20
v 7 26 -20
v 7 27 -20
v 7 39 -20
v 7 40 -20
v 19 1 -20
v 19 14 -20
v 19 15 -20
v 19 26 -20
v 19 27 -20
v 19 39 -20
v 20 0 -20
v 20 14 -20
v 20 15 -20
v 20 26 -20
v 20 27 -20
v 20 40 -20
v -20 0 20
v -7 0 20
v -6 0 20
v 6 0 20
v 7 0 20
v 20 0 20
v -19 0 19
v -7 0 19
v -6 0 19
v 6 0 19
v 7 0 19
v 19 0 19
v -20 0 7
v -19 0 7
v -7 0 7
v -6 0 7
v 6 0 7
v 7 0 7
v 19 0 7
v 20 0 7
v -20 0 6
v -19 0 6
v -7 0 6
v -6 0 6
v 6 0 6
v 7 0 6
v 19 0 6
v 20 0 6
v -20 0 -6
v -19 0 -6
v -7 0 -6
v -6 0 -6
v 6 0 -6
v 7 0 -6
v 19 0 -6
v 20 0 -6
v -20 0 -7
v -19 0 -7
v -7 0 -7
v -6 0 -7
v 6 0 -7
v 7 0 -7
v 19 0 -7
v 20 0 -7
v -19 0 -19
v -7 0 -19
v -6 0 -19
v 6 0 -19
v 7 0 -19
v 19 0 -19
v -20 0 -20
v -7 0 -20
v -6 0 -20
v 6 0 -20
v 7 0 -20
v 20 0 -20
v -7 1 19
v -6 1 19
v 6 1 19
v 7 1 19
v -19 1 7
v -7 1 7
v -6 1 7
v 6 1 7
v 7 1 7
v 19 1 7
v -19 1 6
v -7 1 6
v -6 1 6
v 6 1 6
v 7 1 6
v 19 1 6
v -19 1 -6
v -7 1 -6
v -6 1 -6
v 6 1 -6
v 7 1 -6
v 19 1 -6
v -19 1 -7
v -7 1 -7
v -6 1 -7
v 6 1 -7
v 7 1 -7
v 19 1 -7
v -7 1 -19
v -6 1 -19
v 6 1 -19
v 7 1 -19
v -20 15 20
v -19 15 20
v -7 15 20
v -6 15 20
v 6 15 20
v 7 15 20
v 19 15 20
v 20 15 20
v -20 15 19
v -19 15 19
v -7 15 19
v -6 15 19
v 6 15 19
v 7 15 19
v 19 15 19
v 20 15 19
v -20 15 7
v -19 15 7
v 19 15 7
v 20 15 7
v -20 15 6
v -19 15 6
v 19 15 6
v 20 15 6
v -20 15 -6
v -19 15 -6
v 19 15 -6
v 20 15 -6
v -20 15 -7
v -19 15 -7
v 19 15 -7
v 20 15 -7
v -20 15 -19
v -19 15 -19
v -7 15 -19
v -6 15 -19
v 6 15 -19
v 7 15 -19
v 19 15 -19
v 20 15 -19
v -20 15 -20
v -19 15 -20
v -7 15 -20
v -6 15 -20
v 6 15 -20
v 7 15 -20
v 19 15 -20
v 20 15 -20
v -20 27 20
v -19 27 20
v -7 27 20
v -6 27 20
v 6 27 20
v 7 27 20
v 19 27 20
v 20 27 20
v -20 27 19
v -19 27 19
v -7 27 19
v -6 27 19
v 6 27 19
v 7 27 19
v 19 27 19
v 20 27 19
v -20 27 7
v -19 27 7
v 19 27 7
v 20 27 7
v -20 27 6
v -19 27 6
v 19 27 6
v 20 27 6
v -20 27 -6
v -19 27 -6
v 19 27 -6
v 20 27 -6
v -20 27 -7
v -19 27 -7
v 19 27 -7
v 20 27 -7
v -20 27 -19
v -19 27 -19
v -7 27 -19
v -6 27 -19
v 6 27 -19
v 7 27 -19
v 19 27 -19
v 20 27 -19
v -20 27 -20
v -19 27 -20
v -7 27 -20
v -6 27 -20
v 6 27 -20
v 7 27 -20
v 19 27 -20
v 20 27 -20
v -20 14 20
v -19 14 20
v -7 14 20
v -6 14 20
v 6 14 20
v 7 14 20
v 19 14 20
v 20 14 20
v -20 14 19
v -19 14 19
v -7 14 19
v -6 14 19
v 6 14 19
v 7 14 19
v 19 14 19
v 20 14 19
v -20 14 7
v -19 14 7
v 19 14 7
v 20 14 7
v -20 14 6
v -19 14 6
v 19 14 6
v 20 14 6
v -20 14 -6
v -19 14 -6
v 19 14 -6
v 20 14 -6
v -20 14 -7
v -19 14 -7
v 19 14 -7
v 20 14 -7
v -20 14 -19
v -19 14 -19
v -7 14 -19
v -6 14 -19
v 6 14 -19
v 7 14 -19
v 19 14 -19
v 20 14 -19
v -20 14 -20
v -19 14 -20
v -7 14 -20
v -6 14 -20
v 6 14 -20
v 7 14 -20
v 19 14 -20
v 20 14 -20
v -20 26 20
v -19 26 20
v -7 26 20
v -6 26 20
v 6 26 20
v 7 26 20
v 19 26 20
v 20 26 20
v -20 26 19
v -19 26 19
v -7 26 19
v -6 26 19
v 6 26 19
v 7 26 19
v 19 26 19
v 20 26 19
v -20 26 7
v -19 26 7
v 19 26 7
v 20 26 7
v -20 26 6
v -19 26 6
v 19 26 6
v 20 26 6
v -20 26 -6
v -19 26 -6
v 19 26 -6
v 20 26 -6
v -20 26 -7
v -19 26 -7
v 19 26 -7
v 20 26 -7
v -20 26 -19
v -19 26 -19
v -7 26 -19
v -6 26 -19
v 6 26 -19
v 7 26 -19
v 19 26 -19
v 20 26 -19
v -20 26 -20
v -19 26 -20
v -7 26 -20
v -6 26 -20
v 6 26 -20
v 7 26 -20
v 19 26 -20
v 20 26 -20
v -7 39 19
v -6 39 19
v 6 39 19
v 7 39 19
v -19 39 7
v -7 39 7
v -6 39 7
v 6 39 7
v 7 39 7
v 19 39 7
v -19 39 6
v -7 39 6
v -6 39 6
v 6 39 6
v 7 39 6
v 19 39 6
v -19 39 -6
v -7 39 -6
v -6 39 -6
v 6 39 -6
v 7 39 -6
v 19 39 -6
v -19 39 -7
v -7 39 -7
v -6 39 -7
v 6 39 -7
v 7 39 -7
v 19 39 -7
v -7 39 -19
v -6 39 -19
v 6 39 -19
v 7 39 -19
v -20 40 20
v -7 40 20
v -6 40 20
v 6 40 20
v 7 40 20
v 20 40 20
v -19 40 19
v -7 40 19
v -6 40 19
v 6 40 19
v 7 40 19
v 19 40 19
v -20 40 7
v -19 40 7
v -7 40 7
v -6 40 7
v 6 40 7
v 7 40 7
v 19 40 7
v 20 40 7
v -20 40 6
v -19 40 6
v -7 40 6
v -6 40 6
v 6 40 6
v 7 40 6
v 19 40 6
v 20 40 6
v -20 40 -6
v -19 40 -6
v -7 40 -6
v -6 40 -6
v 6 40 -6
v 7 40 -6
v 19 40 -6
v 20 40 -6
v -20 40 -7
v -19 40 -7
v -7 40 -7
v -6 40 -7
v 6 40 -7
v 7 40 -7
v 19 40 -7
v 20 40 -7
v -19 40 -19
v -7 40 -19
v -6 40 -19
v 6 40 -19
v 7 40 -19
v 19 40 -19
v -20 40 -20
v -7 40 -20
v -6 40 -20
v 6 40 -20
v 7 40 -20
v 20 40 -20

# faces
f 7/9/1 2/9/1 1/9/1
f 8/9/1 2/9/1 7/9/1
f 9/9/1 4/9/1 3/9/1
f 10/9/1 4/9/1 9/9/1
f 11/9/1 6/9/1 5/9/1
f 12/9/1 6/9/1 11/9/1
f 13/9/1 7/9/1 1/9/1
f 14/8/1 8/8/1 7/8/1
f 14/9/1 7/9/1 13/9/1
f 15/8/1 8/8/1 14/8/1
f 16/8/1 10/8/1 9/8/1
f 17/8/1 10/8/1 16/8/1
f 18/8/1 12/8/1 11/8/1
f 19/9/1 6/9/1 12/9/1
f 19/8/1 12/8/1 18/8/1
f 20/9/1 6/9/1 19/9/1
f 29/9/1 22/9/1 21/9/1
f 30/8/1 23/8/1 22/8/1
f 30/9/1 22/9/1 29/9/1
f 31/8/1 23/8/1 30/8/1
f 32/8/1 25/8/1 24/8/1
f 33/8/1 25/8/1 32/8/1
f 34/8/1 27/8/1 26/8/1
f 35/9/1 28/9/1 27/9/1
f 35/8/1 27/8/1 34/8/1
f 36/9/1 28/9/1 35/9/1
f 45/9/1 38/9/1 37/9/1
f 45/8/1 39/8/1 38/8/1
f 46/8/1 39/8/1 45/8/1
f 47/8/1 41/8/1 40/8/1
f 48/8/1 41/8/1 47/8/1
f 49/8/1 43/8/1 42/8/1
f 50/9/1 44/9/1 43/9/1
f 50/8/1 43/8/1 49/8/1
f 51/9/1 46/9/1 45/9/1
f 51/9/1 45/9/1 37/9/1
f 52/9/1 46/9/1 51/9/1
f 53/9/1 48/9/1 47/9/1
f 54/9/1 48/9/1 53/9/1
f 55/9/1 50/9/1 49/9/1
f 56/9/1 44/9/1 50/9/1
f 56/9/1 50/9/1 55/9/1
f 62/9/1 58/9/1 57/9/1
f 63/9/1 58/9/1 62/9/1
f 64/9/1 60/9/1 59/9/1
f 65/9/1 60/9/1 64/9/1
f 67/9/1 63/9/1 62/9/1
f 67/9/1 66/9/1 65/9/1
f 67/9/1 65/9/1 64/9/1
f 67/9/1 64/9/1 63/9/1
f 67/9/1 62/9/1 61/9/1
f 68/9/1 66/9/1 67/9/1
f 69/9/1 66/9/1 68/9/1
f 70/9/1 66/9/1 69/9/1
f 71/9/1 66/9/1 70/9/1
f 72/9/1 66/9/1 71/9/1
f 74/9/1 69/9/1 68/9/1
f 75/9/1 69/9/1 74/9/1
f 76/9/1 71/9/1 70/9/1
f 77/9/1 71/9/1 76/9/1
f 79/9/1 75/9/1 74/9/1
f 79/9/1 78/9/1 77/9/1
f 79/9/1 77/9/1 76/9/1
f 79/9/1 76/9/1 75/9/1
f 79/9/1 74/9/1 73/9/1
f 80/9/1 78/9/1 79/9/1
f 81/9/1 78/9/1 80/9/1
f 82/9/1 78/9/1 81/9/1
f 83/9/1 78/9/1 82/9/1
f 84/9/1 78/9/1 83/9/1
f 85/9/1 81/9/1 80/9/1
f 86/9/1 81/9/1 85/9/1
f 87/9/1 83/9/1 82/9/1
f 88/9/1 83/9/1 87/9/1
f 97/9/1 90/9/1 89/9/1
f 98/4/1 91/4/1 90/4/1
f 98/9/1 90/9/1 97/9/1
f 99/4/1 91/4/1 98/4/1
f 100/4/1 93/4/1 92/4/1
f 101/4/1 93/4/1 100/4/1
f 102/4/1 95/4/1 94/4/1
f 103/9/1 96/9/1 95/9/1
f 103/4/1 95/4/1 102/4/1
f 104/9/1 96/9/1 103/9/1
f 105/2/1 98/2/1 97/2/1
f 106/2/1 98/2/1 105/2/1
f 107/1/1 104/1/1 103/1/1
f 108/1/1 104/1/1 107/1/1
f 113/2/1 110/2/1 109/2/1
f 114/2/1 110/2/1 113/2/1
f 115/1/1 112/1/1 111/1/1
f 116/1/1 112/1/1 115/1/1
f 121/2/1 118/2/1 117/2/1
f 122/2/1 118/2/1 121/2/1
f 127/1/1 120/1/1 119/1/1
f 128/1/1 120/1/1 127/1/1
f 129/9/1 122/9/1 121/9/1
f 130/7/1 123/7/1 122/7/1
f 130/9/1 122/9/1 129/9/1
f 131/7/1 123/7/1 130/7/1
f 132/7/1 125/7/1 124/7/1
f 133/7/1 125/7/1 132/7/1
f 134/7/1 127/7/1 126/7/1
f 135/9/1 128/9/1 127/9/1
f 135/7/1 127/7/1 134/7/1
f 136/9/1 128/9/1 135/9/1
f 145/9/1 138/9/1 137/9/1
f 146/4/1 139/4/1 138/4/1
f 146/9/1 138/9/1 145/9/1
f 147/4/1 139/4/1 146/4/1
f 148/4/1 141/4/1 140/4/1
f 149/4/1 141/4/1 148/4/1
f 150/4/1 143/4/1 142/4/1
f 151/9/1 144/9/1 143/9/1
f 151/4/1 143/4/1 150/4/1
f 152/9/1 144/9/1 151/9/1
f 153/2/1 146/2/1 145/2/1
f 154/2/1 146/2/1 153/2/1
f 155/1/1 152/1/1 151/1/1
f 156/1/1 152/1/1 155/1/1
f 161/2/1 158/2/1 157/2/1
f 162/2/1 158/2/1 161/2/1
f 163/1/1 160/1/1 159/1/1
f 164/1/1 160/1/1 163/1/1
f 169/2/1 166/2/1 165/2/1
f 170/2/1 166/2/1 169/2/1
f 175/1/1 168/1/1 167/1/1
f 176/1/1 168/1/1 175/1/1
f 177/9/1 170/9/1 169/9/1
f 178/7/1 171/7/1 170/7/1
f 178/9/1 170/9/1 177/9/1
f 179/7/1 171/7/1 178/7/1
f 180/7/1 173/7/1 172/7/1
f 181/7/1 173/7/1 180/7/1
f 182/7/1 175/7/1 174/7/1
f 183/9/1 176/9/1 175/9/1
f 183/7/1 175/7/1 182/7/1
f 184/9/1 176/9/1 183/9/1
f 185/9/2 186/9/2 193/9/2
f 186/4/2 187/4/2 194/4/2
f 193/9/2 186/9/2 194/9/2
f 194/4/2 187/4/2 195/4/2
f 188/4/2 189/4/2 196/4/2
f 196/4/2 189/4/2 197/4/2
f 190/4/2 191/4/2 198/4/2
f 191/9/2 192/9/2 199/9/2
f 198/4/2 191/4/2 199/4/2
f 199/9/2 192/9/2 200/9/2
f 193/2/2 194/2/2 201/2/2
f 201/2/2 194/2/2 202/2/2
f 199/1/2 200/1/2 203/1/2
f 203/1/2 200/1/2 204/1/2
f 205/2/2 206/2/2 209/2/2
f 209/2/2 206/2/2 210/2/2
f 207/1/2 208/1/2 211/1/2
f 211/1/2 208/1/2 212/1/2
f 213/2/2 214/2/2 217/2/2
f 217/2/2 214/2/2 218/2/2
f 215/1/2 216/1/2 223/1/2
f 223/1/2 216/1/2 224/1/2
f 217/9/2 218/9/2 225/9/2
f 218/7/2 219/7/2 226/7/2
f 225/9/2 218/9/2 226/9/2
f 226/7/2 219/7/2 227/7/2
f 220/7/2 221/7/2 228/7/2
f 228/7/2 221/7/2 229/7/2
f 222/7/2 223/7/2 230/7/2
f 223/9/2 224/9/2 231/9/2
f 230/7/2 223/7/2 231/7/2
f 231/9/2 224/9/2 232/9/2
f 233/9/2 234/9/2 241/9/2
f 234/4/2 235/4/2 242/4/2
f 241/9/2 234/9/2 242/9/2
f 242/4/2 235/4/2 243/4/2
f 236/4/2 237/4/2 244/4/2
f 244/4/2 237/4/2 245/4/2
f 238/4/2 239/4/2 246/4/2
f 239/9/2 240/9/2 247/9/2
f 246/4/2 239/4/2 247/4/2
f 247/9/2 240/9/2 248/9/2
f 241/2/2 242/2/2 249/2/2
f 249/2/2 242/2/2 250/2/2
f 247/1/2 248/1/2 251/1/2
f 251/1/2 248/1/2 252/1/2
f 253/2/2 254/2/2 257/2/2
f 257/2/2 254/2/2 258/2/2
f 255/1/2 256/1/2 259/1/2
f 259/1/2 256/1/2 260/1/2
f 261/2/2 262/2/2 265/2/2
f 265/2/2 262/2/2 266/2/2
f 263/1/2 264/1/2 271/1/2
f 271/1/2 264/1/2 272/1/2
f 265/9/2 266/9/2 273/9/2
f 266/7/2 267/7/2 274/7/2
f 273/9/2 266/9/2 274/9/2
f 274/7/2 267/7/2 275/7/2
f 268/7/2 269/7/2 276/7/2
f 276/7/2 269/7/2 277/7/2
f 270/7/2 271/7/2 278/7/2
f 271/9/2 272/9/2 279/9/2
f 278/7/2 271/7/2 279/7/2
f 279/9/2 272/9/2 280/9/2
f 281/9/2 282/9/2 286/9/2
f 286/9/2 282/9/2 287/9/2
f 283/9/2 284/9/2 288/9/2
f 288/9/2 284/9/2 289/9/2
f 286/9/2 287/9/2 291/9/2
f 289/9/2 290/9/2 291/9/2
f 288/9/2 289/9/2 291/9/2
f 287/9/2 288/9/2 291/9/2
f 285/9/2 286/9/2 291/9/2
f 291/9/2 290/9/2 292/9/2
f 292/9/2 290/9/2 293/9/2
f 293/9/2 290/9/2 294/9/2
f 294/9/2 290/9/2 295/9/2
f 295/9/2 290/9/2 296/9/2
f 292/9/2 293/9/2 298/9/2
f 298/9/2 293/9/2 299/9/2
f 294/9/2 295/9/2 300/9/2
f 300/9/2 295/9/2 301/9/2
f 298/9/2 299/9/2 303/9/2
f 301/9/2 302/9/2 303/9/2
f 300/9/2 301/9/2 303/9/2
f 299/9/2 300/9/2 303/9/2
f 297/9/2 298/9/2 303/9/2
f 303/9/2 302/9/2 304/9/2
f 304/9/2 302/9/2 305/9/2
f 305/9/2 302/9/2 306/9/2
f 306/9/2 302/9/2 307/9/2
f 307/9/2 302/9/2 308/9/2
f 304/9/2 305/9/2 309/9/2
f 309/9/2 305/9/2 310/9/2
f 306/9/2 307/9/2 311/9/2
f 311/9/2 307/9/2 312/9/2
f 313/9/2 314/9/2 319/9/2
f 319/9/2 314/9/2 320/9/2
f 315/9/2 316/9/2 321/9/2
f 321/9/2 316/9/2 322/9/2
f 317/9/2 318/9/2 323/9/2
f 323/9/2 318/9/2 324/9/2
f 313/9/2 319/9/2 325/9/2
f 319/6/2 320/6/2 326/6/2
f 325/9/2 319/9/2 326/9/2
f 326/6/2 320/6/2 327/6/2
f 321/6/2 322/6/2 328/6/2
f 328/6/2 322/6/2 329/6/2
f 323/6/2 324/6/2 330/6/2
f 324/9/2 318/9/2 331/9/2
f 330/6/2 324/6/2 331/6/2
f 331/9/2 318/9/2 332/9/2
f 333/9/2 334/9/2 341/9/2
f 334/6/2 335/6/2 342/6/2
f 341/9/2 334/9/2 342/9/2
f 342/6/2 335/6/2 343/6/2
f 336/6/2 337/6/2 344/6/2
f 344/6/2 337/6/2 345/6/2
f 338/6/2 339/6/2 346/6/2
f 339/9/2 340/9/2 347/9/2
f 346/6/2 339/6/2 347/6/2
f 347/9/2 340/9/2 348/9/2
f 349/9/2 350/9/2 357/9/2
f 350/6/2 351/6/2 357/6/2
f 357/6/2 351/6/2 358/6/2
f 352/6/2 353/6/2 359/6/2
f 359/6/2 353/6/2 360/6/2
f 354/6/2 355/6/2 361/6/2
f 355/9/2 356/9/2 362/9/2
f 361/6/2 355/6/2 362/6/2
f 357/9/2 358/9/2 363/9/2
f 349/9/2 357/9/2 363/9/2
f 363/9/2 358/9/2 364/9/2
f 359/9/2 360/9/2 365/9/2
f 365/9/2 360/9/2 366/9/2
f 361/9/2 362/9/2 367/9/2
f 362/9/2 356/9/2 368/9/2
f 367/9/2 362/9/2 368/9/2
f 375/9/3 370/9/3 369/9/3
f 376/9/3 370/9/3 375/9/3
f 377/9/3 372/9/3 371/9/3
f 378/9/3 372/9/3 377/9/3
f 379/9/3 374/9/3 373/9/3
f 380/9/3 374/9/3 379/9/3
f 381/9/3 375/9/3 369/9/3
f 382/2/3 376/2/3 375/2/3
f 382/9/3 375/9/3 381/9/3
f 383/2/3 376/2/3 382/2/3
f 384/2/3 378/2/3 377/2/3
f 385/2/3 378/2/3 384/2/3
f 386/2/3 380/2/3 379/2/3
f 387/9/3 374/9/3 380/9/3
f 387/2/3 380/2/3 386/2/3
f 388/9/3 374/9/3 387/9/3
f 397/9/3 390/9/3 389/9/3
f 398/2/3 391/2/3 390/2/3
f 398/9/3 390/9/3 397/9/3
f 399/2/3 391/2/3 398/2/3
f 400/2/3 393/2/3 392/2/3
f 401/2/3 393/2/3 400/2/3
f 402/2/3 395/2/3 394/2/3
f 403/9/3 396/9/3 395/9/3
f 403/2/3 395/2/3 402/2/3
f 404/9/3 396/9/3 403/9/3
f 413/9/3 406/9/3 405/9/3
f 413/2/3 407/2/3 406/2/3
f 414/2/3 407/2/3 413/2/3
f 415/2/3 409/2/3 408/2/3
f 416/2/3 409/2/3 415/2/3
f 417/2/3 411/2/3 410/2/3
f 418/9/3 412/9/3 411/9/3
f 418/2/3 411/2/3 417/2/3
f 419/9/3 414/9/3 413/9/3
f 419/9/3 413/9/3 405/9/3
f 420/9/3 414/9/3 419/9/3
f 421/9/3 416/9/3 415/9/3
f 422/9/3 416/9/3 421/9/3
f 423/9/3 418/9/3 417/9/3
f 424/9/3 412/9/3 418/9/3
f 424/9/3 418/9/3 423/9/3
f 430/9/3 426/9/3 425/9/3
f 431/9/3 426/9/3 430/9/3
f 432/9/3 428/9/3 427/9/3
f 433/9/3 428/9/3 432/9/3
f 435/9/3 431/9/3 430/9/3
f 435/9/3 434/9/3 433/9/3
f 435/9/3 433/9/3 432/9/3
f 435/9/3 432/9/3 431/9/3
f 435/9/3 430/9/3 429/9/3
f 436/9/3 434/9/3 435/9/3
f 437/9/3 434/9/3 436/9/3
f 438/9/3 434/9/3 437/9/3
f 439/9/3 434/9/3 438/9/3
f 440/9/3 434/9/3 439/9/3
f 442/9/3 437/9/3 436/9/3
f 443/9/3 437/9/3 442/9/3
f 444/9/3 439/9/3 438/9/3
f 445/9/3 439/9/3 444/9/3
f 447/9/3 443/9/3 442/9/3
f 447/9/3 446/9/3 445/9/3
f 447/9/3 445/9/3 444/9/3
f 447/9/3 444/9/3 443/9/3
f 447/9/3 442/9/3 441/9/3
f 448/9/3 446/9/3 447/9/3
f 449/9/3 446/9/3 448/9/3
f 450/9/3 446/9/3 449/9/3
f 451/9/3 446/9/3 450/9/3
f 452/9/3 446/9/3 451/9/3
f 453/9/3 449/9/3 448/9/3
f 454/9/3 449/9/3 453/9/3
f 455/9/3 451/9/3 450/9/3
f 456/9/3 451/9/3 455/9/3
f 465/9/3 458/9/3 457/9/3
f 466/8/3 459/8/3 458/8/3
f 466/9/3 458/9/3 465/9/3
f 467/8/3 459/8/3 466/8/3
f 468/8/3 461/8/3 460/8/3
f 469/8/3 461/8/3 468/8/3
f 470/8/3 463/8/3 462/8/3
f 471/9/3 464/9/3 463/9/3
f 471/8/3 463/8/3 470/8/3
f 472/9/3 464/9/3 471/9/3
f 473/4/3 466/4/3 465/4/3
f 474/4/3 466/4/3 473/4/3
f 475/7/3 472/7/3 471/7/3
f 476/7/3 472/7/3 475/7/3
f 481/4/3 478/4/3 477/4/3
f 482/4/3 478/4/3 481/4/3
f 483/7/3 480/7/3 479/7/3
f 484/7/3 480/7/3 483/7/3
f 489/4/3 486/4/3 485/4/3
f 490/4/3 486/4/3 489/4/3
f 495/7/3 488/7/3 487/7/3
f 496/7/3 488/7/3 495/7/3
f 497/9/3 490/9/3 489/9/3
f 498/6/3 491/6/3 490/6/3
f 498/9/3 490/9/3 497/9/3
f 499/6/3 491/6/3 498/6/3
f 500/6/3 493/6/3 492/6/3
f 501/6/3 493/6/3 500/6/3
f 502/6/3 495/6/3 494/6/3
f 503/9/3 496/9/3 495/9/3
f 503/6/3 495/6/3 502/6/3
f 504/9/3 496/9/3 503/9/3
f 513/9/3 506/9/3 505/9/3
f 514/8/3 507/8/3 506/8/3
f 514/9/3 506/9/3 513/9/3
f 515/8/3 507/8/3 514/8/3
f 516/8/3 509/8/3 508/8/3
f 517/8/3 509/8/3 516/8/3
f 518/8/3 511/8/3 510/8/3
f 519/9/3 512/9/3 511/9/3
f 519/8/3 511/8/3 518/8/3
f 520/9/3 512/9/3 519/9/3
f 521/4/3 514/4/3 513/4/3
f 522/4/3 514/4/3 521/4/3
f 523/7/3 520/7/3 519/7/3
f 524/7/3 520/7/3 523/7/3
f 529/4/3 526/4/3 525/4/3
f 530/4/3 526/4/3 529/4/3
f 531/7/3 528/7/3 527/7/3
f 532/7/3 528/7/3 531/7/3
f 537/4/3 534/4/3 533/4/3
f 538/4/3 534/4/3 537/4/3
f 543/7/3 536/7/3 535/7/3
f 544/7/3 536/7/3 543/7/3
f 545/9/3 538/9/3 537/9/3
f 546/6/3 539/6/3 538/6/3
f 546/9/3 538/9/3 545/9/3
f 547/6/3 539/6/3 546/6/3
f 548/6/3 541/6/3 540/6/3
f 549/6/3 541/6/3 548/6/3
f 550/6/3 543/6/3 542/6/3
f 551/9/3 544/9/3 543/9/3
f 551/6/3 543/6/3 550/6/3
f 552/9/3 544/9/3 551/9/3
f 553/9/4 554/9/4 561/9/4
f 554/8/4 555/8/4 562/8/4
f 561/9/4 554/9/4 562/9/4
f 562/8/4 555/8/4 563/8/4
f 556/8/4 557/8/4 564/8/4
f 564/8/4 557/8/4 565/8/4
f 558/8/4 559/8/4 566/8/4
f 559/9/4 560/9/4 567/9/4
f 566/8/4 559/8/4 567/8/4
f 567/9/4 560/9/4 568/9/4
f 561/4/4 562/4/4 569/4/4
f 569/4/4 562/4/4 570/4/4
f 567/7/4 568/7/4 571/7/4
f 571/7/4 568/7/4 572/7/4
f 573/4/4 574/4/4 577/4/4
f 577/4/4 574/4/4 578/4/4
f 575/7/4 576/7/4 579/7/4
f 579/7/4 576/7/4 580/7/4
f 581/4/4 582/4/4 585/4/4
f 585/4/4 582/4/4 586/4/4
f 583/7/4 584/7/4 591/7/4
f 591/7/4 584/7/4 592/7/4
f 585/9/4 586/9/4 593/9/4
f 586/6/4 587/6/4 594/6/4
f 593/9/4 586/9/4 594/9/4
f 594/6/4 587/6/4 595/6/4
f 588/6/4 589/6/4 596/6/4
f 596/6/4 589/6/4 597/6/4
f 590/6/4 591/6/4 598/6/4
f 591/9/4 592/9/4 599/9/4
f 598/6/4 591/6/4 599/6/4
f 599/9/4 592/9/4 600/9/4
f 601/9/4 602/9/4 609/9/4
f 602/8/4 603/8/4 610/8/4
f 609/9/4 602/9/4 610/9/4
f 610/8/4 603/8/4 611/8/4
f 604/8/4 605/8/4 612/8/4
f 612/8/4 605/8/4 613/8/4
f 606/8/4 607/8/4 614/8/4
f 607/9/4 608/9/4 615/9/4
f 614/8/4 607/8/4 615/8/4
f 615/9/4 608/9/4 616/9/4
f 609/4/4 610/4/4 617/4/4
f 617/4/4 610/4/4 618/4/4
f 615/7/4 616/7/4 619/7/4
f 619/7/4 616/7/4 620/7/4
f 621/4/4 622/4/4 625/4/4
f 625/4/4 622/4/4 626/4/4
f 623/7/4 624/7/4 627/7/4
f 627/7/4 624/7/4 628/7/4
f 629/4/4 630/4/4 633/4/4
f 633/4/4 630/4/4 634/4/4
f 631/7/4 632/7/4 639/7/4
f 639/7/4 632/7/4 640/7/4
f 633/9/4 634/9/4 641/9/4
f 634/6/4 635/6/4 642/6/4
f 641/9/4 634/9/4 642/9/4
f 642/6/4 635/6/4 643/6/4
f 636/6/4 637/6/4 644/6/4
f 644/6/4 637/6/4 645/6/4
f 638/6/4 639/6/4 646/6/4
f 639/9/4 640/9/4 647/9/4
f 646/6/4 639/6/4 647/6/4
f 647/9/4 640/9/4 648/9/4
f 649/9/4 650/9/4 654/9/4
f 654/9/4 650/9/4 655/9/4
f 651/9/4 652/9/4 656/9/4
f 656/9/4 652/9/4 657/9/4
f 654/9/4 655/9/4 659/9/4
f 657/9/4 658/9/4 659/9/4
f 656/9/4 657/9/4 659/9/4
f 655/9/4 656/9/4 659/9/4
f 653/9/4 654/9/4 659/9/4
f 659/9/4 658/9/4 660/9/4
f 660/9/4 658/9/4 661/9/4
f 661/9/4 658/9/4 662/9/4
f 662/9/4 658/9/4 663/9/4
f 663/9/4 658/9/4 664/9/4
f 660/9/4 661/9/4 666/9/4
f 666/9/4 661/9/4 667/9/4
f 662/9/4 663/9/4 668/9/4
f 668/9/4 663/9/4 669/9/4
f 666/9/4 667/9/4 671/9/4
f 669/9/4 670/9/4 671/9/4
f 668/9/4 669/9/4 671/9/4
f 667/9/4 668/9/4 671/9/4
f 665/9/4 666/9/4 671/9/4
f 671/9/4 670/9/4 672/9/4
f 672/9/4 670/9/4 673/9/4
f 673/9/4 670/9/4 674/9/4
f 674/9/4 670/9/4 675/9/4
f 675/9/4 670/9/4 676/9/4
f 672/9/4 673/9/4 677/9/4
f 677/9/4 673/9/4 678/9/4
f 674/9/4 675/9/4 679/9/4
f 679/9/4 675/9/4 680/9/4
f 681/9/4 682/9/4 687/9/4
f 687/9/4 682/9/4 688/9/4
f 683/9/4 684/9/4 689/9/4
f 689/9/4 684/9/4 690/9/4
f 685/9/4 686/9/4 691/9/4
f 691/9/4 686/9/4 692/9/4
f 681/9/4 687/9/4 693/9/4
f 687/1/4 688/1/4 694/1/4
f 693/9/4 687/9/4 694/9/4
f 694/1/4 688/1/4 695/1/4
f 689/1/4 690/1/4 696/1/4
f 696/1/4 690/1/4 697/1/4
f 691/1/4 692/1/4 698/1/4
f 692/9/4 686/9/4 699/9/4
f 698/1/4 692/1/4 699/1/4
f 699/9/4 686/9/4 700/9/4
f 701/9/4 702/9/4 709/9/4
f 702/1/4 703/1/4 710/1/4
f 709/9/4 702/9/4 710/9/4
f 710/1/4 703/1/4 711/1/4
f 704/1/4 705/1/4 712/1/4
f 712/1/4 705/1/4 713/1/4
f 706/1/4 707/1/4 714/1/4
f 707/9/4 708/9/4 715/9/4
f 714/1/4 707/1/4 715/1/4
f 715/9/4 708/9/4 716/9/4
f 717/9/4 718/9/4 725/9/4
f 718/1/4 719/1/4 725/1/4
f 725/1/4 719/1/4 726/1/4
f 720/1/4 721/1/4 727/1/4
f 727/1/4 721/1/4 728/1/4
f 722/1/4 723/1/4 729/1/4
f 723/9/4 724/9/4 730/9/4
f 729/1/4 723/1/4 730/1/4
f 725/9/4 726/9/4 731/9/4
f 717/9/4 725/9/4 731/9/4
f 731/9/4 726/9/4 732/9/4
f 727/9/4 728/9/4 733/9/4
f 733/9/4 728/9/4 734/9/4
f 729/9/4 730/9/4 735/9/4
f 730/9/4 724/9/4 736/9/4
f 735/9/4 730/9/4 736/9/4
f 743/9/5 738/9/5 737/9/5
f 744/9/5 738/9/5 743/9/5
f 745/9/5 740/9/5 739/9/5
f 746/9/5 740/9/5 745/9/5
f 747/9/5 742/9/5 741/9/5
f 748/9/5 742/9/5 747/9/5
f 749/9/5 743/9/5 737/9/5
f 750/4/5 744/4/5 743/4/5
f 750/9/5 743/9/5 749/9/5
f 751/4/5 744/4/5 750/4/5
f 752/4/5 746/4/5 745/4/5
f 753/4/5 746/4/5 752/4/5
f 754/4/5 748/4/5 747/4/5
f 755/9/5 742/9/5 748/9/5
f 755/4/5 748/4/5 754/4/5
f 756/9/5 742/9/5 755/9/5
f 765/9/5 758/9/5 757/9/5
f 766/4/5 759/4/5 758/4/5
f 766/9/5 758/9/5 765/9/5
f 767/4/5 759/4/5 766/4/5
f 768/4/5 761/4/5 760/4/5
f 769/4/5 761/4/5 768/4/5
f 770/4/5 763/4/5 762/4/5
f 771/9/5 764/9/5 763/9/5
f 771/4/5 763/4/5 770/4/5
f 772/9/5 764/9/5 771/9/5
f 781/9/5 774/9/5 773/9/5
f 781/4/5 775/4/5 774/4/5
f 782/4/5 775/4/5 781/4/5
f 783/4/5 777/4/5 776/4/5
f 784/4/5 777/4/5 783/4/5
f 785/4/5 779/4/5 778/4/5
f 786/9/5 780/9/5 779/9/5
f 786/4/5 779/4/5 785/4/5
f 787/9/5 782/9/5 781/9/5
f 787/9/5 781/9/5 773/9/5
f 788/9/5 782/9/5 787/9/5
f 789/9/5 784/9/5 783/9/5
f 790/9/5 784/9/5 789/9/5
f 791/9/5 786/9/5 785/9/5
f 792/9/5 780/9/5 786/9/5
f 792/9/5 786/9/5 791/9/5
f 798/9/5 794/9/5 793/9/5
f 799/9/5 794/9/5 798/9/5
f 800/9/5 796/9/5 795/9/5
f 801/9/5 796/9/5 800/9/5
f 803/9/5 799/9/5 798/9/5
f 803/9/5 802/9/5 801/9/5
f 803/9/5 801/9/5 800/9/5
f 803/9/5 800/9/5 799/9/5
f 803/9/5 798/9/5 797/9/5
f 804/9/5 802/9/5 803/9/5
f 805/9/5 802/9/5 804/9/5
f 806/9/5 802/9/5 805/9/5
f 807/9/5 802/9/5 806/9/5
f 808/9/5 802/9/5 807/9/5
f 810/9/5 805/9/5 804/9/5
f 811/9/5 805/9/5 810/9/5
f 812/9/5 807/9/5 806/9/5
f 813/9/5 807/9/5 812/9/5
f 815/9/5 811/9/5 810/9/5
f 815/9/5 814/9/5 813/9/5
f 815/9/5 813/9/5 812/9/5
f 815/9/5 812/9/5 811/9/5
f 815/9/5 810/9/5 809/9/5
f 816/9/5 814/9/5 815/9/5
f 817/9/5 814/9/5 816/9/5
f 818/9/5 814/9/5 817/9/5
f 819/9/5 814/9/5 818/9/5
f 820/9/5 814/9/5 819/9/5
f 821/9/5 817/9/5 816/9/5
f 822/9/5 817/9/5 821/9/5
f 823/9/5 819/9/5 818/9/5
f 824/9/5 819/9/5 823/9/5
f 833/9/5 826/9/5 825/9/5
f 834/2/5 827/2/5 826/2/5
f 834/9/5 826/9/5 833/9/5
f 835/2/5 827/2/5 834/2/5
f 836/2/5 829/2/5 828/2/5
f 837/2/5 829/2/5 836/2/5
f 838/2/5 831/2/5 830/2/5
f 839/9/5 832/9/5 831/9/5
f 839/2/5 831/2/5 838/2/5
f 840/9/5 832/9/5 839/9/5
f 841/8/5 834/8/5 833/8/5
f 842/8/5 834/8/5 841/8/5
f 843/6/5 840/6/5 839/6/5
f 844/6/5 840/6/5 843/6/5
f 849/8/5 846/8/5 845/8/5
f 850/8/5 846/8/5 849/8/5
f 851/6/5 848/6/5 847/6/5
f 852/6/5 848/6/5 851/6/5
f 857/8/5 854/8/5 853/8/5
f 858/8/5 854/8/5 857/8/5
f 863/6/5 856/6/5 855/6/5
f 864/6/5 856/6/5 863/6/5
f 865/9/5 858/9/5 857/9/5
f 866/1/5 859/1/5 858/1/5
f 866/9/5 858/9/5 865/9/5
f 867/1/5 859/1/5 866/1/5
f 868/1/5 861/1/5 860/1/5
f 869/1/5 861/1/5 868/1/5
f 870/1/5 863/1/5 862/1/5
f 871/9/5 864/9/5 863/9/5
f 871/1/5 863/1/5 870/1/5
f 872/9/5 864/9/5 871/9/5
f 881/9/5 874/9/5 873/9/5
f 882/2/5 875/2/5 874/2/5
f 882/9/5 874/9/5 881/9/5
f 883/2/5 875/2/5 882/2/5
f 884/2/5 877/2/5 876/2/5
f 885/2/5 877/2/5 884/2/5
f 886/2/5 879/2/5 878/2/5
f 887/9/5 880/9/5 879/9/5
f 887/2/5 879/2/5 886/2/5
f 888/9/5 880/9/5 887/9/5
f 889/8/5 882/8/5 881/8/5
f 890/8/5 882/8/5 889/8/5
f 891/6/5 888/6/5 887/6/5
f 892/6/5 888/6/5 891/6/5
f 897/8/5 894/8/5 893/8/5
f 898/8/5 894/8/5 897/8/5
f 899/6/5 896/6/5 895/6/5
f 900/6/5 896/6/5 899/6/5
f 905/8/5 902/8/5 901/8/5
f 906/8/5 902/8/5 905/8/5
f 911/6/5 904/6/5 903/6/5
f 912/6/5 904/6/5 911/6/5
f 913/9/5 906/9/5 905/9/5
f 914/1/5 907/1/5 906/1/5
f 914/9/5 906/9/5 913/9/5
f 915/1/5 907/1/5 914/1/5
f 916/1/5 909/1/5 908/1/5
f 917/1/5 909/1/5 916/1/5
f 918/1/5 911/1/5 910/1/5
f 919/9/5 912/9/5 911/9/5
f 919/1/5 911/1/5 918/1/5
f 920/9/5 912/9/5 919/9/5
f 921/9/6 922/9/6 929/9/6
f 922/2/6 923/2/6 930/2/6
f 929/9/6 922/9/6 930/9/6
f 930/2/6 923/2/6 931/2/6
f 924/2/6 925/2/6 932/2/6
f 932/2/6 925/2/6 933/2/6
f 926/2/6 927/2/6 934/2/6
f 927/9/6 928/9/6 935/9/6
f 934/2/6 927/2/6 935/2/6
f 935/9/6 928/9/6 936/9/6
f 929/8/6 930/8/6 937/8/6
f 937/8/6 930/8/6 938/8/6
f 935/6/6 936/6/6 939/6/6
f 939/6/6 936/6/6 940/6/6
f 941/8/6 942/8/6 945/8/6
f 945/8/6 942/8/6 946/8/6
f 943/6/6 944/6/6 947/6/6
f 947/6/6 944/6/6 948/6/6
f 949/8/6 950/8/6 953/8/6
f 953/8/6 950/8/6 954/8/6
f 951/6/6 952/6/6 959/6/6
f 959/6/6 952/6/6 960/6/6
f 953/9/6 954/9/6 961/9/6
f 954/1/6 955/1/6 962/1/6
f 961/9/6 954/9/6 962/9/6
f 962/1/6 955/1/6 963/1/6
f 956/1/6 957/1/6 964/1/6
f 964/1/6 957/1/6 965/1/6
f 958/1/6 959/1/6 966/1/6
f 959/9/6 960/9/6 967/9/6
f 966/1/6 959/1/6 967/1/6
f 967/9/6 960/9/6 968/9/6
f 969/9/6 970/9/6 977/9/6
f 970/2/6 971/2/6 978/2/6
f 977/9/6 970/9/6 978/9/6
f 978/2/6 971/2/6 979/2/6
f 972/2/6 973/2/6 980/2/6
f 980/2/6 973/2/6 981/2/6
f 974/2/6 975/2/6 982/2/6
f 975/9/6 976/9/6 983/9/6
f 982/2/6 975/2/6 983/2/6
f 983/9/6 976/9/6 984/9/6
f 977/8/6 978/8/6 985/8/6
f 985/8/6 978/8/6 986/8/6
f 983/6/6 984/6/6 987/6/6
f 987/6/6 984/6/6 988/6/6
f 989/8/6 990/8/6 993/8/6
f 993/8/6 990/8/6 994/8/6
f 991/6/6 992/6/6 995/6/6
f 995/6/6 992/6/6 996/6/6
f 997/8/6 998/8/6 1001/8/6
f 1001/8/6 998/8/6 1002/8/6
f 999/6/6 1000/6/6 1007/6/6
f 1007/6/6 1000/6/6 1008/6/6
f 1001/9/6 1002/9/6 1009/9/6
f 1002/1/6 1003/1/6 1010/1/6
f 1009/9/6 1002/9/6 1010/9/6
f 1010/1/6 1003/1/6 1011/1/6
f 1004/1/6 1005/1/6 1012/1/6
f 1012/1/6 1005/1/6 1013/1/6
f 1006/1/6 1007/1/6 1014/1/6
f 1007/9/6 1008/9/6 1015/9/6
f 1014/1/6 1007/1/6 1015/1/6
f 1015/9/6 1008/9/6 1016/9/6
f 1017/9/6 1018/9/6 1022/9/6
f 1022/9/6 1018/9/6 1023/9/6
f 1019/9/6 1020/9/6 1024/9/6
f 1024/9/6 1020/9/6 1025/9/6
f 1022/9/6 1023/9/6 1027/9/6
f 1025/9/6 1026/9/6 1027/9/6
f 1024/9/6 1025/9/6 1027/9/6
f 1023/9/6 1024/9/6 1027/9/6
f 1021/9/6 1022/9/6 1027/9/6
f 1027/9/6 1026/9/6 1028/9/6
f 1028/9/6 1026/9/6 1029/9/6
f 1029/9/6 1026/9/6 1030/9/6
f 1030/9/6 1026/9/6 1031/9/6
f 1031/9/6 1026/9/6 1032/9/6
f 1028/9/6 1029/9/6 1034/9/6
f 1034/9/6 1029/9/6 1035/9/6
f 1030/9/6 1031/9/6 1036/9/6
f 1036/9/6 1031/9/6 1037/9/6
f 1034/9/6 1035/9/6 1039/9/6
f 1037/9/6 1038/9/6 1039/9/6
f 1036/9/6 1037/9/6 1039/9/6
f 1035/9/6 1036/9/6 1039/9/6
f 1033/9/6 1034/9/6 1039/9/6
f 1039/9/6 1038/9/6 1040/9/6
f 1040/9/6 1038/9/6 1041/9/6
f 1041/9/6 1038/9/6 1042/9/6
f 1042/9/6 1038/9/6 1043/9/6
f 1043/9/6 1038/9/6 1044/9/6
f 1040/9/6 1041/9/6 1045/9/6
f 1045/9/6 1041/9/6 1046/9/6
f 1042/9/6 1043/9/6 1047/9/6
f 1047/9/6 1043/9/6 1048/9/6
f 1049/9/6 1050/9/6 1055/9/6
f 1055/9/6 1050/9/6 1056/9/6
f 1051/9/6 1052/9/6 1057/9/6
f 1057/9/6 1052/9/6 1058/9/6
f 1053/9/6 1054/9/6 1059/9/6
f 1059/9/6 1054/9/6 1060/9/6
f 1049/9/6 1055/9/6 1061/9/6
f 1055/7/6 1056/7/6 1062/7/6
f 1061/9/6 1055/9/6 1062/9/6
f 1062/7/6 1056/7/6 1063/7/6
f 1057/7/6 1058/7/6 1064/7/6
f 1064/7/6 1058/7/6 1065/7/6
f 1059/7/6 1060/7/6 1066/7/6
f 1060/9/6 1054/9/6 1067/9/6
f 1066/7/6 1060/7/6 1067/7/6
f 1067/9/6 1054/9/6 1068/9/6
f 1069/9/6 1070/9/6 1077/9/6
f 1070/7/6 1071/7/6 1078/7/6
f 1077/9/6 1070/9/6 1078/9/6
f 1078/7/6 1071/7/6 1079/7/6
f 1072/7/6 1073/7/6 1080/7/6
f 1080/7/6 1073/7/6 1081/7/6
f 1074/7/6 1075/7/6 1082/7/6
f 1075/9/6 1076/9/6 1083/9/6
f 1082/7/6 1075/7/6 1083/7/6
f 1083/9/6 1076/9/6 1084/9/6
f 1085/9/6 1086/9/6 1093/9/6
f 1086/7/6 1087/7/6 1093/7/6
f 1093/7/6 1087/7/6 1094/7/6
f 1088/7/6 1089/7/6 1095/7/6
f 1095/7/6 1089/7/6 1096/7/6
f 1090/7/6 1091/7/6 1097/7/6
f 1091/9/6 1092/9/6 1098/9/6
f 1097/7/6 1091/7/6 1098/7/6
f 1093/9/6 1094/9/6 1099/9/6
f 1085/9/6 1093/9/6 1099/9/6
f 1099/9/6 1094/9/6 1100/9/6
f 1095/9/6 1096/9/6 1101/9/6
f 1101/9/6 1096/9/6 1102/9/6
f 1097/9/6 1098/9/6 1103/9/6
f 1098/9/6 1092/9/6 1104/9/6
f 1103/9/6 1098/9/6 1104/9/6
