# MagicaVoxel @ Ephtracy

# group
g Drone-1

# material
mtllib Drone-1.mtl
usemtl palette

# normals
vn -1 0 0
vn 1 0 0
vn 0 0 1
vn 0 0 -1
vn 0 -1 0
vn 0 1 0

# texcoords
vt 0.587891 0.5
vt 0.728516 0.5
vt 0.841797 0.5
vt 0.853516 0.5
vt 0.958984 0.5
vt 0.962891 0.5
vt 0.974609 0.5
vt 0.982422 0.5

# verts
v -7 0 4.5
v -7 0 -0.5
v -7 1 6.5
v -7 1 4.5
v -7 1 -0.5
v -7 1 -2.5
v -7 2 7.5
v -7 2 6.5
v -7 2 -2.5
v -7 2 -3.5
v -7 3 7.5
v -7 3 6.5
v -7 3 -2.5
v -7 3 -3.5
v -7 4 6.5
v -7 4 4.5
v -7 4 -0.5
v -7 4 -2.5
v -7 5 4.5
v -7 5 -0.5
v -6 0 6.5
v -6 0 4.5
v -6 0 -0.5
v -6 0 -2.5
v -6 1 7.5
v -6 1 6.5
v -6 1 4.5
v -6 1 -0.5
v -6 1 -2.5
v -6 1 -3.5
v -6 2 8.5
v -6 2 7.5
v -6 2 6.5
v -6 2 -2.5
v -6 2 -3.5
v -6 2 -4.5
v -6 3 8.5
v -6 3 7.5
v -6 3 6.5
v -6 3 -2.5
v -6 3 -3.5
v -6 3 -4.5
v -6 4 7.5
v -6 4 6.5
v -6 4 4.5
v -6 4 -0.5
v -6 4 -2.5
v -6 4 -3.5
v -6 5 6.5
v -6 5 4.5
v -6 5 -0.5
v -6 5 -2.5
v -5 0 7.5
v -5 0 6.5
v -5 0 -2.5
v -5 0 -3.5
v -5 1 8.5
v -5 1 7.5
v -5 1 6.5
v -5 1 -2.5
v -5 1 -3.5
v -5 1 -4.5
v -5 2 8.5
v -5 2 7.5
v -5 2 -3.5
v -5 2 -4.5
v -5 3 8.5
v -5 3 7.5
v -5 3 -3.5
v -5 3 -4.5
v -5 4 8.5
v -5 4 7.5
v -5 4 6.5
v -5 4 -2.5
v -5 4 -3.5
v -5 4 -4.5
v -5 5 7.5
v -5 5 6.5
v -5 5 -2.5
v -5 5 -3.5
v -3 0 -3.5
v -3 0 -4.5
v -3 1 -3.5
v -3 1 -4.5
v -3 4 -3.5
v -3 4 -4.5
v -3 5 -3.5
v -3 5 -4.5
v -2 0 8.5
v -2 0 7.5
v -2 1 8.5
v -2 1 7.5
v -2 4 8.5
v -2 4 7.5
v -2 5 8.5
v -2 5 7.5
v 2 0 8.5
v 2 0 7.5
v 2 1 8.5
v 2 1 7.5
v 2 4 8.5
v 2 4 7.5
v 2 5 8.5
v 2 5 7.5
v 3 0 -3.5
v 3 0 -4.5
v 3 1 -3.5
v 3 1 -4.5
v 3 4 -3.5
v 3 4 -4.5
v 3 5 -3.5
v 3 5 -4.5
v 5 0 7.5
v 5 0 6.5
v 5 0 -2.5
v 5 0 -3.5
v 5 1 8.5
v 5 1 7.5
v 5 1 6.5
v 5 1 -2.5
v 5 1 -3.5
v 5 1 -4.5
v 5 2 8.5
v 5 2 7.5
v 5 2 -3.5
v 5 2 -4.5
v 5 3 8.5
v 5 3 7.5
v 5 3 -3.5
v 5 3 -4.5
v 5 4 8.5
v 5 4 7.5
v 5 4 6.5
v 5 4 -2.5
v 5 4 -3.5
v 5 4 -4.5
v 5 5 7.5
v 5 5 6.5
v 5 5 -2.5
v 5 5 -3.5
v 6 0 6.5
v 6 0 4.5
v 6 0 -0.5
v 6 0 -2.5
v 6 1 7.5
v 6 1 6.5
v 6 1 4.5
v 6 1 -0.5
v 6 1 -2.5
v 6 1 -3.5
v 6 2 8.5
v 6 2 7.5
v 6 2 6.5
v 6 2 -2.5
v 6 2 -3.5
v 6 2 -4.5
v 6 3 8.5
v 6 3 7.5
v 6 3 6.5
v 6 3 -2.5
v 6 3 -3.5
v 6 3 -4.5
v 6 4 7.5
v 6 4 6.5
v 6 4 4.5
v 6 4 -0.5
v 6 4 -2.5
v 6 4 -3.5
v 6 5 6.5
v 6 5 4.5
v 6 5 -0.5
v 6 5 -2.5
v 7 0 4.5
v 7 0 -0.5
v 7 1 6.5
v 7 1 4.5
v 7 1 -0.5
v 7 1 -2.5
v 7 2 7.5
v 7 2 6.5
v 7 2 -2.5
v 7 2 -3.5
v 7 3 7.5
v 7 3 6.5
v 7 3 -2.5
v 7 3 -3.5
v 7 4 6.5
v 7 4 4.5
v 7 4 -0.5
v 7 4 -2.5
v 7 5 4.5
v 7 5 -0.5
v -6 2 8.5
v -6 3 8.5
v -5 1 8.5
v -5 2 8.5
v -5 3 8.5
v -5 4 8.5
v -2 0 8.5
v -2 1 8.5
v -2 4 8.5
v -2 5 8.5
v 2 0 8.5
v 2 1 8.5
v 2 4 8.5
v 2 5 8.5
v 5 1 8.5
v 5 2 8.5
v 5 3 8.5
v 5 4 8.5
v 6 2 8.5
v 6 3 8.5
v -7 2 7.5
v -7 3 7.5
v -6 1 7.5
v -6 2 7.5
v -6 3 7.5
v -6 4 7.5
v -5 0 7.5
v -5 1 7.5
v -5 2 7.5
v -5 3 7.5
v -5 4 7.5
v -5 5 7.5
v -2 0 7.5
v -2 1 7.5
v -2 4 7.5
v -2 5 7.5
v 2 0 7.5
v 2 1 7.5
v 2 4 7.5
v 2 5 7.5
v 5 0 7.5
v 5 1 7.5
v 5 2 7.5
v 5 3 7.5
v 5 4 7.5
v 5 5 7.5
v 6 1 7.5
v 6 2 7.5
v 6 3 7.5
v 6 4 7.5
v 7 2 7.5
v 7 3 7.5
v -7 1 6.5
v -7 2 6.5
v -7 3 6.5
v -7 4 6.5
v -6 0 6.5
v -6 1 6.5
v -6 2 6.5
v -6 3 6.5
v -6 4 6.5
v -6 5 6.5
v -5 0 6.5
v -5 1 6.5
v -5 4 6.5
v -5 5 6.5
v 5 0 6.5
v 5 1 6.5
v 5 4 6.5
v 5 5 6.5
v 6 0 6.5
v 6 1 6.5
v 6 2 6.5
v 6 3 6.5
v 6 4 6.5
v 6 5 6.5
v 7 1 6.5
v 7 2 6.5
v 7 3 6.5
v 7 4 6.5
v -7 0 4.5
v -7 1 4.5
v -7 4 4.5
v -7 5 4.5
v -6 0 4.5
v -6 1 4.5
v -6 4 4.5
v -6 5 4.5
v 6 0 4.5
v 6 1 4.5
v 6 4 4.5
v 6 5 4.5
v 7 0 4.5
v 7 1 4.5
v 7 4 4.5
v 7 5 4.5
v -7 0 -0.5
v -7 1 -0.5
v -7 4 -0.5
v -7 5 -0.5
v -6 0 -0.5
v -6 1 -0.5
v -6 4 -0.5
v -6 5 -0.5
v 6 0 -0.5
v 6 1 -0.5
v 6 4 -0.5
v 6 5 -0.5
v 7 0 -0.5
v 7 1 -0.5
v 7 4 -0.5
v 7 5 -0.5
v -7 1 -2.5
v -7 2 -2.5
v -7 3 -2.5
v -7 4 -2.5
v -6 0 -2.5
v -6 1 -2.5
v -6 2 -2.5
v -6 3 -2.5
v -6 4 -2.5
v -6 5 -2.5
v -5 0 -2.5
v -5 1 -2.5
v -5 4 -2.5
v -5 5 -2.5
v 5 0 -2.5
v 5 1 -2.5
v 5 4 -2.5
v 5 5 -2.5
v 6 0 -2.5
v 6 1 -2.5
v 6 2 -2.5
v 6 3 -2.5
v 6 4 -2.5
v 6 5 -2.5
v 7 1 -2.5
v 7 2 -2.5
v 7 3 -2.5
v 7 4 -2.5
v -7 2 -3.5
v -7 3 -3.5
v -6 1 -3.5
v -6 2 -3.5
v -6 3 -3.5
v -6 4 -3.5
v -5 0 -3.5
v -5 1 -3.5
v -5 2 -3.5
v -5 3 -3.5
v -5 4 -3.5
v -5 5 -3.5
v -3 0 -3.5
v -3 1 -3.5
v -3 4 -3.5
v -3 5 -3.5
v 3 0 -3.5
v 3 1 -3.5
v 3 4 -3.5
v 3 5 -3.5
v 5 0 -3.5
v 5 1 -3.5
v 5 2 -3.5
v 5 3 -3.5
v 5 4 -3.5
v 5 5 -3.5
v 6 1 -3.5
v 6 2 -3.5
v 6 3 -3.5
v 6 4 -3.5
v 7 2 -3.5
v 7 3 -3.5
v -6 2 -4.5
v -6 3 -4.5
v -5 1 -4.5
v -5 2 -4.5
v -5 3 -4.5
v -5 4 -4.5
v -3 0 -4.5
v -3 1 -4.5
v -3 2 -4.5
v -3 3 -4.5
v -3 4 -4.5
v -3 5 -4.5
v -2 2 -4.5
v -2 3 -4.5
v 2 2 -4.5
v 2 3 -4.5
v 3 0 -4.5
v 3 1 -4.5
v 3 2 -4.5
v 3 3 -4.5
v 3 4 -4.5
v 3 5 -4.5
v 5 1 -4.5
v 5 2 -4.5
v 5 3 -4.5
v 5 4 -4.5
v 6 2 -4.5
v 6 3 -4.5
v -2 0 8.5
v 2 0 8.5
v -5 0 7.5
v -2 0 7.5
v -1 0 7.5
v 1 0 7.5
v 2 0 7.5
v 5 0 7.5
v -6 0 6.5
v -5 0 6.5
v -3 0 6.5
v -2 0 6.5
v 2 0 6.5
v 3 0 6.5
v 5 0 6.5
v 6 0 6.5
v -4 0 5.5
v -3 0 5.5
v 3 0 5.5
v 4 0 5.5
v -7 0 4.5
v -6 0 4.5
v -5 0 4.5
v -4 0 4.5
v 4 0 4.5
v 5 0 4.5
v 6 0 4.5
v 7 0 4.5
v -5 0 3.5
v -2 0 3.5
v 2 0 3.5
v 5 0 3.5
v -6 0 2.5
v -1 0 2.5
v 1 0 2.5
v 6 0 2.5
v -6 0 1.5
v -1 0 1.5
v 1 0 1.5
v 6 0 1.5
v -5 0 0.5
v -2 0 0.5
v 2 0 0.5
v 5 0 0.5
v -7 0 -0.5
v -6 0 -0.5
v -5 0 -0.5
v -4 0 -0.5
v 4 0 -0.5
v 5 0 -0.5
v 6 0 -0.5
v 7 0 -0.5
v -4 0 -1.5
v -3 0 -1.5
v 3 0 -1.5
v 4 0 -1.5
v -6 0 -2.5
v -5 0 -2.5
v -3 0 -2.5
v -2 0 -2.5
v 2 0 -2.5
v 3 0 -2.5
v 5 0 -2.5
v 6 0 -2.5
v -5 0 -3.5
v -3 0 -3.5
v -1 0 -3.5
v 1 0 -3.5
v 3 0 -3.5
v 5 0 -3.5
v -3 0 -4.5
v 3 0 -4.5
v -5 1 8.5
v -2 1 8.5
v 2 1 8.5
v 5 1 8.5
v -6 1 7.5
v -5 1 7.5
v -2 1 7.5
v 2 1 7.5
v 5 1 7.5
v 6 1 7.5
v -7 1 6.5
v -6 1 6.5
v -5 1 6.5
v 5 1 6.5
v 6 1 6.5
v 7 1 6.5
v -7 1 4.5
v -6 1 4.5
v 6 1 4.5
v 7 1 4.5
v -7 1 -0.5
v -6 1 -0.5
v 6 1 -0.5
v 7 1 -0.5
v -7 1 -2.5
v -6 1 -2.5
v -5 1 -2.5
v 5 1 -2.5
v 6 1 -2.5
v 7 1 -2.5
v -6 1 -3.5
v -5 1 -3.5
v -3 1 -3.5
v 3 1 -3.5
v 5 1 -3.5
v 6 1 -3.5
v -5 1 -4.5
v -3 1 -4.5
v 3 1 -4.5
v 5 1 -4.5
v -6 2 8.5
v -5 2 8.5
v 5 2 8.5
v 6 2 8.5
v -7 2 7.5
v -6 2 7.5
v -5 2 7.5
v 5 2 7.5
v 6 2 7.5
v 7 2 7.5
v -7 2 6.5
v -6 2 6.5
v 6 2 6.5
v 7 2 6.5
v -7 2 -2.5
v -6 2 -2.5
v 6 2 -2.5
v 7 2 -2.5
v -7 2 -3.5
v -6 2 -3.5
v -5 2 -3.5
v 5 2 -3.5
v 6 2 -3.5
v 7 2 -3.5
v -6 2 -4.5
v -5 2 -4.5
v 5 2 -4.5
v 6 2 -4.5
v -6 3 8.5
v -5 3 8.5
v 5 3 8.5
v 6 3 8.5
v -7 3 7.5
v -6 3 7.5
v -5 3 7.5
v 5 3 7.5
v 6 3 7.5
v 7 3 7.5
v -7 3 6.5
v -6 3 6.5
v 6 3 6.5
v 7 3 6.5
v -7 3 -2.5
v -6 3 -2.5
v 6 3 -2.5
v 7 3 -2.5
v -7 3 -3.5
v -6 3 -3.5
v -5 3 -3.5
v 5 3 -3.5
v 6 3 -3.5
v 7 3 -3.5
v -6 3 -4.5
v -5 3 -4.5
v 5 3 -4.5
v 6 3 -4.5
v -5 4 8.5
v -2 4 8.5
v 2 4 8.5
v 5 4 8.5
v -6 4 7.5
v -5 4 7.5
v -2 4 7.5
v 2 4 7.5
v 5 4 7.5
v 6 4 7.5
v -7 4 6.5
v -6 4 6.5
v -5 4 6.5
v 5 4 6.5
v 6 4 6.5
v 7 4 6.5
v -7 4 4.5
v -6 4 4.5
v 6 4 4.5
v 7 4 4.5
v -7 4 -0.5
v -6 4 -0.5
v 6 4 -0.5
v 7 4 -0.5
v -7 4 -2.5
v -6 4 -2.5
v -5 4 -2.5
v 5 4 -2.5
v 6 4 -2.5
v 7 4 -2.5
v -6 4 -3.5
v -5 4 -3.5
v -3 4 -3.5
v 3 4 -3.5
v 5 4 -3.5
v 6 4 -3.5
v -5 4 -4.5
v -3 4 -4.5
v 3 4 -4.5
v 5 4 -4.5
v -2 5 8.5
v 2 5 8.5
v -5 5 7.5
v -2 5 7.5
v 2 5 7.5
v 5 5 7.5
v -6 5 6.5
v -5 5 6.5
v -3 5 6.5
v -2 5 6.5
v 2 5 6.5
v 3 5 6.5
v 5 5 6.5
v 6 5 6.5
v -4 5 5.5
v -3 5 5.5
v -1 5 5.5
v 1 5 5.5
v 3 5 5.5
v 4 5 5.5
v -7 5 4.5
v -6 5 4.5
v -5 5 4.5
v -4 5 4.5
v 4 5 4.5
v 5 5 4.5
v 6 5 4.5
v 7 5 4.5
v -5 5 3.5
v -2 5 3.5
v 2 5 3.5
v 5 5 3.5
v -4 5 2.5
v -1 5 2.5
v 1 5 2.5
v 4 5 2.5
v -4 5 1.5
v -1 5 1.5
v 1 5 1.5
v 4 5 1.5
v -5 5 0.5
v -2 5 0.5
v 2 5 0.5
v 5 5 0.5
v -7 5 -0.5
v -6 5 -0.5
v -5 5 -0.5
v -4 5 -0.5
v 4 5 -0.5
v 5 5 -0.5
v 6 5 -0.5
v 7 5 -0.5
v -4 5 -1.5
v -3 5 -1.5
v -1 5 -1.5
v 1 5 -1.5
v 3 5 -1.5
v 4 5 -1.5
v -6 5 -2.5
v -5 5 -2.5
v -3 5 -2.5
v -2 5 -2.5
v 2 5 -2.5
v 3 5 -2.5
v 5 5 -2.5
v 6 5 -2.5
v -5 5 -3.5
v -3 5 -3.5
v 3 5 -3.5
v 5 5 -3.5
v -3 5 -4.5
v 3 5 -4.5

# faces
f 4/5/1 2/5/1 1/5/1
f 5/5/1 2/5/1 4/5/1
f 8/5/1 4/5/1 3/5/1
f 8/5/1 6/5/1 5/5/1
f 8/5/1 5/5/1 4/5/1
f 9/5/1 6/5/1 8/5/1
f 11/5/1 8/5/1 7/5/1
f 11/5/1 10/5/1 9/5/1
f 11/5/1 9/5/1 8/5/1
f 12/5/1 10/5/1 11/5/1
f 13/5/1 10/5/1 12/5/1
f 14/5/1 10/5/1 13/5/1
f 15/5/1 13/5/1 12/5/1
f 16/5/1 13/5/1 15/5/1
f 17/5/1 13/5/1 16/5/1
f 18/5/1 13/5/1 17/5/1
f 19/5/1 17/5/1 16/5/1
f 20/5/1 17/5/1 19/5/1
f 26/5/1 22/5/1 21/5/1
f 27/5/1 22/5/1 26/5/1
f 28/5/1 24/5/1 23/5/1
f 29/5/1 24/5/1 28/5/1
f 32/5/1 26/5/1 25/5/1
f 33/5/1 26/5/1 32/5/1
f 34/5/1 30/5/1 29/5/1
f 35/5/1 30/5/1 34/5/1
f 37/5/1 32/5/1 31/5/1
f 38/5/1 32/5/1 37/5/1
f 41/5/1 36/5/1 35/5/1
f 42/5/1 36/5/1 41/5/1
f 43/5/1 39/5/1 38/5/1
f 44/5/1 39/5/1 43/5/1
f 47/5/1 41/5/1 40/5/1
f 48/5/1 41/5/1 47/5/1
f 49/5/1 45/5/1 44/5/1
f 50/5/1 45/5/1 49/5/1
f 51/5/1 47/5/1 46/5/1
f 52/5/1 47/5/1 51/5/1
f 58/5/1 54/5/1 53/5/1
f 59/5/1 54/5/1 58/5/1
f 60/5/1 56/5/1 55/5/1
f 61/5/1 56/5/1 60/5/1
f 63/5/1 58/5/1 57/5/1
f 64/5/1 58/5/1 63/5/1
f 65/5/1 62/5/1 61/5/1
f 66/5/1 62/5/1 65/5/1
f 71/5/1 68/5/1 67/5/1
f 72/5/1 68/5/1 71/5/1
f 75/5/1 70/5/1 69/5/1
f 76/5/1 70/5/1 75/5/1
f 77/5/1 73/5/1 72/5/1
f 78/5/1 73/5/1 77/5/1
f 79/5/1 75/5/1 74/5/1
f 80/5/1 75/5/1 79/5/1
f 83/5/1 82/5/1 81/5/1
f 84/5/1 82/5/1 83/5/1
f 87/5/1 86/5/1 85/5/1
f 88/5/1 86/5/1 87/5/1
f 91/5/1 90/5/1 89/5/1
f 92/5/1 90/5/1 91/5/1
f 95/5/1 94/5/1 93/5/1
f 96/5/1 94/5/1 95/5/1
f 97/5/2 98/5/2 99/5/2
f 99/5/2 98/5/2 100/5/2
f 101/5/2 102/5/2 103/5/2
f 103/5/2 102/5/2 104/5/2
f 105/5/2 106/5/2 107/5/2
f 107/5/2 106/5/2 108/5/2
f 109/5/2 110/5/2 111/5/2
f 111/5/2 110/5/2 112/5/2
f 113/5/2 114/5/2 118/5/2
f 118/5/2 114/5/2 119/5/2
f 115/5/2 116/5/2 120/5/2
f 120/5/2 116/5/2 121/5/2
f 117/5/2 118/5/2 123/5/2
f 123/5/2 118/5/2 124/5/2
f 121/5/2 122/5/2 125/5/2
f 125/5/2 122/5/2 126/5/2
f 127/5/2 128/5/2 131/5/2
f 131/5/2 128/5/2 132/5/2
f 129/5/2 130/5/2 135/5/2
f 135/5/2 130/5/2 136/5/2
f 132/5/2 133/5/2 137/5/2
f 137/5/2 133/5/2 138/5/2
f 134/5/2 135/5/2 139/5/2
f 139/5/2 135/5/2 140/5/2
f 141/5/2 142/5/2 146/5/2
f 146/5/2 142/5/2 147/5/2
f 143/5/2 144/5/2 148/5/2
f 148/5/2 144/5/2 149/5/2
f 145/5/2 146/5/2 152/5/2
f 152/5/2 146/5/2 153/5/2
f 149/5/2 150/5/2 154/5/2
f 154/5/2 150/5/2 155/5/2
f 151/5/2 152/5/2 157/5/2
f 157/5/2 152/5/2 158/5/2
f 155/5/2 156/5/2 161/5/2
f 161/5/2 156/5/2 162/5/2
f 158/5/2 159/5/2 163/5/2
f 163/5/2 159/5/2 164/5/2
f 160/5/2 161/5/2 167/5/2
f 167/5/2 161/5/2 168/5/2
f 164/5/2 165/5/2 169/5/2
f 169/5/2 165/5/2 170/5/2
f 166/5/2 167/5/2 171/5/2
f 171/5/2 167/5/2 172/5/2
f 173/5/2 174/5/2 176/5/2
f 176/5/2 174/5/2 177/5/2
f 175/5/2 176/5/2 180/5/2
f 177/5/2 178/5/2 180/5/2
f 176/5/2 177/5/2 180/5/2
f 180/5/2 178/5/2 181/5/2
f 179/5/2 180/5/2 183/5/2
f 181/5/2 182/5/2 183/5/2
f 180/5/2 181/5/2 183/5/2
f 183/5/2 182/5/2 184/5/2
f 184/5/2 182/5/2 185/5/2
f 185/5/2 182/5/2 186/5/2
f 184/5/2 185/5/2 187/5/2
f 187/5/2 185/5/2 188/5/2
f 188/5/2 185/5/2 189/5/2
f 189/5/2 185/5/2 190/5/2
f 188/5/2 189/5/2 191/5/2
f 191/5/2 189/5/2 192/5/2
f 196/5/3 194/5/3 193/5/3
f 197/5/3 194/5/3 196/5/3
f 200/5/3 196/5/3 195/5/3
f 200/5/3 198/5/3 197/5/3
f 200/5/3 197/5/3 196/5/3
f 201/5/3 198/5/3 200/5/3
f 203/5/3 200/5/3 199/5/3
f 203/5/3 202/5/3 201/5/3
f 203/5/3 201/5/3 200/5/3
f 204/5/3 202/5/3 203/5/3
f 205/5/3 202/5/3 204/5/3
f 206/5/3 202/5/3 205/5/3
f 207/5/3 205/5/3 204/5/3
f 208/5/3 205/5/3 207/5/3
f 209/5/3 205/5/3 208/5/3
f 210/5/3 205/5/3 209/5/3
f 211/5/3 209/5/3 208/5/3
f 212/5/3 209/5/3 211/5/3
f 216/5/3 214/5/3 213/5/3
f 217/5/3 214/5/3 216/5/3
f 220/5/3 216/5/3 215/5/3
f 221/5/3 216/5/3 220/5/3
f 222/5/3 218/5/3 217/5/3
f 223/5/3 218/5/3 222/5/3
f 225/5/3 220/5/3 219/5/3
f 226/5/3 220/5/3 225/5/3
f 227/5/3 224/5/3 223/5/3
f 228/5/3 224/5/3 227/5/3
f 233/5/3 230/5/3 229/5/3
f 234/5/3 230/5/3 233/5/3
f 237/5/3 232/5/3 231/5/3
f 238/5/3 232/5/3 237/5/3
f 239/5/3 235/5/3 234/5/3
f 240/5/3 235/5/3 239/5/3
f 241/5/3 237/5/3 236/5/3
f 242/5/3 237/5/3 241/5/3
f 243/5/3 241/5/3 240/5/3
f 244/5/3 241/5/3 243/5/3
f 250/5/3 246/5/3 245/5/3
f 251/5/3 246/5/3 250/5/3
f 252/5/3 248/5/3 247/5/3
f 253/5/3 248/5/3 252/5/3
f 255/5/3 250/5/3 249/5/3
f 256/5/3 250/5/3 255/5/3
f 257/5/3 254/5/3 253/5/3
f 258/5/3 254/5/3 257/5/3
f 263/5/3 260/5/3 259/5/3
f 264/5/3 260/5/3 263/5/3
f 267/5/3 262/5/3 261/5/3
f 268/5/3 262/5/3 267/5/3
f 269/5/3 265/5/3 264/5/3
f 270/5/3 265/5/3 269/5/3
f 271/5/3 267/5/3 266/5/3
f 272/5/3 267/5/3 271/5/3
f 277/5/3 274/5/3 273/5/3
f 278/5/3 274/5/3 277/5/3
f 279/5/3 276/5/3 275/5/3
f 280/5/3 276/5/3 279/5/3
f 285/5/3 282/5/3 281/5/3
f 286/5/3 282/5/3 285/5/3
f 287/5/3 284/5/3 283/5/3
f 288/5/3 284/5/3 287/5/3
f 289/5/4 290/5/4 293/5/4
f 293/5/4 290/5/4 294/5/4
f 291/5/4 292/5/4 295/5/4
f 295/5/4 292/5/4 296/5/4
f 297/5/4 298/5/4 301/5/4
f 301/5/4 298/5/4 302/5/4
f 299/5/4 300/5/4 303/5/4
f 303/5/4 300/5/4 304/5/4
f 305/5/4 306/5/4 310/5/4
f 310/5/4 306/5/4 311/5/4
f 307/5/4 308/5/4 312/5/4
f 312/5/4 308/5/4 313/5/4
f 309/5/4 310/5/4 315/5/4
f 315/5/4 310/5/4 316/5/4
f 313/5/4 314/5/4 317/5/4
f 317/5/4 314/5/4 318/5/4
f 319/5/4 320/5/4 323/5/4
f 323/5/4 320/5/4 324/5/4
f 321/5/4 322/5/4 327/5/4
f 327/5/4 322/5/4 328/5/4
f 324/5/4 325/5/4 329/5/4
f 329/5/4 325/5/4 330/5/4
f 326/5/4 327/5/4 331/5/4
f 331/5/4 327/5/4 332/5/4
f 333/5/4 334/5/4 336/5/4
f 336/5/4 334/5/4 337/5/4
f 335/5/4 336/5/4 340/5/4
f 340/5/4 336/5/4 341/5/4
f 337/5/4 338/5/4 342/5/4
f 342/5/4 338/5/4 343/5/4
f 339/5/4 340/5/4 345/5/4
f 345/5/4 340/5/4 346/5/4
f 343/5/4 344/5/4 347/5/4
f 347/5/4 344/5/4 348/5/4
f 349/5/4 350/5/4 353/5/4
f 353/5/4 350/5/4 354/5/4
f 351/5/4 352/5/4 357/5/4
f 357/5/4 352/5/4 358/5/4
f 354/5/4 355/5/4 359/5/4
f 359/5/4 355/5/4 360/5/4
f 356/5/4 357/5/4 361/5/4
f 361/5/4 357/5/4 362/5/4
f 360/5/4 361/5/4 363/5/4
f 363/5/4 361/5/4 364/5/4
f 365/5/4 366/5/4 368/5/4
f 368/5/4 366/5/4 369/5/4
f 367/5/4 368/5/4 372/5/4
f 369/5/4 370/5/4 372/5/4
f 368/5/4 369/5/4 372/5/4
f 372/5/4 370/5/4 373/5/4
f 373/5/4 370/5/4 374/5/4
f 374/5/4 370/5/4 375/5/4
f 371/5/4 372/5/4 377/5/4
f 372/5/4 373/5/4 377/5/4
f 373/4/4 374/4/4 377/4/4
f 375/5/4 376/5/4 378/5/4
f 377/4/4 374/4/4 378/4/4
f 374/5/4 375/5/4 378/5/4
f 371/5/4 377/5/4 379/5/4
f 377/3/4 378/3/4 379/3/4
f 378/5/4 376/5/4 380/5/4
f 379/3/4 378/3/4 380/3/4
f 371/5/4 379/5/4 381/5/4
f 381/5/4 379/5/4 382/5/4
f 379/4/4 380/4/4 383/4/4
f 382/5/4 379/5/4 383/5/4
f 380/5/4 376/5/4 384/5/4
f 383/4/4 380/4/4 384/4/4
f 384/5/4 376/5/4 385/5/4
f 385/5/4 376/5/4 386/5/4
f 382/5/4 383/5/4 387/5/4
f 384/5/4 385/5/4 387/5/4
f 383/5/4 384/5/4 387/5/4
f 387/5/4 385/5/4 388/5/4
f 388/5/4 385/5/4 389/5/4
f 389/5/4 385/5/4 390/5/4
f 388/5/4 389/5/4 391/5/4
f 391/5/4 389/5/4 392/5/4
f 396/5/5 394/5/5 393/5/5
f 397/5/5 394/5/5 396/5/5
f 398/5/5 394/5/5 397/5/5
f 399/5/5 394/5/5 398/5/5
f 402/5/5 396/5/5 395/5/5
f 402/5/5 397/5/5 396/5/5
f 403/5/5 397/5/5 402/5/5
f 404/5/5 397/5/5 403/5/5
f 405/5/5 400/5/5 399/5/5
f 405/5/5 399/5/5 398/5/5
f 406/5/5 400/5/5 405/5/5
f 407/5/5 400/5/5 406/5/5
f 409/5/5 402/5/5 401/5/5
f 409/5/5 403/5/5 402/5/5
f 410/7/5 404/7/5 403/7/5
f 410/5/5 403/5/5 409/5/5
f 411/5/5 408/5/5 407/5/5
f 411/5/5 407/5/5 406/5/5
f 411/7/5 406/7/5 405/7/5
f 412/5/5 408/5/5 411/5/5
f 414/5/5 409/5/5 401/5/5
f 415/5/5 409/5/5 414/5/5
f 416/7/5 410/7/5 409/7/5
f 416/5/5 409/5/5 415/5/5
f 417/5/5 408/5/5 412/5/5
f 417/7/5 412/7/5 411/7/5
f 418/5/5 408/5/5 417/5/5
f 419/5/5 408/5/5 418/5/5
f 421/5/5 415/5/5 414/5/5
f 421/7/5 416/7/5 415/7/5
f 421/5/5 414/5/5 413/5/5
f 422/5/5 397/5/5 404/5/5
f 422/7/5 416/7/5 421/7/5
f 422/7/5 410/7/5 416/7/5
f 422/7/5 404/7/5 410/7/5
f 423/7/5 417/7/5 411/7/5
f 423/7/5 418/7/5 417/7/5
f 423/5/5 405/5/5 398/5/5
f 423/7/5 411/7/5 405/7/5
f 424/5/5 420/5/5 419/5/5
f 424/7/5 418/7/5 423/7/5
f 424/5/5 419/5/5 418/5/5
f 425/5/5 421/5/5 413/5/5
f 425/5/5 422/5/5 421/5/5
f 426/5/5 397/5/5 422/5/5
f 426/5/5 422/5/5 425/5/5
f 426/6/5 398/6/5 397/6/5
f 427/5/5 424/5/5 423/5/5
f 427/6/5 398/6/5 426/6/5
f 427/5/5 423/5/5 398/5/5
f 428/5/5 420/5/5 424/5/5
f 428/5/5 424/5/5 427/5/5
f 429/6/5 427/6/5 426/6/5
f 429/5/5 425/5/5 413/5/5
f 429/6/5 428/6/5 427/6/5
f 429/6/5 426/6/5 425/6/5
f 430/6/5 428/6/5 429/6/5
f 431/6/5 428/6/5 430/6/5
f 432/5/5 420/5/5 428/5/5
f 432/6/5 428/6/5 431/6/5
f 433/5/5 430/5/5 429/5/5
f 434/5/5 430/5/5 433/5/5
f 435/5/5 432/5/5 431/5/5
f 436/5/5 432/5/5 435/5/5
f 437/5/5 429/5/5 413/5/5
f 437/5/5 433/5/5 429/5/5
f 438/5/5 433/5/5 437/5/5
f 439/7/5 434/7/5 433/7/5
f 439/5/5 433/5/5 438/5/5
f 440/7/5 434/7/5 439/7/5
f 441/7/5 436/7/5 435/7/5
f 442/5/5 432/5/5 436/5/5
f 442/7/5 436/7/5 441/7/5
f 443/5/5 420/5/5 432/5/5
f 443/5/5 432/5/5 442/5/5
f 444/5/5 420/5/5 443/5/5
f 445/7/5 434/7/5 440/7/5
f 445/5/5 439/5/5 438/5/5
f 445/5/5 440/5/5 439/5/5
f 446/7/5 434/7/5 445/7/5
f 447/7/5 441/7/5 435/7/5
f 448/5/5 442/5/5 441/5/5
f 448/7/5 441/7/5 447/7/5
f 448/5/5 443/5/5 442/5/5
f 449/5/5 446/5/5 445/5/5
f 449/5/5 445/5/5 438/5/5
f 450/5/5 446/5/5 449/5/5
f 451/7/5 434/7/5 446/7/5
f 451/5/5 446/5/5 450/5/5
f 452/5/5 430/5/5 434/5/5
f 452/7/5 434/7/5 451/7/5
f 453/7/5 447/7/5 435/7/5
f 453/5/5 435/5/5 431/5/5
f 454/5/5 448/5/5 447/5/5
f 454/7/5 447/7/5 453/7/5
f 455/5/5 443/5/5 448/5/5
f 455/5/5 448/5/5 454/5/5
f 456/5/5 443/5/5 455/5/5
f 457/5/5 451/5/5 450/5/5
f 457/5/5 452/5/5 451/5/5
f 458/5/5 452/5/5 457/5/5
f 459/6/5 431/6/5 430/6/5
f 459/5/5 452/5/5 458/5/5
f 459/5/5 430/5/5 452/5/5
f 460/5/5 455/5/5 454/5/5
f 460/6/5 431/6/5 459/6/5
f 460/5/5 454/5/5 453/5/5
f 460/5/5 453/5/5 431/5/5
f 461/5/5 455/5/5 460/5/5
f 462/5/5 455/5/5 461/5/5
f 463/5/5 459/5/5 458/5/5
f 463/5/5 461/5/5 460/5/5
f 463/5/5 460/5/5 459/5/5
f 464/5/5 461/5/5 463/5/5
f 470/5/5 466/5/5 465/5/5
f 471/5/5 466/5/5 470/5/5
f 472/5/5 468/5/5 467/5/5
f 473/5/5 468/5/5 472/5/5
f 476/5/5 470/5/5 469/5/5
f 477/5/5 470/5/5 476/5/5
f 478/5/5 474/5/5 473/5/5
f 479/5/5 474/5/5 478/5/5
f 481/5/5 476/5/5 475/5/5
f 482/5/5 476/5/5 481/5/5
f 483/5/5 480/5/5 479/5/5
f 484/5/5 480/5/5 483/5/5
f 489/5/5 486/5/5 485/5/5
f 490/5/5 486/5/5 489/5/5
f 493/5/5 488/5/5 487/5/5
f 494/5/5 488/5/5 493/5/5
f 495/5/5 491/5/5 490/5/5
f 496/5/5 491/5/5 495/5/5
f 499/5/5 493/5/5 492/5/5
f 500/5/5 493/5/5 499/5/5
f 501/5/5 497/5/5 496/5/5
f 502/5/5 497/5/5 501/5/5
f 503/5/5 499/5/5 498/5/5
f 504/5/5 499/5/5 503/5/5
f 510/5/5 506/5/5 505/5/5
f 511/5/5 506/5/5 510/5/5
f 512/5/5 508/5/5 507/5/5
f 513/5/5 508/5/5 512/5/5
f 515/5/5 510/5/5 509/5/5
f 516/5/5 510/5/5 515/5/5
f 517/5/5 514/5/5 513/5/5
f 518/5/5 514/5/5 517/5/5
f 523/5/5 520/5/5 519/5/5
f 524/5/5 520/5/5 523/5/5
f 527/5/5 522/5/5 521/5/5
f 528/5/5 522/5/5 527/5/5
f 529/5/5 525/5/5 524/5/5
f 530/5/5 525/5/5 529/5/5
f 531/5/5 527/5/5 526/5/5
f 532/5/5 527/5/5 531/5/5
f 533/5/6 534/5/6 538/5/6
f 538/5/6 534/5/6 539/5/6
f 535/5/6 536/5/6 540/5/6
f 540/5/6 536/5/6 541/5/6
f 537/5/6 538/5/6 543/5/6
f 543/5/6 538/5/6 544/5/6
f 541/5/6 542/5/6 545/5/6
f 545/5/6 542/5/6 546/5/6
f 547/5/6 548/5/6 551/5/6
f 551/5/6 548/5/6 552/5/6
f 549/5/6 550/5/6 555/5/6
f 555/5/6 550/5/6 556/5/6
f 552/5/6 553/5/6 557/5/6
f 557/5/6 553/5/6 558/5/6
f 554/5/6 555/5/6 559/5/6
f 559/5/6 555/5/6 560/5/6
f 561/5/6 562/5/6 566/5/6
f 566/5/6 562/5/6 567/5/6
f 563/5/6 564/5/6 568/5/6
f 568/5/6 564/5/6 569/5/6
f 565/5/6 566/5/6 572/5/6
f 572/5/6 566/5/6 573/5/6
f 569/5/6 570/5/6 574/5/6
f 574/5/6 570/5/6 575/5/6
f 571/5/6 572/5/6 577/5/6
f 577/5/6 572/5/6 578/5/6
f 575/5/6 576/5/6 579/5/6
f 579/5/6 576/5/6 580/5/6
f 581/5/6 582/5/6 585/5/6
f 585/5/6 582/5/6 586/5/6
f 583/5/6 584/5/6 589/5/6
f 589/5/6 584/5/6 590/5/6
f 586/5/6 587/5/6 591/5/6
f 591/5/6 587/5/6 592/5/6
f 588/5/6 589/5/6 595/5/6
f 595/5/6 589/5/6 596/5/6
f 592/5/6 593/5/6 597/5/6
f 597/5/6 593/5/6 598/5/6
f 594/5/6 595/5/6 599/5/6
f 599/5/6 595/5/6 600/5/6
f 601/5/6 602/5/6 604/5/6
f 604/5/6 602/5/6 605/5/6
f 603/5/6 604/5/6 608/5/6
f 605/5/6 606/5/6 608/5/6
f 604/5/6 605/5/6 608/5/6
f 608/5/6 606/5/6 609/5/6
f 609/5/6 606/5/6 610/5/6
f 610/5/6 606/5/6 611/5/6
f 611/5/6 606/5/6 612/5/6
f 612/5/6 606/5/6 613/5/6
f 607/5/6 608/5/6 615/5/6
f 608/5/6 609/5/6 615/5/6
f 609/8/6 610/8/6 616/8/6
f 615/5/6 609/5/6 616/5/6
f 610/5/6 611/5/6 617/5/6
f 617/5/6 611/5/6 618/5/6
f 613/5/6 614/5/6 619/5/6
f 612/5/6 613/5/6 619/5/6
f 611/8/6 612/8/6 619/8/6
f 619/5/6 614/5/6 620/5/6
f 607/5/6 615/5/6 622/5/6
f 622/5/6 615/5/6 623/5/6
f 615/8/6 616/8/6 624/8/6
f 623/5/6 615/5/6 624/5/6
f 620/5/6 614/5/6 625/5/6
f 619/8/6 620/8/6 625/8/6
f 625/5/6 614/5/6 626/5/6
f 626/5/6 614/5/6 627/5/6
f 622/5/6 623/5/6 629/5/6
f 623/8/6 624/8/6 629/8/6
f 621/5/6 622/5/6 629/5/6
f 624/8/6 616/8/6 630/8/6
f 629/8/6 624/8/6 630/8/6
f 616/8/6 610/8/6 630/8/6
f 610/5/6 617/5/6 630/5/6
f 618/5/6 611/5/6 631/5/6
f 619/8/6 625/8/6 631/8/6
f 625/8/6 626/8/6 631/8/6
f 611/8/6 619/8/6 631/8/6
f 627/5/6 628/5/6 632/5/6
f 631/8/6 626/8/6 632/8/6
f 626/5/6 627/5/6 632/5/6
f 629/5/6 630/5/6 633/5/6
f 630/5/6 617/5/6 634/5/6
f 633/5/6 630/5/6 634/5/6
f 617/6/6 618/6/6 634/6/6
f 631/5/6 632/5/6 635/5/6
f 634/6/6 618/6/6 635/6/6
f 618/5/6 631/5/6 635/5/6
f 635/5/6 632/5/6 636/5/6
f 629/5/6 633/5/6 637/5/6
f 633/6/6 634/6/6 637/6/6
f 635/6/6 636/6/6 637/6/6
f 634/6/6 635/6/6 637/6/6
f 637/6/6 636/6/6 638/6/6
f 638/6/6 636/6/6 639/6/6
f 636/5/6 632/5/6 640/5/6
f 639/6/6 636/6/6 640/6/6
f 621/5/6 629/5/6 641/5/6
f 629/5/6 637/5/6 641/5/6
f 637/5/6 638/5/6 641/5/6
f 641/5/6 638/5/6 642/5/6
f 639/5/6 640/5/6 643/5/6
f 640/5/6 632/5/6 644/5/6
f 643/5/6 640/5/6 644/5/6
f 632/5/6 628/5/6 644/5/6
f 621/5/6 641/5/6 645/5/6
f 645/5/6 641/5/6 646/5/6
f 641/8/6 642/8/6 647/8/6
f 646/5/6 641/5/6 647/5/6
f 647/8/6 642/8/6 648/8/6
f 643/8/6 644/8/6 649/8/6
f 644/5/6 628/5/6 650/5/6
f 649/8/6 644/8/6 650/8/6
f 650/5/6 628/5/6 651/5/6
f 651/5/6 628/5/6 652/5/6
f 648/8/6 642/8/6 653/8/6
f 646/5/6 647/5/6 653/5/6
f 647/5/6 648/5/6 653/5/6
f 653/8/6 642/8/6 654/8/6
f 638/6/6 639/6/6 655/6/6
f 642/5/6 638/5/6 655/5/6
f 639/5/6 643/5/6 656/5/6
f 655/6/6 639/6/6 656/6/6
f 643/8/6 649/8/6 657/8/6
f 650/5/6 651/5/6 658/5/6
f 657/8/6 649/8/6 658/8/6
f 649/5/6 650/5/6 658/5/6
f 653/5/6 654/5/6 659/5/6
f 646/5/6 653/5/6 659/5/6
f 659/5/6 654/5/6 660/5/6
f 654/8/6 642/8/6 661/8/6
f 660/5/6 654/5/6 661/5/6
f 642/5/6 655/5/6 662/5/6
f 661/8/6 642/8/6 662/8/6
f 655/5/6 656/5/6 662/5/6
f 656/5/6 643/5/6 663/5/6
f 662/5/6 656/5/6 663/5/6
f 643/8/6 657/8/6 663/8/6
f 657/5/6 658/5/6 664/5/6
f 663/8/6 657/8/6 664/8/6
f 658/5/6 651/5/6 665/5/6
f 664/5/6 658/5/6 665/5/6
f 665/5/6 651/5/6 666/5/6
f 660/5/6 661/5/6 667/5/6
f 664/5/6 665/5/6 667/5/6
f 663/5/6 664/5/6 667/5/6
f 661/5/6 662/5/6 667/5/6
f 662/5/6 663/5/6 667/5/6
f 667/5/6 665/5/6 668/5/6
f 668/5/6 665/5/6 669/5/6
f 669/5/6 665/5/6 670/5/6
f 668/5/6 669/5/6 671/5/6
f 671/5/6 669/5/6 672/5/6
